-------------------------------------------------------------------------------
Test set: net.sf.okapi.connectors.microsoft.TestGetTranslationsArrayRequest
-------------------------------------------------------------------------------
Tests run: 1, Failures: 0, Errors: 0, Skipped: 0, Time elapsed: 0.077 sec - in net.sf.okapi.connectors.microsoft.TestGetTranslationsArrayRequest
