-------------------------------------------------------------------------------
Test set: net.sf.okapi.connectors.microsoft.TestQueryResultBuilder
-------------------------------------------------------------------------------
Tests run: 3, Failures: 0, Errors: 0, Skipped: 0, Time elapsed: 0.39 sec - in net.sf.okapi.connectors.microsoft.TestQueryResultBuilder
