net/sf/okapi/lib/segmentation/Rule.class
net/sf/okapi/lib/segmentation/LanguageMap.class
net/sf/okapi/lib/segmentation/SRXDocument.class
net/sf/okapi/lib/segmentation/SegmentationRuleException.class
net/sf/okapi/lib/segmentation/SRXSegmenter$1.class
net/sf/okapi/lib/segmentation/SRXSegmenter.class
net/sf/okapi/lib/segmentation/Placeholder.class
net/sf/okapi/lib/segmentation/CompiledRule.class
