/home/ttnd/okapi-priya/okapi/okapi/steps/repetitionanalysis/src/main/java/net/sf/okapi/steps/repetitionanalysis/RepetitionAnalysisStep.java
/home/ttnd/okapi-priya/okapi/okapi/steps/repetitionanalysis/src/main/java/net/sf/okapi/steps/repetitionanalysis/SegmentInfo.java
/home/ttnd/okapi-priya/okapi/okapi/steps/repetitionanalysis/src/main/java/net/sf/okapi/steps/repetitionanalysis/RepetitiveSegmentAnnotation.java
/home/ttnd/okapi-priya/okapi/okapi/steps/repetitionanalysis/src/main/java/net/sf/okapi/steps/repetitionanalysis/Parameters.java
