net/sf/okapi/filters/transtable/TransTableFilter.class
net/sf/okapi/filters/transtable/TransTableWriter.class
net/sf/okapi/filters/transtable/TransTableWriter$1.class
net/sf/okapi/filters/transtable/Parameters.class
