/home/ttnd/okapi-priya/okapi/okapi/filters/transtable/src/main/java/net/sf/okapi/filters/transtable/Parameters.java
/home/ttnd/okapi-priya/okapi/okapi/filters/transtable/src/main/java/net/sf/okapi/filters/transtable/TransTableFilter.java
/home/ttnd/okapi-priya/okapi/okapi/filters/transtable/src/main/java/net/sf/okapi/filters/transtable/TransTableWriter.java
