/home/ttnd/okapi-priya/okapi/okapi/filters/html/src/main/java/net/sf/okapi/filters/html/StreamedSourceCopy.java
/home/ttnd/okapi-priya/okapi/okapi/filters/html/src/main/java/net/sf/okapi/filters/html/HtmlSkeletonWriter.java
/home/ttnd/okapi-priya/okapi/okapi/filters/html/src/main/java/net/sf/okapi/filters/html/Parameters.java
/home/ttnd/okapi-priya/okapi/okapi/filters/html/src/main/java/net/sf/okapi/filters/html/HtmlFilter.java
