-------------------------------------------------------------------------------
Test set: net.sf.okapi.steps.segmentation.TestRenumberingSegmentationStep
-------------------------------------------------------------------------------
Tests run: 2, Failures: 0, Errors: 0, Skipped: 0, Time elapsed: 0.201 sec - in net.sf.okapi.steps.segmentation.TestRenumberingSegmentationStep
