-------------------------------------------------------------------------------
Test set: net.sf.okapi.steps.segmentation.SegmentationStepWithStreamsTest
-------------------------------------------------------------------------------
Tests run: 4, Failures: 0, Errors: 0, Skipped: 0, Time elapsed: 0.54 sec - in net.sf.okapi.steps.segmentation.SegmentationStepWithStreamsTest
