/home/ttnd/okapi-priya/okapi/okapi/filters/transifex/src/main/java/net/sf/okapi/filters/transifex/IProjectEditor.java
/home/ttnd/okapi-priya/okapi/okapi/filters/transifex/src/main/java/net/sf/okapi/filters/transifex/FilterWriterAnnotation.java
/home/ttnd/okapi-priya/okapi/okapi/filters/transifex/src/main/java/net/sf/okapi/filters/transifex/Project.java
/home/ttnd/okapi-priya/okapi/okapi/filters/transifex/src/main/java/net/sf/okapi/filters/transifex/TransifexFilter.java
/home/ttnd/okapi-priya/okapi/okapi/filters/transifex/src/main/java/net/sf/okapi/filters/transifex/Parameters.java
/home/ttnd/okapi-priya/okapi/okapi/filters/transifex/src/main/java/net/sf/okapi/filters/transifex/TransifexFilterWriter.java
