/home/ttnd/okapi-priya/okapi/okapi/filters/idml/src/main/java/net/sf/okapi/filters/idml/IDMLFilter.java
/home/ttnd/okapi-priya/okapi/okapi/filters/idml/src/main/java/net/sf/okapi/filters/idml/IDMLFilterWriter.java
/home/ttnd/okapi-priya/okapi/okapi/filters/idml/src/main/java/net/sf/okapi/filters/idml/IDMLContext.java
/home/ttnd/okapi-priya/okapi/okapi/filters/idml/src/main/java/net/sf/okapi/filters/idml/NodeReference.java
/home/ttnd/okapi-priya/okapi/okapi/filters/idml/src/main/java/net/sf/okapi/filters/idml/IDMLPreserveWhitespaceUtil.java
/home/ttnd/okapi-priya/okapi/okapi/filters/idml/src/main/java/net/sf/okapi/filters/idml/Parameters.java
/home/ttnd/okapi-priya/okapi/okapi/filters/idml/src/main/java/net/sf/okapi/filters/idml/IDMLSkeleton.java
