-------------------------------------------------------------------------------
Test set: net.sf.okapi.steps.common.codesimplifier.TestPostSegmentationCodeSimplifierStep
-------------------------------------------------------------------------------
Tests run: 3, Failures: 0, Errors: 0, Skipped: 0, Time elapsed: 0.085 sec - in net.sf.okapi.steps.common.codesimplifier.TestPostSegmentationCodeSimplifierStep
