/home/ttnd/okapi-priya/okapi/okapi/libraries/lib-tkit/src/main/java/net/sf/okapi/lib/tkit/step/MultipleVersionMergerStep.java
/home/ttnd/okapi-priya/okapi/okapi/libraries/lib-tkit/src/main/java/net/sf/okapi/lib/tkit/step/CombinedXliffMergerStep.java
/home/ttnd/okapi-priya/okapi/okapi/libraries/lib-tkit/src/main/java/net/sf/okapi/lib/tkit/jarswitcher/Versions.java
/home/ttnd/okapi-priya/okapi/okapi/libraries/lib-tkit/src/main/java/net/sf/okapi/lib/tkit/jarswitcher/VersionInfo.java
/home/ttnd/okapi-priya/okapi/okapi/libraries/lib-tkit/src/main/java/net/sf/okapi/lib/tkit/step/LegacyXliffMergerStep.java
/home/ttnd/okapi-priya/okapi/okapi/libraries/lib-tkit/src/main/java/net/sf/okapi/lib/tkit/jarswitcher/SampleConfigBuilder.java
/home/ttnd/okapi-priya/okapi/okapi/libraries/lib-tkit/src/main/java/net/sf/okapi/lib/tkit/merge/ITextUnitMerger.java
/home/ttnd/okapi-priya/okapi/okapi/libraries/lib-tkit/src/main/java/net/sf/okapi/lib/tkit/merge/SkeletonMergerWriter.java
/home/ttnd/okapi-priya/okapi/okapi/libraries/lib-tkit/src/main/java/net/sf/okapi/lib/tkit/jarswitcher/VersionManager.java
/home/ttnd/okapi-priya/okapi/okapi/libraries/lib-tkit/src/main/java/net/sf/okapi/lib/tkit/writer/XLIFFAndSkeletonWriter.java
/home/ttnd/okapi-priya/okapi/okapi/libraries/lib-tkit/src/main/java/net/sf/okapi/lib/tkit/step/OriginalDocumentXliffMergerStep.java
/home/ttnd/okapi-priya/okapi/okapi/libraries/lib-tkit/src/main/java/net/sf/okapi/lib/tkit/filter/BeanEventFilter.java
/home/ttnd/okapi-priya/okapi/okapi/libraries/lib-tkit/src/main/java/net/sf/okapi/lib/tkit/step/SkeletonXliffMergerStep.java
/home/ttnd/okapi-priya/okapi/okapi/libraries/lib-tkit/src/main/java/net/sf/okapi/lib/tkit/merge/TextUnitMerger.java
/home/ttnd/okapi-priya/okapi/okapi/libraries/lib-tkit/src/main/java/net/sf/okapi/lib/tkit/merge/Parameters.java
/home/ttnd/okapi-priya/okapi/okapi/libraries/lib-tkit/src/main/java/net/sf/okapi/lib/tkit/step/MultipleVersionsParameters.java
/home/ttnd/okapi-priya/okapi/okapi/libraries/lib-tkit/src/main/java/net/sf/okapi/lib/tkit/jarswitcher/VMClassLoader.java
/home/ttnd/okapi-priya/okapi/okapi/libraries/lib-tkit/src/main/java/net/sf/okapi/lib/tkit/writer/Parameters.java
/home/ttnd/okapi-priya/okapi/okapi/libraries/lib-tkit/src/main/java/net/sf/okapi/lib/tkit/writer/BeanEventWriter.java
/home/ttnd/okapi-priya/okapi/okapi/libraries/lib-tkit/src/main/java/net/sf/okapi/lib/tkit/jarswitcher/SampleAppWrapper.java
