-------------------------------------------------------------------------------
Test set: net.sf.okapi.virtualdb.jdbc.h2.H2ImplementationTest
-------------------------------------------------------------------------------
Tests run: 5, Failures: 0, Errors: 0, Skipped: 0, Time elapsed: 2.408 sec - in net.sf.okapi.virtualdb.jdbc.h2.H2ImplementationTest
