/home/ttnd/okapi-priya/okapi/okapi/steps/segmentation/src/test/java/net/sf/okapi/steps/segmentation/SegmentationStepWithStreamsTest.java
/home/ttnd/okapi-priya/okapi/okapi/steps/segmentation/src/test/java/net/sf/okapi/steps/segmentation/SegmentationStepWithIcu4jRulesTest.java
/home/ttnd/okapi-priya/okapi/okapi/steps/segmentation/src/test/java/net/sf/okapi/steps/segmentation/TestRenumberingSegmentationStep.java
/home/ttnd/okapi-priya/okapi/okapi/steps/segmentation/src/test/java/net/sf/okapi/steps/segmentation/Issue277Test.java
/home/ttnd/okapi-priya/okapi/okapi/steps/segmentation/src/test/java/net/sf/okapi/steps/segmentation/SegmentationStepTest.java
/home/ttnd/okapi-priya/okapi/okapi/steps/segmentation/src/test/java/net/sf/okapi/steps/desegmentation/DesegmentationStepTest.java
