-------------------------------------------------------------------------------
Test set: net.sf.okapi.steps.leveraging.LeveragingStepTest
-------------------------------------------------------------------------------
Tests run: 1, Failures: 0, Errors: 0, Skipped: 0, Time elapsed: 0.495 sec - in net.sf.okapi.steps.leveraging.LeveragingStepTest
