-------------------------------------------------------------------------------
Test set: net.sf.okapi.steps.leveraging.BatchTmLeveragingStepTest
-------------------------------------------------------------------------------
Tests run: 1, Failures: 0, Errors: 0, Skipped: 0, Time elapsed: 3.299 sec - in net.sf.okapi.steps.leveraging.BatchTmLeveragingStepTest
