net/sf/okapi/lib/persistence/json/jackson/JSONPersistenceSession$1.class
net/sf/okapi/lib/persistence/PersistenceBean.class
net/sf/okapi/lib/persistence/json/jackson/JSONBean.class
net/sf/okapi/lib/persistence/IVersionDriver.class
net/sf/okapi/lib/persistence/ReferenceResolver.class
net/sf/okapi/lib/persistence/json/jackson/JSONPersistenceSession$2.class
net/sf/okapi/lib/persistence/BeanMapper.class
net/sf/okapi/lib/persistence/beans/FactoryBean.class
net/sf/okapi/lib/persistence/json/jackson/JSONUtil.class
net/sf/okapi/lib/persistence/json/jackson/JSONPersistenceSession$3.class
net/sf/okapi/lib/persistence/json/jackson/JSONUtil$1.class
net/sf/okapi/lib/persistence/ReferenceResolver$1.class
net/sf/okapi/lib/persistence/beans/TypeInfoBean.class
net/sf/okapi/lib/persistence/BeanMap.class
net/sf/okapi/lib/persistence/json/jackson/JSONPersistenceSession.class
net/sf/okapi/lib/persistence/NamespaceMapper.class
net/sf/okapi/lib/persistence/PersistenceSession.class
net/sf/okapi/lib/persistence/VersionMapper.class
net/sf/okapi/lib/persistence/beans/SelfBean.class
net/sf/okapi/lib/persistence/BeanList.class
net/sf/okapi/persistence/xml/java/beans/JavaBeansPersistenceSession.class
net/sf/okapi/lib/persistence/IPersistenceSession.class
net/sf/okapi/lib/persistence/PersistenceSession$1.class
net/sf/okapi/lib/persistence/IPersistenceBean.class
net/sf/okapi/lib/persistence/beans/ReferenceBean.class
net/sf/okapi/lib/persistence/SessionState.class
net/sf/okapi/persistence/xml/java/xstream/XStreamPersistenceSession.class
