-------------------------------------------------------------------------------
Test set: net.sf.okapi.lib.tkit.roundtrip.RegexFilterTest
-------------------------------------------------------------------------------
Tests run: 4, Failures: 0, Errors: 0, Skipped: 0, Time elapsed: 0.135 sec - in net.sf.okapi.lib.tkit.roundtrip.RegexFilterTest
