-------------------------------------------------------------------------------
Test set: net.sf.okapi.lib.tkit.roundtrip.XmlSnippetsTest
-------------------------------------------------------------------------------
Tests run: 48, Failures: 0, Errors: 0, Skipped: 0, Time elapsed: 1.852 sec - in net.sf.okapi.lib.tkit.roundtrip.XmlSnippetsTest
