-------------------------------------------------------------------------------
Test set: net.sf.okapi.lib.tkit.roundtrip.POFilterTest
-------------------------------------------------------------------------------
Tests run: 29, Failures: 0, Errors: 0, Skipped: 0, Time elapsed: 2.148 sec - in net.sf.okapi.lib.tkit.roundtrip.POFilterTest
