-------------------------------------------------------------------------------
Test set: net.sf.okapi.lib.tkit.step.OriginalDocumentXliffMergerStepTest
-------------------------------------------------------------------------------
Tests run: 1, Failures: 0, Errors: 0, Skipped: 0, Time elapsed: 0.041 sec - in net.sf.okapi.lib.tkit.step.OriginalDocumentXliffMergerStepTest
