/home/ttnd/okapi-priya/okapi/okapi/filters/openoffice/src/test/java/net/sf/okapi/filters/openoffice/ODFFilterTest.java
/home/ttnd/okapi-priya/okapi/okapi/filters/openoffice/src/test/java/net/sf/okapi/filters/openoffice/OpenOfficeFilterTest.java
/home/ttnd/okapi-priya/okapi/okapi/filters/openoffice/src/test/java/net/sf/okapi/filters/openoffice/ParametersBuilder.java
