net/sf/okapi/steps/msbatchtranslation/MSBatchSubmissionStep.class
net/sf/okapi/steps/msbatchtranslation/MSBatchTranslationStep$1.class
net/sf/okapi/steps/msbatchtranslation/SubmissionParameters.class
net/sf/okapi/steps/msbatchtranslation/MSBatchTranslationStep.class
net/sf/okapi/steps/msbatchtranslation/Parameters.class
