-------------------------------------------------------------------------------
Test set: net.sf.okapi.steps.inlinescodeschecker.InlineCodesCheckerStepTest
-------------------------------------------------------------------------------
Tests run: 5, Failures: 0, Errors: 0, Skipped: 0, Time elapsed: 0.016 sec - in net.sf.okapi.steps.inlinescodeschecker.InlineCodesCheckerStepTest
