/home/ttnd/okapi-priya/okapi/okapi/filters/xliff/src/main/java/net/sf/okapi/filters/xliff/XLIFFSkeletonWriter.java
/home/ttnd/okapi-priya/okapi/okapi/filters/xliff/src/main/java/net/sf/okapi/filters/xliff/XLIFFFilter.java
/home/ttnd/okapi-priya/okapi/okapi/filters/xliff/src/main/java/net/sf/okapi/filters/xliff/XliffSdlFilterExtension.java
/home/ttnd/okapi-priya/okapi/okapi/filters/xliff/src/main/java/net/sf/okapi/filters/xliff/its/ITSLQI.java
/home/ttnd/okapi-priya/okapi/okapi/filters/xliff/src/main/java/net/sf/okapi/filters/xliff/its/ITSProvenance.java
/home/ttnd/okapi-priya/okapi/okapi/filters/xliff/src/main/java/net/sf/okapi/filters/xliff/its/ITSLQICollection.java
/home/ttnd/okapi-priya/okapi/okapi/filters/xliff/src/main/java/net/sf/okapi/filters/xliff/SdlTagDef.java
/home/ttnd/okapi-priya/okapi/okapi/filters/xliff/src/main/java/net/sf/okapi/filters/xliff/XLIFFITSFilterExtension.java
/home/ttnd/okapi-priya/okapi/okapi/filters/xliff/src/main/java/net/sf/okapi/filters/xliff/its/ITSDefaultDataStore.java
/home/ttnd/okapi-priya/okapi/okapi/filters/xliff/src/main/java/net/sf/okapi/filters/xliff/Parameters.java
/home/ttnd/okapi-priya/okapi/okapi/filters/xliff/src/main/java/net/sf/okapi/filters/xliff/SdlXliffSkeletonWriter.java
/home/ttnd/okapi-priya/okapi/okapi/filters/xliff/src/main/java/net/sf/okapi/filters/xliff/its/IITSDataStore.java
/home/ttnd/okapi-priya/okapi/okapi/filters/xliff/src/main/java/net/sf/okapi/filters/xliff/its/ITSStandoffManager.java
/home/ttnd/okapi-priya/okapi/okapi/filters/xliff/src/main/java/net/sf/okapi/filters/xliff/its/ITSProvenanceCollection.java
/home/ttnd/okapi-priya/okapi/okapi/filters/xliff/src/main/java/net/sf/okapi/filters/xliff/CodeTypeFactory.java
