-------------------------------------------------------------------------------
Test set: net.sf.okapi.steps.languagetool.LanguageToolTest
-------------------------------------------------------------------------------
Tests run: 10, Failures: 0, Errors: 0, Skipped: 0, Time elapsed: 17.479 sec - in net.sf.okapi.steps.languagetool.LanguageToolTest
