net/sf/okapi/filters/openxml/StyledTextSkeletonWriter.class
net/sf/okapi/filters/openxml/DocumentType.class
net/sf/okapi/filters/openxml/ITranslator.class
net/sf/okapi/filters/openxml/SharedStringMap$Entry.class
net/sf/okapi/filters/openxml/ExcelStyles.class
net/sf/okapi/filters/openxml/MarkupComponentClarifier.class
net/sf/okapi/filters/openxml/ExcelWorksheet$MergeArea.class
net/sf/okapi/filters/openxml/MarkupComponentClarifier$AlignmentClarifier.class
net/sf/okapi/filters/openxml/Property.class
net/sf/okapi/filters/openxml/AttributeStripper$StrippableAttribute.class
net/sf/okapi/filters/openxml/ExcelDocument.class
net/sf/okapi/filters/openxml/OpenXMLZipFile.class
net/sf/okapi/filters/openxml/ElementSkipper$RevisionPropertySkippableElement.class
net/sf/okapi/filters/openxml/BlockPropertyFactory.class
net/sf/okapi/filters/openxml/RunProperty$RunStyleProperty.class
net/sf/okapi/filters/openxml/MarkupComponent.class
net/sf/okapi/filters/openxml/UnstyledText.class
net/sf/okapi/filters/openxml/DocumentParts.class
net/sf/okapi/filters/openxml/BlockPropertiesClarifierStrategy$AttributesClarifierStrategy$TextBodyPropertiesClarifierStrategy.class
net/sf/okapi/filters/openxml/RunParser.class
net/sf/okapi/filters/openxml/OpenXMLZipFileProxy.class
net/sf/okapi/filters/openxml/Run$RunChunk.class
net/sf/okapi/filters/openxml/TextUnitMapper.class
net/sf/okapi/filters/openxml/NonTranslatablePartHandler.class
net/sf/okapi/filters/openxml/BlockPropertiesClarifier$TablePropertiesClarifier.class
net/sf/okapi/filters/openxml/MarkupComponent$EmptyElementMarkupComponent.class
net/sf/okapi/filters/openxml/ExcelWorksheet$XmlEventCollector.class
net/sf/okapi/filters/openxml/ElementSkipperStrategy.class
net/sf/okapi/filters/openxml/Relationships.class
net/sf/okapi/filters/openxml/AttributeStripper$RevisionAttributeStripper$RevisionStrippableAttribute.class
net/sf/okapi/filters/openxml/AbstractTranslator.class
net/sf/okapi/filters/openxml/StyledText.class
net/sf/okapi/filters/openxml/Relationships$Rel.class
net/sf/okapi/filters/openxml/StringItemParser$StringItemBuilder.class
net/sf/okapi/filters/openxml/BlockPropertiesClarifier$ParagraphPropertiesClarifier.class
net/sf/okapi/filters/openxml/AttributeStripper$GeneralAttributeStripper.class
net/sf/okapi/filters/openxml/ContentTypes$Types$Common.class
net/sf/okapi/filters/openxml/SharedStringsDenormalizer$SharedString.class
net/sf/okapi/filters/openxml/AttributeStripper$GeneralAttributeStripper$GeneralStrippableAttribute.class
net/sf/okapi/filters/openxml/ClarifiableAttribute.class
net/sf/okapi/filters/openxml/BlockTextUnitMapper.class
net/sf/okapi/filters/openxml/RunProperties$EmptyRunProperties.class
net/sf/okapi/filters/openxml/StyleType.class
net/sf/okapi/filters/openxml/StringItemTextUnitMapper.class
net/sf/okapi/filters/openxml/Textual.class
net/sf/okapi/filters/openxml/ElementSkipper$GeneralCrossStructureSkippableElement.class
net/sf/okapi/filters/openxml/RunPropertyFactory.class
net/sf/okapi/filters/openxml/AttributeStripper.class
net/sf/okapi/filters/openxml/ElementSkipper$SkippableElement.class
net/sf/okapi/filters/openxml/ContentTypes$Types$Word.class
net/sf/okapi/filters/openxml/BlockTextUnitWriter.class
net/sf/okapi/filters/openxml/BlockPropertiesClarifierStrategyFactory.class
net/sf/okapi/filters/openxml/ExceptionMessages.class
net/sf/okapi/filters/openxml/Block$BlockChunk.class
net/sf/okapi/filters/openxml/Collections.class
net/sf/okapi/filters/openxml/StringItemSkeleton.class
net/sf/okapi/filters/openxml/TextRun.class
net/sf/okapi/filters/openxml/Namespaces.class
net/sf/okapi/filters/openxml/ClarifierStrategyFactoryValues.class
net/sf/okapi/filters/openxml/BlockPropertiesFactory.class
net/sf/okapi/filters/openxml/BlockProperties.class
net/sf/okapi/filters/openxml/MarkupSkeleton.class
net/sf/okapi/filters/openxml/MarkupComponentParser.class
net/sf/okapi/filters/openxml/StandardPartHandler.class
net/sf/okapi/filters/openxml/OpenXMLContentFilter.class
net/sf/okapi/filters/openxml/ClarifiablePartHandler.class
net/sf/okapi/filters/openxml/ContentTypes$Types$Powerpoint.class
net/sf/okapi/filters/openxml/StyledTextPartHandler.class
net/sf/okapi/filters/openxml/ExcelWorkbook.class
net/sf/okapi/filters/openxml/MarkupComponentClarifierStrategy.class
net/sf/okapi/filters/openxml/RunMerger.class
net/sf/okapi/filters/openxml/RunParser$1.class
net/sf/okapi/filters/openxml/RunPropertiesClarifier.class
net/sf/okapi/filters/openxml/SharedStringsDenormalizer.class
net/sf/okapi/filters/openxml/OpenXMLFilter$1.class
net/sf/okapi/filters/openxml/OpenXMLZipFilterWriter.class
net/sf/okapi/filters/openxml/MarkupComponentClarifier$PresentationClarifier.class
net/sf/okapi/filters/openxml/RunProperty$FontsRunProperty.class
net/sf/okapi/filters/openxml/StringItemParser.class
net/sf/okapi/filters/openxml/MarkupComponentFactory.class
net/sf/okapi/filters/openxml/OpenXMLZipFilterWriter$1.class
net/sf/okapi/filters/openxml/BlockParser.class
net/sf/okapi/filters/openxml/ContentTypes$Types$Excel.class
net/sf/okapi/filters/openxml/PowerpointDocument.class
net/sf/okapi/filters/openxml/ReplaceableRunProperty.class
net/sf/okapi/filters/openxml/CodeTypeFactory$1.class
net/sf/okapi/filters/openxml/ContentTypes$Types.class
net/sf/okapi/filters/openxml/BlockPropertiesClarifierStrategy$PropertiesClarifierStrategy$TablePropertiesClarifierStrategy.class
net/sf/okapi/filters/openxml/WordProcessingStylesParser.class
net/sf/okapi/filters/openxml/CreationalParameters.class
net/sf/okapi/filters/openxml/RunCode.class
net/sf/okapi/filters/openxml/ExcelStyles$PatternFill.class
net/sf/okapi/filters/openxml/MarkupComponentClarifier$SheetViewClarifier.class
net/sf/okapi/filters/openxml/ElementSkipper$CrossStructureSkippableElement.class
net/sf/okapi/filters/openxml/ClarifiablePartHandler$1.class
net/sf/okapi/filters/openxml/BlockPropertiesClarifierStrategy$AttributesClarifierStrategy.class
net/sf/okapi/filters/openxml/ContentTypes.class
net/sf/okapi/filters/openxml/Run$RunText.class
net/sf/okapi/filters/openxml/XMLEvents.class
net/sf/okapi/filters/openxml/Run.class
net/sf/okapi/filters/openxml/MarkupComponentClarifierStrategyFactory.class
net/sf/okapi/filters/openxml/StyleExclusionChecker.class
net/sf/okapi/filters/openxml/MarkupComponent$StartMarkupComponent.class
net/sf/okapi/filters/openxml/ElementSkipperFactory.class
net/sf/okapi/filters/openxml/ElementSkipper$GeneralElementSkipper.class
net/sf/okapi/filters/openxml/ChunkContainer.class
net/sf/okapi/filters/openxml/RunProperties.class
net/sf/okapi/filters/openxml/Nameable.class
net/sf/okapi/filters/openxml/ElementSkipper$PhoneticInlineSkippableElement.class
net/sf/okapi/filters/openxml/RunProperty$AttributeRunProperty.class
net/sf/okapi/filters/openxml/XMLEventSerializer.class
net/sf/okapi/filters/openxml/BlockProperty.class
net/sf/okapi/filters/openxml/ElementSkipper$GeneralInlineSkippableElement.class
net/sf/okapi/filters/openxml/ParseType.class
net/sf/okapi/filters/openxml/ContentTypes$Types$Drawing.class
net/sf/okapi/filters/openxml/BlockPropertiesClarifierStrategy.class
net/sf/okapi/filters/openxml/BlockParser$BlockBuilder.class
net/sf/okapi/filters/openxml/ParagraphSimplifier.class
net/sf/okapi/filters/openxml/BidirectionalityClarifier.class
net/sf/okapi/filters/openxml/Parser.class
net/sf/okapi/filters/openxml/ExcelFormulaPartHandler$FORMULA_MATCHER_GROUPS.class
net/sf/okapi/filters/openxml/ClarificationParameters.class
net/sf/okapi/filters/openxml/StringItemTextUnitWriter.class
net/sf/okapi/filters/openxml/MergeableRunProperty.class
net/sf/okapi/filters/openxml/ElementSkipper$BookmarkElementSkipper.class
net/sf/okapi/filters/openxml/XMLFactories.class
net/sf/okapi/filters/openxml/MarkupComponent$GeneralMarkupComponent.class
net/sf/okapi/filters/openxml/RunFonts.class
net/sf/okapi/filters/openxml/BlockPropertiesClarifier.class
net/sf/okapi/filters/openxml/ExcelStyles$Fill.class
net/sf/okapi/filters/openxml/YamlParameters.class
net/sf/okapi/filters/openxml/AttributeStripper$RevisionAttributeStripper.class
net/sf/okapi/filters/openxml/WordProcessingStylesParser$StyleData.class
net/sf/okapi/filters/openxml/Presentation.class
net/sf/okapi/filters/openxml/RunProperty$ToggleRunProperty.class
net/sf/okapi/filters/openxml/BlockPropertiesClarifierStrategy$PropertiesClarifierStrategy.class
net/sf/okapi/filters/openxml/RunPropertyFactory$TogglePropertyName.class
net/sf/okapi/filters/openxml/XMLEventHelpers.class
net/sf/okapi/filters/openxml/ElementSkipper.class
net/sf/okapi/filters/openxml/RunPropertiesParser.class
net/sf/okapi/filters/openxml/ExcelWorkbook$Sheet.class
net/sf/okapi/filters/openxml/OpenXMLContentFilter$1.class
net/sf/okapi/filters/openxml/ExcelStyles$CellStyle.class
net/sf/okapi/filters/openxml/StartElementContext.class
net/sf/okapi/filters/openxml/RunParser$ComplexCodeProcessingState.class
net/sf/okapi/filters/openxml/RunContainer$Type.class
net/sf/okapi/filters/openxml/ExcelWorksheet.class
net/sf/okapi/filters/openxml/ClarifiablePartHandler$MarkupBuilder.class
net/sf/okapi/filters/openxml/OpenXMLFilter$NextAction.class
net/sf/okapi/filters/openxml/RunBuilder.class
net/sf/okapi/filters/openxml/WordDocument.class
net/sf/okapi/filters/openxml/MarkupComponent$EndMarkupComponent.class
net/sf/okapi/filters/openxml/ConditionalParameters.class
net/sf/okapi/filters/openxml/Block.class
net/sf/okapi/filters/openxml/ContentFilterBasedPartHandler.class
net/sf/okapi/filters/openxml/Excell.class
net/sf/okapi/filters/openxml/StringItem.class
net/sf/okapi/filters/openxml/OpenXMLSubDoc.class
net/sf/okapi/filters/openxml/RunProperty$GenericRunProperty.class
net/sf/okapi/filters/openxml/CodeTypeFactory.class
net/sf/okapi/filters/openxml/OpenXMLPartHandler.class
net/sf/okapi/filters/openxml/StyleDefinitions$TraversalStage.class
net/sf/okapi/filters/openxml/SharedStringMap.class
net/sf/okapi/filters/openxml/Run$RunMarkup.class
net/sf/okapi/filters/openxml/StartElementContextFactory.class
net/sf/okapi/filters/openxml/XMLEventHelpers$BooleanAttributeValue.class
net/sf/okapi/filters/openxml/RunProperty.class
net/sf/okapi/filters/openxml/ElementSkipper$RunPropertySkippableElement.class
net/sf/okapi/filters/openxml/ExcelStyles$EmptyFill.class
net/sf/okapi/filters/openxml/BlockSkeleton.class
net/sf/okapi/filters/openxml/RelationshipsPartHandler.class
net/sf/okapi/filters/openxml/TextUnitWriter.class
net/sf/okapi/filters/openxml/ElementSkipperStrategy$BookmarkElementSkipperStrategy.class
net/sf/okapi/filters/openxml/ExcelWorksheet$Intersection.class
net/sf/okapi/filters/openxml/ChunkParser.class
net/sf/okapi/filters/openxml/OpenXMLContentSkeletonWriter.class
net/sf/okapi/filters/openxml/SharedStringsPartHandler.class
net/sf/okapi/filters/openxml/BlockPropertiesClarifierStrategy$PropertiesClarifierStrategy$ParagraphPropertiesClarifierStrategy.class
net/sf/okapi/filters/openxml/RunProperties$DefaultRunProperties.class
net/sf/okapi/filters/openxml/RunBuilderSkipper.class
net/sf/okapi/filters/openxml/Block$BlockMarkup.class
net/sf/okapi/filters/openxml/BlockTextUnitWriter$1.class
net/sf/okapi/filters/openxml/OpenXMLFilter.class
net/sf/okapi/filters/openxml/ExcelFormulaPartHandler.class
net/sf/okapi/filters/openxml/ElementSkipperStrategy$GeneralElementSkipperStrategy.class
net/sf/okapi/filters/openxml/StyleDefinitions.class
net/sf/okapi/filters/openxml/ElementSkipper$InlineSkippableElement.class
net/sf/okapi/filters/openxml/BlockPropertiesClarifierStrategy$AttributesClarifierStrategy$TablePropertiesClarifierStrategy.class
net/sf/okapi/filters/openxml/ElementSkipper$RevisionInlineSkippableElement.class
net/sf/okapi/filters/openxml/BlockPropertiesClarifier$TextBodyPropertiesClarifier.class
net/sf/okapi/filters/openxml/ExcelWorksheetPartHandler.class
net/sf/okapi/filters/openxml/RunMerger$XMLListEventReader.class
net/sf/okapi/filters/openxml/Markup.class
net/sf/okapi/filters/openxml/Chunk.class
net/sf/okapi/filters/openxml/MarkupZipSkeleton.class
net/sf/okapi/filters/openxml/RunFonts$ContentCategory.class
net/sf/okapi/filters/openxml/ZipEntryComparator.class
net/sf/okapi/filters/openxml/GenericPartHandler.class
net/sf/okapi/filters/openxml/ElementSkipper$PropertySkippableElement.class
net/sf/okapi/filters/openxml/RunContainer.class
