/home/ttnd/okapi-priya/okapi/okapi/steps/xmlvalidation/src/main/java/net/sf/okapi/steps/xmlvalidation/XMLValidationStep.java
/home/ttnd/okapi-priya/okapi/okapi/steps/xmlvalidation/src/main/java/net/sf/okapi/steps/xmlcharfixing/XMLCharFixingStep.java
/home/ttnd/okapi-priya/okapi/okapi/steps/xmlvalidation/src/main/java/net/sf/okapi/steps/xmlvalidation/Parameters.java
/home/ttnd/okapi-priya/okapi/okapi/steps/xmlvalidation/src/main/java/net/sf/okapi/steps/xmlanalysis/XMLAnalyzer.java
/home/ttnd/okapi-priya/okapi/okapi/steps/xmlvalidation/src/main/java/net/sf/okapi/steps/xmlanalysis/Parameters.java
/home/ttnd/okapi-priya/okapi/okapi/steps/xmlvalidation/src/main/java/net/sf/okapi/steps/xmlanalysis/XMLAnalysisStep.java
/home/ttnd/okapi-priya/okapi/okapi/steps/xmlvalidation/src/main/java/net/sf/okapi/steps/xmlcharfixing/Parameters.java
