-------------------------------------------------------------------------------
Test set: net.sf.okapi.filters.txml.TXMLFilterTest
-------------------------------------------------------------------------------
Tests run: 13, Failures: 0, Errors: 0, Skipped: 0, Time elapsed: 5.865 sec - in net.sf.okapi.filters.txml.TXMLFilterTest
