-------------------------------------------------------------------------------
Test set: net.sf.okapi.connectors.pensieve.PensieveTMConnectorTest
-------------------------------------------------------------------------------
Tests run: 7, Failures: 0, Errors: 0, Skipped: 0, Time elapsed: 2.064 sec - in net.sf.okapi.connectors.pensieve.PensieveTMConnectorTest
