-------------------------------------------------------------------------------
Test set: net.sf.okapi.steps.enrycher.EnrycherClientTest
-------------------------------------------------------------------------------
Tests run: 3, Failures: 0, Errors: 0, Skipped: 0, Time elapsed: 0.966 sec - in net.sf.okapi.steps.enrycher.EnrycherClientTest
