-------------------------------------------------------------------------------
Test set: net.sf.okapi.tm.pensieve.common.TmHitTest
-------------------------------------------------------------------------------
Tests run: 12, Failures: 0, Errors: 0, Skipped: 0, Time elapsed: 0.029 sec - in net.sf.okapi.tm.pensieve.common.TmHitTest
