-------------------------------------------------------------------------------
Test set: net.sf.okapi.tm.pensieve.common.MetadataTypeTest
-------------------------------------------------------------------------------
Tests run: 3, Failures: 0, Errors: 0, Skipped: 0, Time elapsed: 0 sec - in net.sf.okapi.tm.pensieve.common.MetadataTypeTest
