-------------------------------------------------------------------------------
Test set: net.sf.okapi.tm.pensieve.writer.TmWriterFactoryTest
-------------------------------------------------------------------------------
Tests run: 5, Failures: 0, Errors: 0, Skipped: 0, Time elapsed: 1.354 sec - in net.sf.okapi.tm.pensieve.writer.TmWriterFactoryTest
