net/sf/okapi/filters/vignette/Parameters.class
net/sf/okapi/filters/vignette/TemporaryStore.class
net/sf/okapi/filters/vignette/VignetteSkeletonWriter.class
net/sf/okapi/filters/vignette/VignetteFilter.class
