/home/ttnd/okapi-priya/okapi/okapi/filters/vignette/src/main/java/net/sf/okapi/filters/vignette/VignetteFilter.java
/home/ttnd/okapi-priya/okapi/okapi/filters/vignette/src/main/java/net/sf/okapi/filters/vignette/Parameters.java
/home/ttnd/okapi-priya/okapi/okapi/filters/vignette/src/main/java/net/sf/okapi/filters/vignette/TemporaryStore.java
/home/ttnd/okapi-priya/okapi/okapi/filters/vignette/src/main/java/net/sf/okapi/filters/vignette/VignetteSkeletonWriter.java
