-------------------------------------------------------------------------------
Test set: net.sf.okapi.filters.openoffice.ODFFilterTest
-------------------------------------------------------------------------------
Tests run: 4, Failures: 0, Errors: 0, Skipped: 0, Time elapsed: 1.618 sec - in net.sf.okapi.filters.openoffice.ODFFilterTest
