net/sf/okapi/steps/ttxsplitter/TTXJoiner.class
net/sf/okapi/steps/ttxsplitter/TTXJoinerStep.class
net/sf/okapi/steps/ttxsplitter/TTXSplitterStep.class
net/sf/okapi/steps/ttxsplitter/WordCounter.class
net/sf/okapi/steps/ttxsplitter/TTXJoinerParameters.class
net/sf/okapi/steps/ttxsplitter/TTXSplitter.class
net/sf/okapi/steps/ttxsplitter/TTXSplitterParameters.class
