/home/ttnd/okapi-priya/okapi/okapi/filters/table/src/main/java/net/sf/okapi/filters/table/fwc/FixedWidthColumnsFilter.java
/home/ttnd/okapi-priya/okapi/okapi/filters/table/src/main/java/net/sf/okapi/filters/table/base/BaseTableFilter.java
/home/ttnd/okapi-priya/okapi/okapi/filters/table/src/main/java/net/sf/okapi/filters/table/TableFilter.java
/home/ttnd/okapi-priya/okapi/okapi/filters/table/src/main/java/net/sf/okapi/filters/table/fwc/Parameters.java
/home/ttnd/okapi-priya/okapi/okapi/filters/table/src/main/java/net/sf/okapi/filters/table/csv/CommaSeparatedValuesFilter.java
/home/ttnd/okapi-priya/okapi/okapi/filters/table/src/main/java/net/sf/okapi/filters/table/tsv/TabSeparatedValuesFilter.java
/home/ttnd/okapi-priya/okapi/okapi/filters/table/src/main/java/net/sf/okapi/filters/table/Parameters.java
/home/ttnd/okapi-priya/okapi/okapi/filters/table/src/main/java/net/sf/okapi/filters/table/csv/CSVSkeletonWriter.java
/home/ttnd/okapi-priya/okapi/okapi/filters/table/src/main/java/net/sf/okapi/filters/table/base/Parameters.java
/home/ttnd/okapi-priya/okapi/okapi/filters/table/src/main/java/net/sf/okapi/filters/table/csv/Parameters.java
/home/ttnd/okapi-priya/okapi/okapi/filters/table/src/main/java/net/sf/okapi/filters/table/tsv/Parameters.java
