net/sf/okapi/steps/whitespacecorrection/PunctuationConversionStep$En2JaTranslator.class
net/sf/okapi/steps/whitespacecorrection/PunctuationConversionStep$PunctuationTranslator.class
net/sf/okapi/steps/whitespacecorrection/WhitespaceCorrectionStepParametersTest.class
net/sf/okapi/steps/whitespacecorrection/WhitespaceCorrectorTest.class
net/sf/okapi/steps/whitespacecorrection/PunctuationConversionStep.class
net/sf/okapi/steps/whitespacecorrection/WhitespaceCorrectionStepTest.class
net/sf/okapi/steps/whitespacecorrection/PunctuationConversionStep$Ja2EnTranslator.class
