net/sf/okapi/steps/uriconversion/ui/ParametersEditor.class
net/sf/okapi/steps/uriconversion/ui/ParametersEditor$6.class
net/sf/okapi/steps/uriconversion/ui/ParametersEditor$3.class
net/sf/okapi/steps/uriconversion/ui/ParametersEditor$1.class
net/sf/okapi/steps/uriconversion/ui/ParametersEditor$2.class
net/sf/okapi/steps/uriconversion/ui/ParametersEditor$5.class
net/sf/okapi/steps/uriconversion/ui/ParametersEditor$4.class
