-------------------------------------------------------------------------------
Test set: net.sf.okapi.filters.openxml.OpenXMLRepetitionTest
-------------------------------------------------------------------------------
Tests run: 1, Failures: 0, Errors: 0, Skipped: 0, Time elapsed: 1.452 sec - in net.sf.okapi.filters.openxml.OpenXMLRepetitionTest
