-------------------------------------------------------------------------------
Test set: net.sf.okapi.filters.openxml.OpenXMLTextfieldRoundTripTest
-------------------------------------------------------------------------------
Tests run: 2, Failures: 0, Errors: 0, Skipped: 0, Time elapsed: 1.243 sec - in net.sf.okapi.filters.openxml.OpenXMLTextfieldRoundTripTest
