-------------------------------------------------------------------------------
Test set: net.sf.okapi.filters.openxml.OpenXMLRoundTripTest
-------------------------------------------------------------------------------
Tests run: 13, Failures: 0, Errors: 0, Skipped: 0, Time elapsed: 5.119 sec - in net.sf.okapi.filters.openxml.OpenXMLRoundTripTest
