-------------------------------------------------------------------------------
Test set: net.sf.okapi.filters.openxml.TestExcelStyles
-------------------------------------------------------------------------------
Tests run: 1, Failures: 0, Errors: 0, Skipped: 0, Time elapsed: 0.75 sec - in net.sf.okapi.filters.openxml.TestExcelStyles
