-------------------------------------------------------------------------------
Test set: net.sf.okapi.filters.openxml.TestXMLSerializer
-------------------------------------------------------------------------------
Tests run: 3, Failures: 0, Errors: 0, Skipped: 0, Time elapsed: 0.067 sec - in net.sf.okapi.filters.openxml.TestXMLSerializer
