-------------------------------------------------------------------------------
Test set: net.sf.okapi.filters.openxml.TestParagraphSimplifier
-------------------------------------------------------------------------------
Tests run: 21, Failures: 0, Errors: 0, Skipped: 0, Time elapsed: 3.718 sec - in net.sf.okapi.filters.openxml.TestParagraphSimplifier
