-------------------------------------------------------------------------------
Test set: net.sf.okapi.filters.openxml.OpenXMLRoundTripSequenceTest
-------------------------------------------------------------------------------
Tests run: 1, Failures: 0, Errors: 0, Skipped: 0, Time elapsed: 0.373 sec - in net.sf.okapi.filters.openxml.OpenXMLRoundTripSequenceTest
