-------------------------------------------------------------------------------
Test set: net.sf.okapi.filters.openxml.TestRelationships
-------------------------------------------------------------------------------
Tests run: 4, Failures: 0, Errors: 0, Skipped: 0, Time elapsed: 0.003 sec - in net.sf.okapi.filters.openxml.TestRelationships
