-------------------------------------------------------------------------------
Test set: net.sf.okapi.filters.openxml.TestBlockParser
-------------------------------------------------------------------------------
Tests run: 41, Failures: 0, Errors: 0, Skipped: 0, Time elapsed: 2.869 sec - in net.sf.okapi.filters.openxml.TestBlockParser
