-------------------------------------------------------------------------------
Test set: net.sf.okapi.filters.openxml.OpenXMLConfigurationTest
-------------------------------------------------------------------------------
Tests run: 2, Failures: 0, Errors: 0, Skipped: 0, Time elapsed: 0.129 sec - in net.sf.okapi.filters.openxml.OpenXMLConfigurationTest
