/home/ttnd/okapi-priya/okapi/okapi/libraries/lib-search/src/main/java/net/sf/okapi/lib/search/lucene/analysis/SortableToken.java
/home/ttnd/okapi-priya/okapi/okapi/libraries/lib-search/src/main/java/net/sf/okapi/lib/search/lucene/query/SimpleConcordanceFuzzyQuery.java
/home/ttnd/okapi-priya/okapi/okapi/libraries/lib-search/src/main/java/net/sf/okapi/lib/search/lucene/query/TmFuzzyQuery.java
/home/ttnd/okapi-priya/okapi/okapi/libraries/lib-search/src/main/java/net/sf/okapi/lib/search/lucene/scorer/FuzzySimilarity.java
/home/ttnd/okapi-priya/okapi/okapi/libraries/lib-search/src/main/java/net/sf/okapi/lib/search/lucene/query/ConcordanceFuzzyQuery.java
/home/ttnd/okapi-priya/okapi/okapi/libraries/lib-search/src/main/java/net/sf/okapi/lib/search/lucene/analysis/AlphabeticNgramTokenizer.java
/home/ttnd/okapi-priya/okapi/okapi/libraries/lib-search/src/main/java/net/sf/okapi/lib/search/lucene/scorer/ConcordanceFuzzyScorer.java
/home/ttnd/okapi-priya/okapi/okapi/libraries/lib-search/src/main/java/net/sf/okapi/lib/search/lucene/scorer/Util.java
/home/ttnd/okapi-priya/okapi/okapi/libraries/lib-search/src/main/java/net/sf/okapi/lib/search/lucene/analysis/NgramAnalyzer.java
/home/ttnd/okapi-priya/okapi/okapi/libraries/lib-search/src/main/java/net/sf/okapi/lib/search/lucene/scorer/SimpleConcordanceFuzzyScorer.java
/home/ttnd/okapi-priya/okapi/okapi/libraries/lib-search/src/main/java/net/sf/okapi/lib/search/lucene/scorer/TmFuzzyScorer.java
