/home/ttnd/okapi-priya/okapi/okapi/connectors/moses/src/main/java/net/sf/okapi/connectors/moses/SimpleTokenizer.java
/home/ttnd/okapi-priya/okapi/okapi/connectors/moses/src/main/java/net/sf/okapi/connectors/moses/DeNormalize.java
/home/ttnd/okapi-priya/okapi/okapi/connectors/moses/src/main/java/net/sf/okapi/connectors/moses/Parameters.java
/home/ttnd/okapi-priya/okapi/okapi/connectors/moses/src/main/java/net/sf/okapi/connectors/moses/MosesMTConnector.java
