-------------------------------------------------------------------------------
Test set: net.sf.okapi.lib.preprocessing.filters.simplification.TestParameters
-------------------------------------------------------------------------------
Tests run: 5, Failures: 0, Errors: 0, Skipped: 0, Time elapsed: 0.23 sec - in net.sf.okapi.lib.preprocessing.filters.simplification.TestParameters
