net/sf/okapi/filters/plaintext/ParaPlainTextFilterTest$1.class
net/sf/okapi/filters/plaintext/RegexPlainTextFilterTest$1.class
net/sf/okapi/filters/plaintext/PlainTextFilterTest.class
net/sf/okapi/filters/plaintext/SplicedLinesFilterTest.class
net/sf/okapi/filters/plaintext/PlainTextFilterTest$1.class
net/sf/okapi/filters/plaintext/SplicedLinesFilterTest$1.class
net/sf/okapi/filters/plaintext/common/FormTestFiles.class
net/sf/okapi/filters/plaintext/ParaPlainTextFilterTest.class
net/sf/okapi/filters/plaintext/RegexPlainTextFilterTest.class
