-------------------------------------------------------------------------------
Test set: net.sf.okapi.steps.rainbowkit.postprocess.MergerTest
-------------------------------------------------------------------------------
Tests run: 1, Failures: 0, Errors: 0, Skipped: 0, Time elapsed: 0.002 sec - in net.sf.okapi.steps.rainbowkit.postprocess.MergerTest
