-------------------------------------------------------------------------------
Test set: net.sf.okapi.filters.its.html5.HTML5DefaultsTest
-------------------------------------------------------------------------------
Tests run: 2, Failures: 0, Errors: 0, Skipped: 0, Time elapsed: 0 sec - in net.sf.okapi.filters.its.html5.HTML5DefaultsTest
