-------------------------------------------------------------------------------
Test set: net.sf.okapi.filters.its.html5.HTML5FilterTest
-------------------------------------------------------------------------------
Tests run: 40, Failures: 0, Errors: 0, Skipped: 0, Time elapsed: 5.434 sec - in net.sf.okapi.filters.its.html5.HTML5FilterTest
