<?xml version="1.0" encoding="UTF-8"?>
<testsuite xmlns:xsi="http://www.w3.org/2001/XMLSchema-instance" xsi:schemaLocation="https://maven.apache.org/surefire/maven-surefire-plugin/xsd/surefire-test-report.xsd" name="org.w3c.its.TraversalTest" time="8.645" tests="45" errors="0" skipped="0" failures="0">
  <properties>
    <property name="os.detected.version" value="3.19"/>
    <property name="idea.version" value="2016.1.2"/>
    <property name="java.runtime.name" value="Java(TM) SE Runtime Environment"/>
    <property name="sun.boot.library.path" value="/usr/lib/jvm/java-7-oracle/jre/lib/amd64"/>
    <property name="java.vm.version" value="24.80-b11"/>
    <property name="java.vm.vendor" value="Oracle Corporation"/>
    <property name="java.vendor.url" value="http://java.oracle.com/"/>
    <property name="os.detected.version.minor" value="19"/>
    <property name="path.separator" value=":"/>
    <property name="guice.disable.misplaced.annotation.check" value="true"/>
    <property name="java.vm.name" value="Java HotSpot(TM) 64-Bit Server VM"/>
    <property name="file.encoding.pkg" value="sun.io"/>
    <property name="idea.launcher.port" value="7532"/>
    <property name="user.country" value="IN"/>
    <property name="sun.java.launcher" value="SUN_STANDARD"/>
    <property name="sun.os.patch.level" value="unknown"/>
    <property name="java.vm.specification.name" value="Java Virtual Machine Specification"/>
    <property name="user.dir" value="/home/ttnd/okapi-priya/okapi"/>
    <property name="os.detected.release.like.debian" value="true"/>
    <property name="java.runtime.version" value="1.7.0_80-b15"/>
    <property name="java.awt.graphicsenv" value="sun.awt.X11GraphicsEnvironment"/>
    <property name="java.endorsed.dirs" value="/usr/lib/jvm/java-7-oracle/jre/lib/endorsed"/>
    <property name="os.arch" value="amd64"/>
    <property name="java.io.tmpdir" value="/tmp"/>
    <property name="os.detected.release.version" value="14.04"/>
    <property name="line.separator" value="&#10;"/>
    <property name="java.vm.specification.vendor" value="Oracle Corporation"/>
    <property name="os.detected.version.major" value="3"/>
    <property name="os.name" value="Linux"/>
    <property name="os.detected.classifier" value="linux-x86_64"/>
    <property name="classworlds.conf" value="/home/ttnd/Desktop/software/idea-IU-145.972.3/plugins/maven/lib/maven3/bin/m2.conf"/>
    <property name="sun.jnu.encoding" value="UTF-8"/>
    <property name="java.library.path" value="/home/ttnd/Desktop/software/idea-IU-145.972.3/bin::/usr/java/packages/lib/amd64:/usr/lib64:/lib64:/lib:/usr/lib"/>
    <property name="os.detected.arch" value="x86_64"/>
    <property name="java.class.version" value="51.0"/>
    <property name="java.specification.name" value="Java Platform API Specification"/>
    <property name="sun.management.compiler" value="HotSpot 64-Bit Tiered Compilers"/>
    <property name="os.detected.name" value="linux"/>
    <property name="os.version" value="3.19.0-25-generic"/>
    <property name="user.home" value="/home/ttnd"/>
    <property name="user.timezone" value="Asia/Kolkata"/>
    <property name="java.awt.printerjob" value="sun.print.PSPrinterJob"/>
    <property name="java.specification.version" value="1.7"/>
    <property name="idea.launcher.bin.path" value="/home/ttnd/Desktop/software/idea-IU-145.972.3/bin"/>
    <property name="file.encoding" value="UTF-8"/>
    <property name="os.detected.release" value="ubuntu"/>
    <property name="user.name" value="ttnd"/>
    <property name="java.class.path" value="/home/ttnd/Desktop/software/idea-IU-145.972.3/plugins/maven/lib/maven3/boot/plexus-classworlds-2.4.jar:/home/ttnd/Desktop/software/idea-IU-145.972.3/lib/idea_rt.jar"/>
    <property name="skipITs" value="true"/>
    <property name="java.vm.specification.version" value="1.7"/>
    <property name="sun.arch.data.model" value="64"/>
    <property name="java.home" value="/usr/lib/jvm/java-7-oracle/jre"/>
    <property name="sun.java.command" value="com.intellij.rt.execution.application.AppMain org.codehaus.classworlds.Launcher -Didea.version=2016.1.2 install -q -TC8 -DskipITs"/>
    <property name="java.specification.vendor" value="Oracle Corporation"/>
    <property name="user.language" value="en"/>
    <property name="awt.toolkit" value="sun.awt.X11.XToolkit"/>
    <property name="java.vm.info" value="mixed mode"/>
    <property name="os.detected.release.like.ubuntu" value="true"/>
    <property name="java.version" value="1.7.0_80"/>
    <property name="java.ext.dirs" value="/usr/lib/jvm/java-7-oracle/jre/lib/ext:/usr/java/packages/lib/ext"/>
    <property name="securerandom.source" value="file:/dev/./urandom"/>
    <property name="sun.boot.class.path" value="/usr/lib/jvm/java-7-oracle/jre/lib/resources.jar:/usr/lib/jvm/java-7-oracle/jre/lib/rt.jar:/usr/lib/jvm/java-7-oracle/jre/lib/sunrsasign.jar:/usr/lib/jvm/java-7-oracle/jre/lib/jsse.jar:/usr/lib/jvm/java-7-oracle/jre/lib/jce.jar:/usr/lib/jvm/java-7-oracle/jre/lib/charsets.jar:/usr/lib/jvm/java-7-oracle/jre/lib/jfr.jar:/usr/lib/jvm/java-7-oracle/jre/classes"/>
    <property name="java.vendor" value="Oracle Corporation"/>
    <property name="maven.home" value="/home/ttnd/Desktop/software/idea-IU-145.972.3/plugins/maven/lib/maven3"/>
    <property name="file.separator" value="/"/>
    <property name="java.vendor.url.bug" value="http://bugreport.sun.com/bugreport/"/>
    <property name="sun.cpu.endian" value="little"/>
    <property name="sun.io.unicode.encoding" value="UnicodeLittle"/>
    <property name="sun.desktop" value="gnome"/>
    <property name="sun.cpu.isalist" value=""/>
  </properties>
  <testcase name="testTargetPointerAttributes" classname="org.w3c.its.TraversalTest" time="0.566"/>
  <testcase name="testTextAnalysisOnAttribute" classname="org.w3c.its.TraversalTest" time="0.283"/>
  <testcase name="testMtConfidenceLocalHtml" classname="org.w3c.its.TraversalTest" time="1.869"/>
  <testcase name="testMtConfidenceGlobalHtml" classname="org.w3c.its.TraversalTest" time="0"/>
  <testcase name="testStorageSizeLocal1" classname="org.w3c.its.TraversalTest" time="0.34"/>
  <testcase name="testBadQueryLanguage" classname="org.w3c.its.TraversalTest" time="0.004"/>
  <testcase name="testTermPointerwithID" classname="org.w3c.its.TraversalTest" time="0.516"/>
  <testcase name="testTermOnAttribute" classname="org.w3c.its.TraversalTest" time="0.243"/>
  <testcase name="testTextAnalysisSimpleHtml" classname="org.w3c.its.TraversalTest" time="0.222"/>
  <testcase name="testXmlId" classname="org.w3c.its.TraversalTest" time="0.273"/>
  <testcase name="testTerm" classname="org.w3c.its.TraversalTest" time="0.237"/>
  <testcase name="testTextAnalysisPointerHtml" classname="org.w3c.its.TraversalTest" time="0.226"/>
  <testcase name="testMtConfidenceLocal" classname="org.w3c.its.TraversalTest" time="0.173"/>
  <testcase name="testLocalLanguageInfo" classname="org.w3c.its.TraversalTest" time="0.086"/>
  <testcase name="testDomainGlobal" classname="org.w3c.its.TraversalTest" time="0.097"/>
  <testcase name="testlangVsXmlLangInXHtml" classname="org.w3c.its.TraversalTest" time="0.103"/>
  <testcase name="testLQIssueGlobalAndLocal1" classname="org.w3c.its.TraversalTest" time="0.212"/>
  <testcase name="testLQIssueLocalWithSpan" classname="org.w3c.its.TraversalTest" time="0.064"/>
  <testcase name="testTargetPointerGlobal" classname="org.w3c.its.TraversalTest" time="0.09"/>
  <testcase name="testLocaleFilter" classname="org.w3c.its.TraversalTest" time="0.09"/>
  <testcase name="testWithinTextLocalSpan" classname="org.w3c.its.TraversalTest" time="0.06"/>
  <testcase name="testAnnotatorsRefBadValue" classname="org.w3c.its.TraversalTest" time="0.102"/>
  <testcase name="testAllowedCharsLocal" classname="org.w3c.its.TraversalTest" time="0.11"/>
  <testcase name="testLocNote" classname="org.w3c.its.TraversalTest" time="0.074"/>
  <testcase name="testLocQualityRatingXml" classname="org.w3c.its.TraversalTest" time="0.062"/>
  <testcase name="testLocQualityRatingHtml" classname="org.w3c.its.TraversalTest" time="0.07"/>
  <testcase name="testLQIssueLocal1" classname="org.w3c.its.TraversalTest" time="0.107"/>
  <testcase name="testGlobalAndLocalLanguageInfo" classname="org.w3c.its.TraversalTest" time="0.084"/>
  <testcase name="testTermPointer" classname="org.w3c.its.TraversalTest" time="0.074"/>
  <testcase name="testAllowedCharsGlobal" classname="org.w3c.its.TraversalTest" time="0.075"/>
  <testcase name="testIdValueOnAttribute" classname="org.w3c.its.TraversalTest" time="0.052"/>
  <testcase name="testAnnotatorsRef" classname="org.w3c.its.TraversalTest" time="0.088"/>
  <testcase name="testExternalResourceRefGlobal" classname="org.w3c.its.TraversalTest" time="0.121"/>
  <testcase name="testStorageSizeGlobal1" classname="org.w3c.its.TraversalTest" time="0.042"/>
  <testcase name="testStorageSizeGlobal2" classname="org.w3c.its.TraversalTest" time="0.091"/>
  <testcase name="testPreserveSpaces" classname="org.w3c.its.TraversalTest" time="0.061"/>
  <testcase name="testSimple" classname="org.w3c.its.TraversalTest" time="0.07"/>
  <testcase name="testTermLocally" classname="org.w3c.its.TraversalTest" time="0.087"/>
  <testcase name="testLQIssueGlobal1" classname="org.w3c.its.TraversalTest" time="0.066"/>
  <testcase name="testLQIssueGlobal2" classname="org.w3c.its.TraversalTest" time="0.078"/>
  <testcase name="testQueryLanguage" classname="org.w3c.its.TraversalTest" time="0.111"/>
  <testcase name="testWithinText" classname="org.w3c.its.TraversalTest" time="0.115"/>
  <testcase name="testProvenanceLocal" classname="org.w3c.its.TraversalTest" time="0.087"/>
  <testcase name="testLQIssueOnAttributes" classname="org.w3c.its.TraversalTest" time="0.096"/>
  <testcase name="testTranslateGlobal" classname="org.w3c.its.TraversalTest" time="0.079"/>
</testsuite>