<?xml version="1.0" encoding="UTF-8"?>
<testsuite xmlns:xsi="http://www.w3.org/2001/XMLSchema-instance" xsi:schemaLocation="https://maven.apache.org/surefire/maven-surefire-plugin/xsd/surefire-test-report.xsd" name="net.sf.okapi.filters.its.html5.HTML5FilterTest" time="5.434" tests="40" errors="0" skipped="0" failures="0">
  <properties>
    <property name="os.detected.version" value="3.19"/>
    <property name="idea.version" value="2016.1.2"/>
    <property name="java.runtime.name" value="Java(TM) SE Runtime Environment"/>
    <property name="sun.boot.library.path" value="/usr/lib/jvm/java-7-oracle/jre/lib/amd64"/>
    <property name="java.vm.version" value="24.80-b11"/>
    <property name="java.vm.vendor" value="Oracle Corporation"/>
    <property name="java.vendor.url" value="http://java.oracle.com/"/>
    <property name="os.detected.version.minor" value="19"/>
    <property name="path.separator" value=":"/>
    <property name="guice.disable.misplaced.annotation.check" value="true"/>
    <property name="java.vm.name" value="Java HotSpot(TM) 64-Bit Server VM"/>
    <property name="file.encoding.pkg" value="sun.io"/>
    <property name="idea.launcher.port" value="7532"/>
    <property name="user.country" value="IN"/>
    <property name="sun.java.launcher" value="SUN_STANDARD"/>
    <property name="sun.os.patch.level" value="unknown"/>
    <property name="java.vm.specification.name" value="Java Virtual Machine Specification"/>
    <property name="user.dir" value="/home/ttnd/okapi-priya/okapi"/>
    <property name="os.detected.release.like.debian" value="true"/>
    <property name="java.runtime.version" value="1.7.0_80-b15"/>
    <property name="java.awt.graphicsenv" value="sun.awt.X11GraphicsEnvironment"/>
    <property name="java.endorsed.dirs" value="/usr/lib/jvm/java-7-oracle/jre/lib/endorsed"/>
    <property name="os.arch" value="amd64"/>
    <property name="java.io.tmpdir" value="/tmp"/>
    <property name="os.detected.release.version" value="14.04"/>
    <property name="line.separator" value="&#10;"/>
    <property name="java.vm.specification.vendor" value="Oracle Corporation"/>
    <property name="os.detected.version.major" value="3"/>
    <property name="os.name" value="Linux"/>
    <property name="os.detected.classifier" value="linux-x86_64"/>
    <property name="classworlds.conf" value="/home/ttnd/Desktop/software/idea-IU-145.972.3/plugins/maven/lib/maven3/bin/m2.conf"/>
    <property name="sun.jnu.encoding" value="UTF-8"/>
    <property name="java.library.path" value="/home/ttnd/Desktop/software/idea-IU-145.972.3/bin::/usr/java/packages/lib/amd64:/usr/lib64:/lib64:/lib:/usr/lib"/>
    <property name="os.detected.arch" value="x86_64"/>
    <property name="java.class.version" value="51.0"/>
    <property name="java.specification.name" value="Java Platform API Specification"/>
    <property name="sun.management.compiler" value="HotSpot 64-Bit Tiered Compilers"/>
    <property name="os.detected.name" value="linux"/>
    <property name="os.version" value="3.19.0-25-generic"/>
    <property name="user.home" value="/home/ttnd"/>
    <property name="user.timezone" value="Asia/Kolkata"/>
    <property name="java.awt.printerjob" value="sun.print.PSPrinterJob"/>
    <property name="java.specification.version" value="1.7"/>
    <property name="idea.launcher.bin.path" value="/home/ttnd/Desktop/software/idea-IU-145.972.3/bin"/>
    <property name="file.encoding" value="UTF-8"/>
    <property name="os.detected.release" value="ubuntu"/>
    <property name="user.name" value="ttnd"/>
    <property name="java.class.path" value="/home/ttnd/Desktop/software/idea-IU-145.972.3/plugins/maven/lib/maven3/boot/plexus-classworlds-2.4.jar:/home/ttnd/Desktop/software/idea-IU-145.972.3/lib/idea_rt.jar"/>
    <property name="skipITs" value="true"/>
    <property name="java.vm.specification.version" value="1.7"/>
    <property name="sun.arch.data.model" value="64"/>
    <property name="java.home" value="/usr/lib/jvm/java-7-oracle/jre"/>
    <property name="sun.java.command" value="com.intellij.rt.execution.application.AppMain org.codehaus.classworlds.Launcher -Didea.version=2016.1.2 install -q -TC8 -DskipITs"/>
    <property name="java.specification.vendor" value="Oracle Corporation"/>
    <property name="user.language" value="en"/>
    <property name="awt.toolkit" value="sun.awt.X11.XToolkit"/>
    <property name="java.vm.info" value="mixed mode"/>
    <property name="os.detected.release.like.ubuntu" value="true"/>
    <property name="java.version" value="1.7.0_80"/>
    <property name="java.ext.dirs" value="/usr/lib/jvm/java-7-oracle/jre/lib/ext:/usr/java/packages/lib/ext"/>
    <property name="securerandom.source" value="file:/dev/./urandom"/>
    <property name="sun.boot.class.path" value="/usr/lib/jvm/java-7-oracle/jre/lib/resources.jar:/usr/lib/jvm/java-7-oracle/jre/lib/rt.jar:/usr/lib/jvm/java-7-oracle/jre/lib/sunrsasign.jar:/usr/lib/jvm/java-7-oracle/jre/lib/jsse.jar:/usr/lib/jvm/java-7-oracle/jre/lib/jce.jar:/usr/lib/jvm/java-7-oracle/jre/lib/charsets.jar:/usr/lib/jvm/java-7-oracle/jre/lib/jfr.jar:/usr/lib/jvm/java-7-oracle/jre/classes"/>
    <property name="java.vendor" value="Oracle Corporation"/>
    <property name="maven.home" value="/home/ttnd/Desktop/software/idea-IU-145.972.3/plugins/maven/lib/maven3"/>
    <property name="file.separator" value="/"/>
    <property name="java.vendor.url.bug" value="http://bugreport.sun.com/bugreport/"/>
    <property name="sun.cpu.endian" value="little"/>
    <property name="sun.io.unicode.encoding" value="UnicodeLittle"/>
    <property name="sun.desktop" value="gnome"/>
    <property name="sun.cpu.isalist" value=""/>
  </properties>
  <testcase name="testSimpleRead" classname="net.sf.okapi.filters.its.html5.HTML5FilterTest" time="0.17"/>
  <testcase name="testOpenTwice" classname="net.sf.okapi.filters.its.html5.HTML5FilterTest" time="0.603"/>
  <testcase name="testTranslateLocally" classname="net.sf.okapi.filters.its.html5.HTML5FilterTest" time="0.322"/>
  <testcase name="testProvenanceStandoff" classname="net.sf.okapi.filters.its.html5.HTML5FilterTest" time="0.241"/>
  <testcase name="testPreserveSpace" classname="net.sf.okapi.filters.its.html5.HTML5FilterTest" time="0.163"/>
  <testcase name="testStandofftLocQualityIssues" classname="net.sf.okapi.filters.its.html5.HTML5FilterTest" time="0.215"/>
  <testcase name="testTranslateOnAttribute" classname="net.sf.okapi.filters.its.html5.HTML5FilterTest" time="0.194"/>
  <testcase name="testStorageSizeLocal" classname="net.sf.okapi.filters.its.html5.HTML5FilterTest" time="0.171"/>
  <testcase name="testLink" classname="net.sf.okapi.filters.its.html5.HTML5FilterTest" time="0.221"/>
  <testcase name="testRulesInScripts" classname="net.sf.okapi.filters.its.html5.HTML5FilterTest" time="0.253"/>
  <testcase name="testWithinTextLocal" classname="net.sf.okapi.filters.its.html5.HTML5FilterTest" time="0.254"/>
  <testcase name="testExternalResources" classname="net.sf.okapi.filters.its.html5.HTML5FilterTest" time="0.217"/>
  <testcase name="testMinimalHTMLWithStandoff" classname="net.sf.okapi.filters.its.html5.HTML5FilterTest" time="0.138"/>
  <testcase name="testAddITSAnnotations1" classname="net.sf.okapi.filters.its.html5.HTML5FilterTest" time="0.095"/>
  <testcase name="testAddITSAnnotations2" classname="net.sf.okapi.filters.its.html5.HTML5FilterTest" time="0.073"/>
  <testcase name="testAddITSAnnotations3" classname="net.sf.okapi.filters.its.html5.HTML5FilterTest" time="0.085"/>
  <testcase name="testSimpleOutput" classname="net.sf.okapi.filters.its.html5.HTML5FilterTest" time="0.056"/>
  <testcase name="testMinimalHTML5Output" classname="net.sf.okapi.filters.its.html5.HTML5FilterTest" time="0.062"/>
  <testcase name="testStorageSizeOnAttribute" classname="net.sf.okapi.filters.its.html5.HTML5FilterTest" time="0.093"/>
  <testcase name="testLocalLocQualityIssues" classname="net.sf.okapi.filters.its.html5.HTML5FilterTest" time="0.093"/>
  <testcase name="testTranslateAttribute" classname="net.sf.okapi.filters.its.html5.HTML5FilterTest" time="0.095"/>
  <testcase name="testTextDirectionClarification[0: &lt;!DOCTYPE html&gt;\n&lt;html dir=&quot;rtl&quot;&gt;\n&lt;head&gt;&lt;title&gt;Rtl&lt;/title&gt;&lt;/head&gt;\n&lt;body&gt;\n&lt;p&gt;بعض الكلمات&lt;/p&gt;\n&lt;/body&gt;\n&lt;/html&gt;\n, ar, &lt;!DOCTYPE html&gt;\n&lt;html dir=&quot;rtl&quot;&gt;&lt;head&gt;&lt;title&gt;Rtl&lt;/title&gt;&lt;/head&gt;\n&lt;body&gt;\n&lt;p&gt;بعض الكلمات&lt;/p&gt;\n\n\n&lt;/body&gt;&lt;/html&gt;]" classname="net.sf.okapi.filters.its.html5.HTML5FilterTest" time="0.09"/>
  <testcase name="testTextDirectionClarification[1: &lt;!DOCTYPE html&gt;\n&lt;html dir=&quot;ltr&quot;&gt;\n&lt;head&gt;&lt;title&gt;Rtl&lt;/title&gt;&lt;/head&gt;\n&lt;body&gt;\n&lt;p&gt;بعض الكلمات&lt;/p&gt;\n&lt;/body&gt;\n&lt;/html&gt;\n, ar, &lt;!DOCTYPE html&gt;\n&lt;html dir=&quot;rtl&quot;&gt;&lt;head&gt;&lt;title&gt;Rtl&lt;/title&gt;&lt;/head&gt;\n&lt;body&gt;\n&lt;p&gt;بعض الكلمات&lt;/p&gt;\n\n\n&lt;/body&gt;&lt;/html&gt;]" classname="net.sf.okapi.filters.its.html5.HTML5FilterTest" time="0.065"/>
  <testcase name="testTextDirectionClarification[2: &lt;!DOCTYPE html&gt;\n&lt;html&gt;\n&lt;head&gt;&lt;title&gt;Rtl&lt;/title&gt;&lt;/head&gt;\n&lt;body&gt;\n&lt;p&gt;بعض الكلمات&lt;/p&gt;\n&lt;/body&gt;\n&lt;/html&gt;\n, ar, &lt;!DOCTYPE html&gt;\n&lt;html dir=&quot;rtl&quot;&gt;&lt;head&gt;&lt;title&gt;Rtl&lt;/title&gt;&lt;/head&gt;\n&lt;body&gt;\n&lt;p&gt;بعض الكلمات&lt;/p&gt;\n\n\n&lt;/body&gt;&lt;/html&gt;]" classname="net.sf.okapi.filters.its.html5.HTML5FilterTest" time="0.056"/>
  <testcase name="testTextDirectionClarification[3: &lt;!DOCTYPE html&gt;\n&lt;html dir=&quot;rtl&quot;&gt;\n&lt;head&gt;&lt;title&gt;Rtl&lt;/title&gt;&lt;/head&gt;\n&lt;body&gt;\n&lt;p&gt;Some text.&lt;/p&gt;\n&lt;/body&gt;\n&lt;/html&gt;\n, en, &lt;!DOCTYPE html&gt;\n&lt;html&gt;&lt;head&gt;&lt;title&gt;Rtl&lt;/title&gt;&lt;/head&gt;\n&lt;body&gt;\n&lt;p&gt;Some text.&lt;/p&gt;\n\n\n&lt;/body&gt;&lt;/html&gt;]" classname="net.sf.okapi.filters.its.html5.HTML5FilterTest" time="0.066"/>
  <testcase name="testTextDirectionClarification[4: &lt;!DOCTYPE html&gt;\n&lt;html dir=&quot;ltr&quot;&gt;\n&lt;head&gt;&lt;title&gt;Rtl&lt;/title&gt;&lt;/head&gt;\n&lt;body&gt;\n&lt;p&gt;Some text.&lt;/p&gt;\n&lt;/body&gt;\n&lt;/html&gt;\n, en, &lt;!DOCTYPE html&gt;\n&lt;html&gt;&lt;head&gt;&lt;title&gt;Rtl&lt;/title&gt;&lt;/head&gt;\n&lt;body&gt;\n&lt;p&gt;Some text.&lt;/p&gt;\n\n\n&lt;/body&gt;&lt;/html&gt;]" classname="net.sf.okapi.filters.its.html5.HTML5FilterTest" time="0.047"/>
  <testcase name="testTextDirectionClarification[5: &lt;!DOCTYPE html&gt;\n&lt;html&gt;\n&lt;head&gt;&lt;title&gt;Rtl&lt;/title&gt;&lt;/head&gt;\n&lt;body&gt;\n&lt;p&gt;Some text.&lt;/p&gt;\n&lt;/body&gt;\n&lt;/html&gt;\n, en, &lt;!DOCTYPE html&gt;\n&lt;html&gt;&lt;head&gt;&lt;title&gt;Rtl&lt;/title&gt;&lt;/head&gt;\n&lt;body&gt;\n&lt;p&gt;Some text.&lt;/p&gt;\n\n\n&lt;/body&gt;&lt;/html&gt;]" classname="net.sf.okapi.filters.its.html5.HTML5FilterTest" time="0.048"/>
  <testcase name="testTextDirectionClarification[6: &lt;!DOCTYPE html&gt;\n&lt;html translate=&quot;no&quot;&gt;\n&lt;head&gt;&lt;title&gt;Rtl&lt;/title&gt;&lt;/head&gt;\n&lt;body&gt;\n&lt;p&gt;بعض الكلمات&lt;/p&gt;\n&lt;/body&gt;\n&lt;/html&gt;\n, ar, &lt;!DOCTYPE html&gt;\n&lt;html dir=&quot;rtl&quot; translate=&quot;no&quot;&gt;&lt;head&gt;&lt;title&gt;Rtl&lt;/title&gt;&lt;/head&gt;\n&lt;body&gt;\n&lt;p&gt;بعض الكلمات&lt;/p&gt;\n\n\n&lt;/body&gt;&lt;/html&gt;]" classname="net.sf.okapi.filters.its.html5.HTML5FilterTest" time="0.074"/>
  <testcase name="testEmptyElements2" classname="net.sf.okapi.filters.its.html5.HTML5FilterTest" time="0.072"/>
  <testcase name="testAllowedChars" classname="net.sf.okapi.filters.its.html5.HTML5FilterTest" time="0.083"/>
  <testcase name="testLocQualityIssuesExternalXMLStandoff" classname="net.sf.okapi.filters.its.html5.HTML5FilterTest" time="0.184"/>
  <testcase name="testDATAContentOutput" classname="net.sf.okapi.filters.its.html5.HTML5FilterTest" time="0.078"/>
  <testcase name="testGlobalLocQualityIssues" classname="net.sf.okapi.filters.its.html5.HTML5FilterTest" time="0.074"/>
  <testcase name="testLQRLocal" classname="net.sf.okapi.filters.its.html5.HTML5FilterTest" time="0.091"/>
  <testcase name="testDomain" classname="net.sf.okapi.filters.its.html5.HTML5FilterTest" time="0.06"/>
  <testcase name="testTerminologyLocal" classname="net.sf.okapi.filters.its.html5.HTML5FilterTest" time="0.075"/>
  <testcase name="testTranslateOverridenByRule" classname="net.sf.okapi.filters.its.html5.HTML5FilterTest" time="0.112"/>
  <testcase name="testLocNoteLocal" classname="net.sf.okapi.filters.its.html5.HTML5FilterTest" time="0.067"/>
  <testcase name="testLocaleFilterLocal" classname="net.sf.okapi.filters.its.html5.HTML5FilterTest" time="0.077"/>
  <testcase name="testIdValueLocal" classname="net.sf.okapi.filters.its.html5.HTML5FilterTest" time="0.059"/>
</testsuite>