/home/ttnd/okapi-priya/okapi/okapi/libraries/lib-segmentation/src/test/java/net/sf/okapi/lib/segmentation/SegmentationTest.java
/home/ttnd/okapi-priya/okapi/okapi/libraries/lib-segmentation/src/test/java/net/sf/okapi/lib/segmentation/TestJavaRegex.java
/home/ttnd/okapi-priya/okapi/okapi/libraries/lib-segmentation/src/test/java/net/sf/okapi/lib/segmentation/SRXSegmenterTest.java
/home/ttnd/okapi-priya/okapi/okapi/libraries/lib-segmentation/src/test/java/net/sf/okapi/lib/segmentation/TestJava7Regex.java
/home/ttnd/okapi-priya/okapi/okapi/libraries/lib-segmentation/src/test/java/net/sf/okapi/lib/segmentation/TestIcu4jRules.java
/home/ttnd/okapi-priya/okapi/okapi/libraries/lib-segmentation/src/test/java/net/sf/okapi/lib/segmentation/SRXDocumentTest.java
