-------------------------------------------------------------------------------
Test set: net.sf.okapi.steps.diffleverage.DiffLeverageStepTest
-------------------------------------------------------------------------------
Tests run: 5, Failures: 0, Errors: 0, Skipped: 0, Time elapsed: 4.644 sec - in net.sf.okapi.steps.diffleverage.DiffLeverageStepTest
