/home/ttnd/okapi-priya/okapi/okapi/filters/table/src/test/java/net/sf/okapi/filters/table/CommaSeparatedValuesFilterTest.java
/home/ttnd/okapi-priya/okapi/okapi/filters/table/src/test/java/net/sf/okapi/filters/table/TabSeparatedValuesFilterTest.java
/home/ttnd/okapi-priya/okapi/okapi/filters/table/src/test/java/net/sf/okapi/filters/table/TableFilterTest.java
/home/ttnd/okapi-priya/okapi/okapi/filters/table/src/test/java/net/sf/okapi/filters/table/FixedWidthColumnsFilterTest.java
