net/sf/okapi/steps/diffleverage/DiffMatchAnnotation.class
net/sf/okapi/steps/diffleverage/FileAligner.class
net/sf/okapi/steps/diffleverage/FileLikeThing.class
net/sf/okapi/steps/diffleverage/DiffLeverageStep.class
net/sf/okapi/steps/diffleverage/Parameters.class
net/sf/okapi/steps/diffleverage/FileAlignment.class
net/sf/okapi/steps/diffleverage/TextUnitComparator.class
net/sf/okapi/steps/diffleverage/FuzzyTextUnitComparator.class
