-------------------------------------------------------------------------------
Test set: net.sf.okapi.filters.xmlstream.XmlStreamConfigurationTest
-------------------------------------------------------------------------------
Tests run: 10, Failures: 0, Errors: 0, Skipped: 0, Time elapsed: 0.027 sec - in net.sf.okapi.filters.xmlstream.XmlStreamConfigurationTest
