/home/ttnd/okapi-priya/okapi/okapi/core/src/main/java/net/sf/okapi/common/resource/TextFragment.java
/home/ttnd/okapi-priya/okapi/okapi/core/src/main/java/net/sf/okapi/common/resource/IVariantSources.java
/home/ttnd/okapi-priya/okapi/okapi/core/src/main/java/net/sf/okapi/common/ParametersDescription.java
/home/ttnd/okapi-priya/okapi/okapi/core/src/main/java/net/sf/okapi/common/resource/ISegments.java
/home/ttnd/okapi-priya/okapi/okapi/core/src/main/java/net/sf/okapi/common/ResourceUtil.java
/home/ttnd/okapi-priya/okapi/okapi/core/src/main/java/net/sf/okapi/common/skeleton/Referent.java
/home/ttnd/okapi-priya/okapi/okapi/core/src/main/java/net/sf/okapi/common/exceptions/OkapiBadStepInputException.java
/home/ttnd/okapi-priya/okapi/okapi/core/src/main/java/net/sf/okapi/common/ListUtil.java
/home/ttnd/okapi-priya/okapi/okapi/core/src/main/java/net/sf/okapi/common/exceptions/OkapiUserCanceledException.java
/home/ttnd/okapi-priya/okapi/okapi/core/src/main/java/net/sf/okapi/common/resource/TargetPropertiesAnnotation.java
/home/ttnd/okapi-priya/okapi/okapi/core/src/main/java/net/sf/okapi/common/encoder/CDATAEncoder.java
/home/ttnd/okapi-priya/okapi/okapi/core/src/main/java/net/sf/okapi/common/pipelinedriver/PipelineDriverUtils.java
/home/ttnd/okapi-priya/okapi/okapi/core/src/main/java/net/sf/okapi/common/resource/StartGroup.java
/home/ttnd/okapi-priya/okapi/okapi/core/src/main/java/net/sf/okapi/common/resource/TextPart.java
/home/ttnd/okapi-priya/okapi/okapi/core/src/main/java/net/sf/okapi/common/annotation/IterableEnumeration.java
/home/ttnd/okapi-priya/okapi/okapi/core/src/main/java/net/sf/okapi/common/filterwriter/IFilterWriter.java
/home/ttnd/okapi-priya/okapi/okapi/core/src/main/java/net/sf/okapi/common/resource/BaseNameable.java
/home/ttnd/okapi-priya/okapi/okapi/core/src/main/java/net/sf/okapi/common/annotation/XLIFFPhase.java
/home/ttnd/okapi-priya/okapi/okapi/core/src/main/java/net/sf/okapi/core/simplifierrules/Token.java
/home/ttnd/okapi-priya/okapi/okapi/core/src/main/java/net/sf/okapi/common/BaseParameters.java
/home/ttnd/okapi-priya/okapi/okapi/core/src/main/java/net/sf/okapi/common/resource/TextUnit.java
/home/ttnd/okapi-priya/okapi/okapi/core/src/main/java/net/sf/okapi/common/uidescription/CheckboxPart.java
/home/ttnd/okapi-priya/okapi/okapi/core/src/main/java/net/sf/okapi/common/query/MatchType.java
/home/ttnd/okapi-priya/okapi/okapi/core/src/main/java/net/sf/okapi/common/ClassInfo.java
/home/ttnd/okapi-priya/okapi/okapi/core/src/main/java/net/sf/okapi/common/uidescription/EditorDescription.java
/home/ttnd/okapi-priya/okapi/okapi/core/src/main/java/net/sf/okapi/common/resource/CodeComparatorOnId.java
/home/ttnd/okapi-priya/okapi/okapi/core/src/main/java/net/sf/okapi/common/filters/IFilterConfigurationListEditor.java
/home/ttnd/okapi-priya/okapi/okapi/core/src/main/java/net/sf/okapi/common/exceptions/OkapiException.java
/home/ttnd/okapi-priya/okapi/okapi/core/src/main/java/net/sf/okapi/common/resource/INameable.java
/home/ttnd/okapi-priya/okapi/okapi/core/src/main/java/net/sf/okapi/common/annotation/Annotations.java
/home/ttnd/okapi-priya/okapi/okapi/core/src/main/java/net/sf/okapi/common/observer/IObservable.java
/home/ttnd/okapi-priya/okapi/okapi/core/src/main/java/net/sf/okapi/common/IHelp.java
/home/ttnd/okapi-priya/okapi/okapi/core/src/main/java/net/sf/okapi/common/uidescription/PathInputPart.java
/home/ttnd/okapi-priya/okapi/okapi/core/src/main/java/net/sf/okapi/common/resource/CodeTypeBuilder.java
/home/ttnd/okapi-priya/okapi/okapi/core/src/main/java/net/sf/okapi/common/IEmbeddableParametersEditor.java
/home/ttnd/okapi-priya/okapi/okapi/core/src/main/java/net/sf/okapi/common/encoder/PHPContentEncoder.java
/home/ttnd/okapi-priya/okapi/okapi/core/src/main/java/net/sf/okapi/common/Event.java
/home/ttnd/okapi-priya/okapi/okapi/core/src/main/java/net/sf/okapi/common/resource/IAlignedSegments.java
/home/ttnd/okapi-priya/okapi/okapi/core/src/main/java/net/sf/okapi/common/resource/TextFragmentUtil.java
/home/ttnd/okapi-priya/okapi/okapi/core/src/main/java/net/sf/okapi/common/resource/AlignedSegments.java
/home/ttnd/okapi-priya/okapi/okapi/core/src/main/java/net/sf/okapi/common/Base64.java
/home/ttnd/okapi-priya/okapi/okapi/core/src/main/java/net/sf/okapi/common/UnicodeBOMWriter.java
/home/ttnd/okapi-priya/okapi/okapi/core/src/main/java/net/sf/okapi/common/filterwriter/TMXWriter.java
/home/ttnd/okapi-priya/okapi/okapi/core/src/main/java/net/sf/okapi/common/uidescription/TextInputPart.java
/home/ttnd/okapi-priya/okapi/okapi/core/src/main/java/net/sf/okapi/common/query/IQuery.java
/home/ttnd/okapi-priya/okapi/okapi/core/src/main/java/net/sf/okapi/common/filters/SubFilterSkeletonWriter.java
/home/ttnd/okapi-priya/okapi/okapi/core/src/main/java/net/sf/okapi/common/resource/ITextUnit.java
/home/ttnd/okapi-priya/okapi/okapi/core/src/main/java/net/sf/okapi/common/exceptions/OkapiFilterCreationException.java
/home/ttnd/okapi-priya/okapi/okapi/core/src/main/java/net/sf/okapi/common/IParametersEditor.java
/home/ttnd/okapi-priya/okapi/okapi/core/src/main/java/net/sf/okapi/common/exceptions/OkapiFileNotFoundException.java
/home/ttnd/okapi-priya/okapi/okapi/core/src/main/java/net/sf/okapi/common/filters/IFilterConfigurationEditor.java
/home/ttnd/okapi-priya/okapi/okapi/core/src/main/java/net/sf/okapi/common/pipeline/annotations/StepIntrospector.java
/home/ttnd/okapi-priya/okapi/okapi/core/src/main/java/net/sf/okapi/common/DefaultEntityResolver.java
/home/ttnd/okapi-priya/okapi/okapi/core/src/main/java/net/sf/okapi/common/uidescription/TextLabelPart.java
/home/ttnd/okapi-priya/okapi/okapi/core/src/main/java/net/sf/okapi/common/observer/BaseObservable.java
/home/ttnd/okapi-priya/okapi/okapi/core/src/main/java/net/sf/okapi/common/EditorFor.java
/home/ttnd/okapi-priya/okapi/okapi/core/src/main/java/net/sf/okapi/common/resource/BaseReferenceable.java
/home/ttnd/okapi-priya/okapi/okapi/core/src/main/java/net/sf/okapi/common/NSContextManager.java
/home/ttnd/okapi-priya/okapi/okapi/core/src/main/java/net/sf/okapi/common/pipeline/BasePipelineStep.java
/home/ttnd/okapi-priya/okapi/okapi/core/src/main/java/net/sf/okapi/common/ExecutionContext.java
/home/ttnd/okapi-priya/okapi/okapi/core/src/main/java/net/sf/okapi/common/exceptions/OkapiIllegalFilterOperationException.java
/home/ttnd/okapi-priya/okapi/okapi/core/src/main/java/net/sf/okapi/common/DefaultFilenameFilter.java
/home/ttnd/okapi-priya/okapi/okapi/core/src/main/java/net/sf/okapi/common/pipeline/annotations/StepParameterType.java
/home/ttnd/okapi-priya/okapi/okapi/core/src/main/java/net/sf/okapi/common/IContext.java
/home/ttnd/okapi-priya/okapi/okapi/core/src/main/java/net/sf/okapi/common/resource/RawDocument.java
/home/ttnd/okapi-priya/okapi/okapi/core/src/main/java/net/sf/okapi/common/encoder/QuoteMode.java
/home/ttnd/okapi-priya/okapi/okapi/core/src/main/java/net/sf/okapi/common/ClassUtil.java
/home/ttnd/okapi-priya/okapi/okapi/core/src/main/java/net/sf/okapi/common/skeleton/GenericSkeletonWriter.java
/home/ttnd/okapi-priya/okapi/okapi/core/src/main/java/net/sf/okapi/common/annotation/XLIFFToolAnnotation.java
/home/ttnd/okapi-priya/okapi/okapi/core/src/main/java/net/sf/okapi/common/resource/AnnotatedSpan.java
/home/ttnd/okapi-priya/okapi/okapi/core/src/main/java/net/sf/okapi/common/UserConfiguration.java
/home/ttnd/okapi-priya/okapi/okapi/core/src/main/java/net/sf/okapi/core/simplifierrules/SimplifierRulesUtil.java
/home/ttnd/okapi-priya/okapi/okapi/core/src/main/java/net/sf/okapi/common/ParametersString.java
/home/ttnd/okapi-priya/okapi/okapi/core/src/main/java/net/sf/okapi/common/IUserPrompt.java
/home/ttnd/okapi-priya/okapi/okapi/core/src/main/java/net/sf/okapi/common/ReferenceParameter.java
/home/ttnd/okapi-priya/okapi/okapi/core/src/main/java/net/sf/okapi/common/LCIDUtil.java
/home/ttnd/okapi-priya/okapi/okapi/core/src/main/java/net/sf/okapi/common/annotation/IssueType.java
/home/ttnd/okapi-priya/okapi/okapi/core/src/main/java/net/sf/okapi/common/resource/DocumentPart.java
/home/ttnd/okapi-priya/okapi/okapi/core/src/main/java/net/sf/okapi/common/encoder/DefaultEncoder.java
/home/ttnd/okapi-priya/okapi/okapi/core/src/main/java/net/sf/okapi/common/pipeline/IWorkQueueStep.java
/home/ttnd/okapi-priya/okapi/okapi/core/src/main/java/net/sf/okapi/common/observer/IObserver.java
/home/ttnd/okapi-priya/okapi/okapi/core/src/main/java/net/sf/okapi/common/skeleton/GenericSkeletonPart.java
/home/ttnd/okapi-priya/okapi/okapi/core/src/main/java/net/sf/okapi/common/pipelinedriver/PipelineDriver.java
/home/ttnd/okapi-priya/okapi/okapi/core/src/main/java/net/sf/okapi/common/filters/InlineCodeFinder.java
/home/ttnd/okapi-priya/okapi/okapi/core/src/main/java/net/sf/okapi/common/annotation/ITSProvenanceAnnotations.java
/home/ttnd/okapi-priya/okapi/okapi/core/src/main/java/net/sf/okapi/common/uidescription/ListSelectionPart.java
/home/ttnd/okapi-priya/okapi/okapi/core/src/main/java/net/sf/okapi/common/filters/IFilterConfigurationMapper.java
/home/ttnd/okapi-priya/okapi/okapi/core/src/main/java/net/sf/okapi/common/IParametersProvider.java
/home/ttnd/okapi-priya/okapi/okapi/core/src/main/java/net/sf/okapi/common/ReaderInputStream.java
/home/ttnd/okapi-priya/okapi/okapi/core/src/main/java/net/sf/okapi/common/BOMAwareInputStream.java
/home/ttnd/okapi-priya/okapi/okapi/core/src/main/java/net/sf/okapi/common/filterwriter/Parameters.java
/home/ttnd/okapi-priya/okapi/okapi/core/src/main/java/net/sf/okapi/common/encoder/XMLEncoder.java
/home/ttnd/okapi-priya/okapi/okapi/core/src/main/java/net/sf/okapi/common/annotation/TermsAnnotation.java
/home/ttnd/okapi-priya/okapi/okapi/core/src/main/java/net/sf/okapi/common/resource/TextContainer.java
/home/ttnd/okapi-priya/okapi/okapi/core/src/main/java/net/sf/okapi/common/exceptions/OkapiNotImplementedException.java
/home/ttnd/okapi-priya/okapi/okapi/core/src/main/java/net/sf/okapi/common/resource/simplifier/AbstractResourceSimplifier.java
/home/ttnd/okapi-priya/okapi/okapi/core/src/main/java/net/sf/okapi/common/exceptions/OkapiBadFilterInputException.java
/home/ttnd/okapi-priya/okapi/okapi/core/src/main/java/net/sf/okapi/common/IParameters.java
/home/ttnd/okapi-priya/okapi/okapi/core/src/main/java/net/sf/okapi/common/uidescription/SeparatorPart.java
/home/ttnd/okapi-priya/okapi/okapi/core/src/main/java/net/sf/okapi/common/ReversedIterator.java
/home/ttnd/okapi-priya/okapi/okapi/core/src/main/java/net/sf/okapi/common/TraceBack.java
/home/ttnd/okapi-priya/okapi/okapi/core/src/main/java/net/sf/okapi/common/resource/Property.java
/home/ttnd/okapi-priya/okapi/okapi/core/src/main/java/net/sf/okapi/common/plugins/PluginsManager.java
/home/ttnd/okapi-priya/okapi/okapi/core/src/main/java/net/sf/okapi/common/resource/InvalidContentException.java
/home/ttnd/okapi-priya/okapi/okapi/core/src/main/java/net/sf/okapi/common/BOMNewlineEncodingDetector.java
/home/ttnd/okapi-priya/okapi/okapi/core/src/main/java/net/sf/okapi/common/resource/simplifier/ResourceSimplifier.java
/home/ttnd/okapi-priya/okapi/okapi/core/src/main/java/net/sf/okapi/common/annotation/ITSLQIAnnotations.java
/home/ttnd/okapi-priya/okapi/okapi/core/src/main/java/net/sf/okapi/common/resource/CodeSimplifier.java
/home/ttnd/okapi-priya/okapi/okapi/core/src/main/java/net/sf/okapi/common/uidescription/IEditorDescriptionProvider.java
/home/ttnd/okapi-priya/okapi/okapi/core/src/main/java/net/sf/okapi/common/filterwriter/ITSAnnotatorsRefContext.java
/home/ttnd/okapi-priya/okapi/okapi/core/src/main/java/net/sf/okapi/common/BaseContext.java
/home/ttnd/okapi-priya/okapi/okapi/core/src/main/java/net/sf/okapi/common/StreamUtil.java
/home/ttnd/okapi-priya/okapi/okapi/core/src/main/java/net/sf/okapi/common/StringParameters.java
/home/ttnd/okapi-priya/okapi/okapi/core/src/main/java/net/sf/okapi/common/layerprovider/LayerProvider.java
/home/ttnd/okapi-priya/okapi/okapi/core/src/main/java/net/sf/okapi/common/IParameterDescriptor.java
/home/ttnd/okapi-priya/okapi/okapi/core/src/main/java/net/sf/okapi/common/ParameterDescriptor.java
/home/ttnd/okapi-priya/okapi/okapi/core/src/main/java/net/sf/okapi/common/IdGenerator.java
/home/ttnd/okapi-priya/okapi/okapi/core/src/main/java/net/sf/okapi/common/filters/FilterInfo.java
/home/ttnd/okapi-priya/okapi/okapi/core/src/main/java/net/sf/okapi/common/pipelinedriver/BatchItemContext.java
/home/ttnd/okapi-priya/okapi/okapi/core/src/main/java/net/sf/okapi/common/encoder/JSONEncoder.java
/home/ttnd/okapi-priya/okapi/okapi/core/src/main/java/net/sf/okapi/common/filterwriter/TMXFilterWriter.java
/home/ttnd/okapi-priya/okapi/okapi/core/src/main/java/net/sf/okapi/common/pipeline/IPipelineStep.java
/home/ttnd/okapi-priya/okapi/okapi/core/src/main/java/net/sf/okapi/common/uidescription/CheckListPart.java
/home/ttnd/okapi-priya/okapi/okapi/core/src/main/java/net/sf/okapi/common/query/QueryResult.java
/home/ttnd/okapi-priya/okapi/okapi/core/src/main/java/net/sf/okapi/common/pipeline/Pipeline.java
/home/ttnd/okapi-priya/okapi/okapi/core/src/main/java/net/sf/okapi/common/skeleton/GenericSkeletonSimplifier.java
/home/ttnd/okapi-priya/okapi/okapi/core/src/main/java/net/sf/okapi/common/filters/EventBuilder.java
/home/ttnd/okapi-priya/okapi/okapi/core/src/main/java/net/sf/okapi/core/simplifierrules/SimpleCharStream.java
/home/ttnd/okapi-priya/okapi/okapi/core/src/main/java/net/sf/okapi/common/exceptions/OkapiEditorCreationException.java
/home/ttnd/okapi-priya/okapi/okapi/core/src/main/java/net/sf/okapi/common/XMLWriter.java
/home/ttnd/okapi-priya/okapi/okapi/core/src/main/java/net/sf/okapi/common/resource/simplifier/IEventConverter.java
/home/ttnd/okapi-priya/okapi/okapi/core/src/main/java/net/sf/okapi/common/resource/AlignedPair.java
/home/ttnd/okapi-priya/okapi/okapi/core/src/main/java/net/sf/okapi/common/filters/PropertyTextUnitPlaceholder.java
/home/ttnd/okapi-priya/okapi/okapi/core/src/main/java/net/sf/okapi/common/resource/CodeComparatorOnOuterData.java
/home/ttnd/okapi-priya/okapi/okapi/core/src/main/java/net/sf/okapi/common/io/FileCachedInputStream.java
/home/ttnd/okapi-priya/okapi/okapi/core/src/main/java/net/sf/okapi/common/encoder/HtmlEncoder.java
/home/ttnd/okapi-priya/okapi/okapi/core/src/main/java/net/sf/okapi/common/encoder/POEncoder.java
/home/ttnd/okapi-priya/okapi/okapi/core/src/main/java/net/sf/okapi/common/skeleton/StorageList.java
/home/ttnd/okapi-priya/okapi/okapi/core/src/main/java/net/sf/okapi/common/ConfigurationString.java
/home/ttnd/okapi-priya/okapi/okapi/core/src/main/java/net/sf/okapi/common/annotation/AltTranslation.java
/home/ttnd/okapi-priya/okapi/okapi/core/src/main/java/net/sf/okapi/common/EventType.java
/home/ttnd/okapi-priya/okapi/okapi/core/src/main/java/net/sf/okapi/common/ParametersEditorMapper.java
/home/ttnd/okapi-priya/okapi/okapi/core/src/main/java/net/sf/okapi/common/MimeTypeMapper.java
/home/ttnd/okapi-priya/okapi/okapi/core/src/main/java/net/sf/okapi/common/uidescription/SpinInputPart.java
/home/ttnd/okapi-priya/okapi/okapi/core/src/main/java/net/sf/okapi/common/skeleton/GenericSkeleton.java
/home/ttnd/okapi-priya/okapi/okapi/core/src/main/java/net/sf/okapi/common/filterwriter/XLIFFWriter.java
/home/ttnd/okapi-priya/okapi/okapi/core/src/main/java/net/sf/okapi/common/skeleton/SkeletonUtil.java
/home/ttnd/okapi-priya/okapi/okapi/core/src/main/java/net/sf/okapi/common/filters/LocalizationDirectives.java
/home/ttnd/okapi-priya/okapi/okapi/core/src/main/java/net/sf/okapi/common/RegexUtil.java
/home/ttnd/okapi-priya/okapi/okapi/core/src/main/java/net/sf/okapi/common/resource/AlignmentStatus.java
/home/ttnd/okapi-priya/okapi/okapi/core/src/main/java/net/sf/okapi/common/resource/CodeComparatorOnData.java
/home/ttnd/okapi-priya/okapi/okapi/core/src/main/java/net/sf/okapi/common/FileUtil.java
/home/ttnd/okapi-priya/okapi/okapi/core/src/main/java/net/sf/okapi/common/filterwriter/ITSContent.java
/home/ttnd/okapi-priya/okapi/okapi/core/src/main/java/net/sf/okapi/common/resource/Custom.java
/home/ttnd/okapi-priya/okapi/okapi/core/src/main/java/net/sf/okapi/common/resource/InvalidPositionException.java
/home/ttnd/okapi-priya/okapi/okapi/core/src/main/java/net/sf/okapi/common/encoder/PropertiesEncoder.java
/home/ttnd/okapi-priya/okapi/okapi/core/src/main/java/net/sf/okapi/common/UserPrompt.java
/home/ttnd/okapi-priya/okapi/okapi/core/src/main/java/net/sf/okapi/common/resource/Code.java
/home/ttnd/okapi-priya/okapi/okapi/core/src/main/java/net/sf/okapi/common/filters/FilterUtil.java
/home/ttnd/okapi-priya/okapi/okapi/core/src/main/java/net/sf/okapi/common/resource/VariantSources.java
/home/ttnd/okapi-priya/okapi/okapi/core/src/main/java/net/sf/okapi/common/encoder/DTDEncoder.java
/home/ttnd/okapi-priya/okapi/okapi/core/src/main/java/net/sf/okapi/common/filters/FilterConfiguration.java
/home/ttnd/okapi-priya/okapi/okapi/core/src/main/java/net/sf/okapi/core/simplifierrules/SimplifierRulesConstants.java
/home/ttnd/okapi-priya/okapi/okapi/core/src/main/java/net/sf/okapi/common/layerprovider/ILayerProvider.java
/home/ttnd/okapi-priya/okapi/okapi/core/src/main/java/net/sf/okapi/common/skeleton/ZipSkeleton.java
/home/ttnd/okapi-priya/okapi/okapi/core/src/main/java/net/sf/okapi/common/annotation/XLIFFTool.java
/home/ttnd/okapi-priya/okapi/okapi/core/src/main/java/net/sf/okapi/common/LocaleFilter.java
/home/ttnd/okapi-priya/okapi/okapi/core/src/main/java/net/sf/okapi/common/filterwriter/TMXContent.java
/home/ttnd/okapi-priya/okapi/okapi/core/src/main/java/net/sf/okapi/common/HTMLCharacterEntities.java
/home/ttnd/okapi-priya/okapi/okapi/core/src/main/java/net/sf/okapi/common/encoder/EncoderContext.java
/home/ttnd/okapi-priya/okapi/okapi/core/src/main/java/net/sf/okapi/common/exceptions/OkapiUnexpectedRevisionException.java
/home/ttnd/okapi-priya/okapi/okapi/core/src/main/java/net/sf/okapi/common/MemMappedCharSequence.java
/home/ttnd/okapi-priya/okapi/okapi/core/src/main/java/net/sf/okapi/core/simplifierrules/ParseException.java
/home/ttnd/okapi-priya/okapi/okapi/core/src/main/java/net/sf/okapi/common/annotation/DeepenSegmentationAnnotaton.java
/home/ttnd/okapi-priya/okapi/okapi/core/src/main/java/net/sf/okapi/common/encoder/TSEncoder.java
/home/ttnd/okapi-priya/okapi/okapi/core/src/main/java/net/sf/okapi/common/plugins/PluginItem.java
/home/ttnd/okapi-priya/okapi/okapi/core/src/main/java/net/sf/okapi/common/resource/Segments.java
/home/ttnd/okapi-priya/okapi/okapi/core/src/main/java/net/sf/okapi/common/Range.java
/home/ttnd/okapi-priya/okapi/okapi/core/src/main/java/net/sf/okapi/common/pipeline/IPipeline.java
/home/ttnd/okapi-priya/okapi/okapi/core/src/main/java/net/sf/okapi/common/pipeline/ICallableStep.java
/home/ttnd/okapi-priya/okapi/okapi/core/src/main/java/net/sf/okapi/common/filters/FilterConfigurationMapper.java
/home/ttnd/okapi-priya/okapi/okapi/core/src/main/java/net/sf/okapi/common/uidescription/AbstractPart.java
/home/ttnd/okapi-priya/okapi/okapi/core/src/main/java/net/sf/okapi/core/simplifierrules/SimplifierRulesTokenManager.java
/home/ttnd/okapi-priya/okapi/okapi/core/src/main/java/net/sf/okapi/common/resource/Document.java
/home/ttnd/okapi-priya/okapi/okapi/core/src/main/java/net/sf/okapi/common/skeleton/ISkeletonWriter.java
/home/ttnd/okapi-priya/okapi/okapi/core/src/main/java/net/sf/okapi/common/annotation/AltTranslationsAnnotation.java
/home/ttnd/okapi-priya/okapi/okapi/core/src/main/java/net/sf/okapi/common/pipeline/annotations/StepParameterMapping.java
/home/ttnd/okapi-priya/okapi/okapi/core/src/main/java/net/sf/okapi/common/resource/StartSubfilter.java
/home/ttnd/okapi-priya/okapi/okapi/core/src/main/java/net/sf/okapi/common/filters/IFilter.java
/home/ttnd/okapi-priya/okapi/okapi/core/src/main/java/net/sf/okapi/common/resource/ExtendedCodeType.java
/home/ttnd/okapi-priya/okapi/okapi/core/src/main/java/net/sf/okapi/common/annotation/SimplifierRulesAnnotaton.java
/home/ttnd/okapi-priya/okapi/okapi/core/src/main/java/net/sf/okapi/common/resource/Ending.java
/home/ttnd/okapi-priya/okapi/okapi/core/src/main/java/net/sf/okapi/common/resource/TextUnitUtil.java
/home/ttnd/okapi-priya/okapi/okapi/core/src/main/java/net/sf/okapi/common/IWaitDialog.java
/home/ttnd/okapi-priya/okapi/okapi/core/src/main/java/net/sf/okapi/common/exceptions/OkapiUnexpectedResourceTypeException.java
/home/ttnd/okapi-priya/okapi/okapi/core/src/main/java/net/sf/okapi/core/simplifierrules/TokenMgrError.java
/home/ttnd/okapi-priya/okapi/okapi/core/src/main/java/net/sf/okapi/filters/openxml/PostponedDocumentPart.java
/home/ttnd/okapi-priya/okapi/okapi/core/src/main/java/net/sf/okapi/common/filters/SubFilterEventConverter.java
/home/ttnd/okapi-priya/okapi/okapi/core/src/main/java/net/sf/okapi/common/resource/simplifier/IResourceSimplifier.java
/home/ttnd/okapi-priya/okapi/okapi/core/src/main/java/net/sf/okapi/common/IResource.java
/home/ttnd/okapi-priya/okapi/okapi/core/src/main/java/net/sf/okapi/common/resource/StartDocument.java
/home/ttnd/okapi-priya/okapi/okapi/core/src/main/java/net/sf/okapi/common/uidescription/FolderInputPart.java
/home/ttnd/okapi-priya/okapi/okapi/core/src/main/java/net/sf/okapi/common/ISkeleton.java
/home/ttnd/okapi-priya/okapi/okapi/core/src/main/java/net/sf/okapi/core/simplifierrules/JavaCharStream.java
/home/ttnd/okapi-priya/okapi/okapi/core/src/main/java/net/sf/okapi/common/pipelinedriver/IBatchItemContext.java
/home/ttnd/okapi-priya/okapi/okapi/core/src/main/java/net/sf/okapi/core/simplifierrules/SimplifierRules.java
/home/ttnd/okapi-priya/okapi/okapi/core/src/main/java/net/sf/okapi/common/filterwriter/GenericFilterWriter.java
/home/ttnd/okapi-priya/okapi/okapi/core/src/main/java/net/sf/okapi/common/HashCodeUtil.java
/home/ttnd/okapi-priya/okapi/okapi/core/src/main/java/net/sf/okapi/common/ISegmenter.java
/home/ttnd/okapi-priya/okapi/okapi/core/src/main/java/net/sf/okapi/common/SynchronizedValue.java
/home/ttnd/okapi-priya/okapi/okapi/core/src/main/java/net/sf/okapi/common/pipelinedriver/DocumentData.java
/home/ttnd/okapi-priya/okapi/okapi/core/src/main/java/net/sf/okapi/common/resource/StartSubDocument.java
/home/ttnd/okapi-priya/okapi/okapi/core/src/main/java/net/sf/okapi/common/UsingParameters.java
/home/ttnd/okapi-priya/okapi/okapi/core/src/main/java/net/sf/okapi/common/annotation/IssueAnnotation.java
/home/ttnd/okapi-priya/okapi/okapi/core/src/main/java/net/sf/okapi/common/resource/InlineAnnotation.java
/home/ttnd/okapi-priya/okapi/okapi/core/src/main/java/net/sf/okapi/common/StringUtil.java
/home/ttnd/okapi-priya/okapi/okapi/core/src/main/java/net/sf/okapi/common/filterwriter/XLIFFContent.java
/home/ttnd/okapi-priya/okapi/okapi/core/src/main/java/net/sf/okapi/common/exceptions/OkapiMisAlignmentException.java
/home/ttnd/okapi-priya/okapi/okapi/core/src/main/java/net/sf/okapi/common/IParametersEditorMapper.java
/home/ttnd/okapi-priya/okapi/okapi/core/src/main/java/net/sf/okapi/common/io/InputStreamFromOutputStream.java
/home/ttnd/okapi-priya/okapi/okapi/core/src/main/java/net/sf/okapi/common/pipeline/IPipelineWriter.java
/home/ttnd/okapi-priya/okapi/okapi/core/src/main/java/net/sf/okapi/common/uidescription/IContainerPart.java
/home/ttnd/okapi-priya/okapi/okapi/core/src/main/java/net/sf/okapi/common/Util.java
/home/ttnd/okapi-priya/okapi/okapi/core/src/main/java/net/sf/okapi/common/ISimplifierRulesParameters.java
/home/ttnd/okapi-priya/okapi/okapi/core/src/main/java/net/sf/okapi/common/IPredefinedLocales.java
/home/ttnd/okapi-priya/okapi/okapi/core/src/main/java/net/sf/okapi/common/annotation/GenericAnnotationType.java
/home/ttnd/okapi-priya/okapi/okapi/core/src/main/java/net/sf/okapi/common/RenumberingUtil.java
/home/ttnd/okapi-priya/okapi/okapi/core/src/main/java/net/sf/okapi/common/pipeline/PipelineReturnValue.java
/home/ttnd/okapi-priya/okapi/okapi/core/src/main/java/net/sf/okapi/common/resource/CodeAnomalies.java
/home/ttnd/okapi-priya/okapi/okapi/core/src/main/java/net/sf/okapi/common/Namespaces.java
/home/ttnd/okapi-priya/okapi/okapi/core/src/main/java/net/sf/okapi/common/resource/EndSubfilter.java
/home/ttnd/okapi-priya/okapi/okapi/core/src/main/java/net/sf/okapi/common/pipeline/annotations/ConfigurationParameter.java
/home/ttnd/okapi-priya/okapi/okapi/core/src/main/java/net/sf/okapi/common/filterwriter/GenericContent.java
/home/ttnd/okapi-priya/okapi/okapi/core/src/main/java/net/sf/okapi/common/annotation/GenericAnnotation.java
/home/ttnd/okapi-priya/okapi/okapi/core/src/main/java/net/sf/okapi/common/observer/WeakReferenceObservable.java
/home/ttnd/okapi-priya/okapi/okapi/core/src/main/java/net/sf/okapi/common/LocaleId.java
/home/ttnd/okapi-priya/okapi/okapi/core/src/main/java/net/sf/okapi/common/filterwriter/XLIFFWriterParameters.java
/home/ttnd/okapi-priya/okapi/okapi/core/src/main/java/net/sf/okapi/common/exceptions/OkapiBadFilterParametersException.java
/home/ttnd/okapi-priya/okapi/okapi/core/src/main/java/net/sf/okapi/common/resource/IReferenceable.java
/home/ttnd/okapi-priya/okapi/okapi/core/src/main/java/net/sf/okapi/common/exceptions/OkapiMergeException.java
/home/ttnd/okapi-priya/okapi/okapi/core/src/main/java/net/sf/okapi/common/filters/FilterState.java
/home/ttnd/okapi-priya/okapi/okapi/core/src/main/java/net/sf/okapi/common/encoder/EncoderManager.java
/home/ttnd/okapi-priya/okapi/okapi/core/src/main/java/net/sf/okapi/common/encoder/OpenXMLEncoder.java
/home/ttnd/okapi-priya/okapi/okapi/core/src/main/java/net/sf/okapi/common/annotation/XLIFFPhaseAnnotation.java
/home/ttnd/okapi-priya/okapi/okapi/core/src/main/java/net/sf/okapi/common/filters/DefaultFilters.java
/home/ttnd/okapi-priya/okapi/okapi/core/src/main/java/net/sf/okapi/common/encoder/IEncoder.java
/home/ttnd/okapi-priya/okapi/okapi/core/src/main/java/net/sf/okapi/common/annotation/GenericAnnotations.java
/home/ttnd/okapi-priya/okapi/okapi/core/src/main/java/net/sf/okapi/common/filters/SubFilter.java
/home/ttnd/okapi-priya/okapi/okapi/core/src/main/java/net/sf/okapi/common/filters/AbstractFilter.java
/home/ttnd/okapi-priya/okapi/okapi/core/src/main/java/net/sf/okapi/common/pipeline/IPipelineReader.java
/home/ttnd/okapi-priya/okapi/okapi/core/src/main/java/net/sf/okapi/common/annotation/IAnnotation.java
/home/ttnd/okapi-priya/okapi/okapi/core/src/main/java/net/sf/okapi/common/resource/Segment.java
/home/ttnd/okapi-priya/okapi/okapi/core/src/main/java/net/sf/okapi/common/resource/MultiEvent.java
/home/ttnd/okapi-priya/okapi/okapi/core/src/main/java/net/sf/okapi/common/pipelinedriver/IPipelineDriver.java
/home/ttnd/okapi-priya/okapi/okapi/core/src/main/java/net/sf/okapi/common/exceptions/OkapiIOException.java
/home/ttnd/okapi-priya/okapi/okapi/core/src/main/java/net/sf/okapi/common/uidescription/CodeFinderPart.java
/home/ttnd/okapi-priya/okapi/okapi/core/src/main/java/net/sf/okapi/common/resource/PipelineParameters.java
/home/ttnd/okapi-priya/okapi/okapi/core/src/main/java/net/sf/okapi/common/exceptions/OkapiUnsupportedEncodingException.java
/home/ttnd/okapi-priya/okapi/okapi/core/src/main/java/net/sf/okapi/common/io/FastIOUtil.java
/home/ttnd/okapi-priya/okapi/okapi/core/src/main/java/net/sf/okapi/common/filterwriter/ZipFilterWriter.java
