-------------------------------------------------------------------------------
Test set: net.sf.okapi.filters.rtf.integration.ExtractionComparisionTest
-------------------------------------------------------------------------------
Tests run: 1, Failures: 0, Errors: 0, Skipped: 0, Time elapsed: 0.343 sec - in net.sf.okapi.filters.rtf.integration.ExtractionComparisionTest
