-------------------------------------------------------------------------------
Test set: net.sf.okapi.filters.ts.TsFilterTest
-------------------------------------------------------------------------------
Tests run: 39, Failures: 0, Errors: 0, Skipped: 0, Time elapsed: 7.059 sec - in net.sf.okapi.filters.ts.TsFilterTest
