-------------------------------------------------------------------------------
Test set: net.sf.okapi.steps.xliffsplitter.XliffJoinerTest
-------------------------------------------------------------------------------
Tests run: 1, Failures: 0, Errors: 0, Skipped: 0, Time elapsed: 2.275 sec - in net.sf.okapi.steps.xliffsplitter.XliffJoinerTest
