/home/ttnd/okapi-priya/okapi/okapi/steps/diffleverage/src/test/java/net/sf/okapi/steps/diffleverage/EventObserver.java
/home/ttnd/okapi-priya/okapi/okapi/steps/diffleverage/src/test/java/net/sf/okapi/steps/diffleverage/DiffLeverageStepTest.java
/home/ttnd/okapi-priya/okapi/okapi/steps/diffleverage/src/test/java/net/sf/okapi/steps/diffleverage/FileAlignerTest.java
