/home/ttnd/okapi-priya/okapi/okapi/filters/yaml/src/main/java/net/sf/okapi/filters/yaml/YamlEventBuilder.java
/home/ttnd/okapi-priya/okapi/okapi/filters/yaml/src/main/java/net/sf/okapi/filters/yaml/parser/StringProvider.java
/home/ttnd/okapi-priya/okapi/okapi/filters/yaml/src/main/java/net/sf/okapi/filters/yaml/parser/YamlParserTokenManager.java
/home/ttnd/okapi-priya/okapi/okapi/filters/yaml/src/main/java/net/sf/okapi/filters/yaml/parser/BaseToken.java
/home/ttnd/okapi-priya/okapi/okapi/filters/yaml/src/main/java/net/sf/okapi/filters/yaml/parser/YamlNodeTypes.java
/home/ttnd/okapi-priya/okapi/okapi/filters/yaml/src/main/java/net/sf/okapi/filters/yaml/parser/Provider.java
/home/ttnd/okapi-priya/okapi/okapi/filters/yaml/src/main/java/net/sf/okapi/filters/yaml/parser/Line.java
/home/ttnd/okapi-priya/okapi/okapi/filters/yaml/src/main/java/net/sf/okapi/filters/yaml/parser/StreamProvider.java
/home/ttnd/okapi-priya/okapi/okapi/filters/yaml/src/main/java/net/sf/okapi/filters/yaml/YamlSkeletonWriter.java
/home/ttnd/okapi-priya/okapi/okapi/filters/yaml/src/main/java/net/sf/okapi/filters/yaml/parser/YamlParser.java
/home/ttnd/okapi-priya/okapi/okapi/filters/yaml/src/main/java/net/sf/okapi/filters/yaml/parser/Key.java
/home/ttnd/okapi-priya/okapi/okapi/filters/yaml/src/main/java/net/sf/okapi/filters/yaml/parser/Token.java
/home/ttnd/okapi-priya/okapi/okapi/filters/yaml/src/main/java/net/sf/okapi/filters/yaml/parser/Scalar.java
/home/ttnd/okapi-priya/okapi/okapi/filters/yaml/src/main/java/net/sf/okapi/filters/yaml/YamlFilter.java
/home/ttnd/okapi-priya/okapi/okapi/filters/yaml/src/main/java/net/sf/okapi/filters/yaml/parser/TokenMgrException.java
/home/ttnd/okapi-priya/okapi/okapi/filters/yaml/src/main/java/net/sf/okapi/filters/yaml/parser/IndentedBlock.java
/home/ttnd/okapi-priya/okapi/okapi/filters/yaml/src/main/java/net/sf/okapi/filters/yaml/parser/YamlScalarTypes.java
/home/ttnd/okapi-priya/okapi/okapi/filters/yaml/src/main/java/net/sf/okapi/filters/yaml/parser/JavaCharStream.java
/home/ttnd/okapi-priya/okapi/okapi/filters/yaml/src/main/java/net/sf/okapi/filters/yaml/Parameters.java
/home/ttnd/okapi-priya/okapi/okapi/filters/yaml/src/main/java/net/sf/okapi/filters/yaml/parser/YamlParserConstants.java
/home/ttnd/okapi-priya/okapi/okapi/filters/yaml/src/main/java/net/sf/okapi/filters/yaml/YamlEncoder.java
/home/ttnd/okapi-priya/okapi/okapi/filters/yaml/src/main/java/net/sf/okapi/filters/yaml/parser/IYamlHandler.java
/home/ttnd/okapi-priya/okapi/okapi/filters/yaml/src/main/java/net/sf/okapi/filters/yaml/parser/ParseException.java
/home/ttnd/okapi-priya/okapi/okapi/filters/yaml/src/main/java/net/sf/okapi/filters/yaml/parser/YamlChompTypes.java
/home/ttnd/okapi-priya/okapi/okapi/filters/yaml/src/main/java/net/sf/okapi/filters/yaml/parser/QuotedScalar.java
