net/sf/okapi/lib/ui/translation/ConnectorSelectionPanel.class
net/sf/okapi/lib/ui/translation/ConnectorSelectionPanel$1.class
net/sf/okapi/lib/ui/translation/ConnectorInfo.class
net/sf/okapi/lib/ui/translation/DefaultConnectors.class
net/sf/okapi/lib/ui/translation/ConnectorSelectionPanel$2.class
net/sf/okapi/lib/ui/translation/IConnectorList.class
