net/sf/okapi/steps/searchandreplace/ui/ParametersEditor$9.class
net/sf/okapi/steps/searchandreplace/ui/ParametersEditor$6.class
net/sf/okapi/steps/searchandreplace/ui/ParametersEditor$1.class
net/sf/okapi/steps/searchandreplace/ui/ParametersEditor$10.class
net/sf/okapi/steps/searchandreplace/ui/ParametersEditor$5.class
net/sf/okapi/steps/searchandreplace/ui/ParametersEditor$7.class
net/sf/okapi/steps/searchandreplace/ui/ParametersEditor$2.class
net/sf/okapi/steps/searchandreplace/ui/ParametersEditor$3.class
net/sf/okapi/steps/searchandreplace/ui/ParametersEditor$13.class
net/sf/okapi/steps/searchandreplace/ui/ParametersEditor$11.class
net/sf/okapi/steps/searchandreplace/ui/ParametersEditor$12.class
net/sf/okapi/steps/searchandreplace/ui/ParametersEditor$8.class
net/sf/okapi/steps/searchandreplace/ui/ParametersEditor.class
net/sf/okapi/steps/searchandreplace/ui/ParametersEditor$4.class
net/sf/okapi/steps/searchandreplace/ui/ParametersEditor$14.class
