-------------------------------------------------------------------------------
Test set: net.sf.okapi.tm.pensieve.tmx.TmxHandlerImportTest
-------------------------------------------------------------------------------
Tests run: 3, Failures: 0, Errors: 0, Skipped: 0, Time elapsed: 3.271 sec - in net.sf.okapi.tm.pensieve.tmx.TmxHandlerImportTest
