net/sf/okapi/filters/mosestext/MosesTextFilter.class
net/sf/okapi/filters/mosestext/MosesTextEncoder.class
net/sf/okapi/filters/mosestext/MosesTextFilterWriter$1.class
net/sf/okapi/filters/mosestext/FilterWriterParameters.class
net/sf/okapi/filters/mosestext/MosesTextFilterWriter.class
