/home/ttnd/okapi-priya/okapi/okapi/steps/qualitycheck/src/main/java/net/sf/okapi/steps/localizablechecker/LocalizableCheckerStep.java
/home/ttnd/okapi-priya/okapi/okapi/steps/qualitycheck/src/main/java/net/sf/okapi/steps/patternschecker/Parameters.java
/home/ttnd/okapi-priya/okapi/okapi/steps/qualitycheck/src/main/java/net/sf/okapi/steps/qualitycheck/QualityCheckStep.java
/home/ttnd/okapi-priya/okapi/okapi/steps/qualitycheck/src/main/java/net/sf/okapi/steps/localizablechecker/Parameters.java
/home/ttnd/okapi-priya/okapi/okapi/steps/qualitycheck/src/main/java/net/sf/okapi/steps/generalchecker/GeneralCheckerStep.java
/home/ttnd/okapi-priya/okapi/okapi/steps/qualitycheck/src/main/java/net/sf/okapi/steps/lengthchecker/LengthCheckerStep.java
/home/ttnd/okapi-priya/okapi/okapi/steps/qualitycheck/src/main/java/net/sf/okapi/steps/spacecheck/SpaceCheckStep.java
/home/ttnd/okapi-priya/okapi/okapi/steps/qualitycheck/src/main/java/net/sf/okapi/steps/generalchecker/Parameters.java
/home/ttnd/okapi-priya/okapi/okapi/steps/qualitycheck/src/main/java/net/sf/okapi/steps/patternschecker/PatternsCheckerStep.java
/home/ttnd/okapi-priya/okapi/okapi/steps/qualitycheck/src/main/java/net/sf/okapi/steps/characterschecker/CharactersCheckerStep.java
/home/ttnd/okapi-priya/okapi/okapi/steps/qualitycheck/src/main/java/net/sf/okapi/steps/inlinescodeschecker/InlineCodesCheckerStep.java
/home/ttnd/okapi-priya/okapi/okapi/steps/qualitycheck/src/main/java/net/sf/okapi/steps/inlinescodeschecker/Parameters.java
/home/ttnd/okapi-priya/okapi/okapi/steps/qualitycheck/src/main/java/net/sf/okapi/steps/lengthchecker/Parameters.java
/home/ttnd/okapi-priya/okapi/okapi/steps/qualitycheck/src/main/java/net/sf/okapi/steps/characterschecker/Parameters.java
