/home/ttnd/okapi-priya/okapi/okapi/examples/java/example01/src/main/java/Main.java
/home/ttnd/okapi-priya/okapi/okapi/examples/java/example01/src/main/java/UppercaseStep.java
/home/ttnd/okapi-priya/okapi/okapi/examples/java/example01/src/main/java/PseudoTranslateStep.java
