/home/ttnd/okapi-priya/okapi/okapi/steps/wordcount/src/main/java/net/sf/okapi/steps/wordcount/common/BaseCounter.java
/home/ttnd/okapi-priya/okapi/okapi/steps/wordcount/src/main/java/net/sf/okapi/steps/wordcount/categorized/okapi/ExactTextOnlyPreviousVersionMatchCharacterCountStep.java
/home/ttnd/okapi-priya/okapi/okapi/steps/wordcount/src/main/java/net/sf/okapi/steps/wordcount/categorized/gmx/GMXNumericOnlyTextUnitCharacterCountStep.java
/home/ttnd/okapi-priya/okapi/okapi/steps/wordcount/src/main/java/net/sf/okapi/steps/wordcount/categorized/gmx/GMXAlphanumericOnlyTextUnitCharacterCountStep.java
/home/ttnd/okapi-priya/okapi/okapi/steps/wordcount/src/main/java/net/sf/okapi/steps/wordcount/categorized/okapi/ConcordanceWordCountStep.java
/home/ttnd/okapi-priya/okapi/okapi/steps/wordcount/src/main/java/net/sf/okapi/steps/wordcount/categorized/okapi/ExactLocalContextMatchWordCountStep.java
/home/ttnd/okapi-priya/okapi/okapi/steps/wordcount/src/main/java/net/sf/okapi/steps/wordcount/categorized/okapi/ExactStructuralMatchWordCountStep.java
/home/ttnd/okapi-priya/okapi/okapi/steps/wordcount/src/main/java/net/sf/okapi/steps/wordcount/ParametersSimpleWordCountStep.java
/home/ttnd/okapi-priya/okapi/okapi/steps/wordcount/src/main/java/net/sf/okapi/steps/wordcount/categorized/okapi/MTWordCountStep.java
/home/ttnd/okapi-priya/okapi/okapi/steps/wordcount/src/main/java/net/sf/okapi/steps/wordcount/categorized/okapi/FuzzyPreviousVersionMatchCharacterCountStep.java
/home/ttnd/okapi-priya/okapi/okapi/steps/wordcount/src/main/java/net/sf/okapi/steps/wordcount/categorized/CategoryResolver.java
/home/ttnd/okapi-priya/okapi/okapi/steps/wordcount/src/main/java/net/sf/okapi/steps/wordcount/categorized/okapi/ExactDocumentContextMatchCharacterCountStep.java
/home/ttnd/okapi-priya/okapi/okapi/steps/wordcount/src/main/java/net/sf/okapi/steps/wordcount/categorized/gmx/GMXLeveragedMatchedWordCountStep.java
/home/ttnd/okapi-priya/okapi/okapi/steps/wordcount/src/main/java/net/sf/okapi/steps/wordcount/categorized/okapi/ExactRepairedWordCountStep.java
/home/ttnd/okapi-priya/okapi/okapi/steps/wordcount/src/main/java/net/sf/okapi/steps/wordcount/categorized/okapi/MTCharacterCountStep.java
/home/ttnd/okapi-priya/okapi/okapi/steps/wordcount/src/main/java/net/sf/okapi/steps/wordcount/categorized/gmx/GMXLeveragedMatchedCharacterCountStep.java
/home/ttnd/okapi-priya/okapi/okapi/steps/wordcount/src/main/java/net/sf/okapi/steps/wordcount/categorized/gmx/GMXProtectedCharacterCountStep.java
/home/ttnd/okapi-priya/okapi/okapi/steps/wordcount/src/main/java/net/sf/okapi/steps/wordcount/categorized/gmx/GMXMeasurementOnlyTextUnitCharacterCountStep.java
/home/ttnd/okapi-priya/okapi/okapi/steps/wordcount/src/main/java/net/sf/okapi/steps/wordcount/categorized/okapi/ExactPreviousVersionMatchWordCountStep.java
/home/ttnd/okapi-priya/okapi/okapi/steps/wordcount/src/main/java/net/sf/okapi/steps/wordcount/categorized/okapi/ExactMatchWordCountStep.java
/home/ttnd/okapi-priya/okapi/okapi/steps/wordcount/src/main/java/net/sf/okapi/steps/wordcount/categorized/okapi/ExactMatchCharacterCountStep.java
/home/ttnd/okapi-priya/okapi/okapi/steps/wordcount/src/main/java/net/sf/okapi/steps/wordcount/categorized/gmx/GMXRepetitionMatchedCharacterCountStep.java
/home/ttnd/okapi-priya/okapi/okapi/steps/wordcount/src/main/java/net/sf/okapi/steps/wordcount/SimpleWordCountStep.java
/home/ttnd/okapi-priya/okapi/okapi/steps/wordcount/src/main/java/net/sf/okapi/steps/wordcount/common/TokenCountStep.java
/home/ttnd/okapi-priya/okapi/okapi/steps/wordcount/src/main/java/net/sf/okapi/steps/wordcount/categorized/gmx/GMXProtectedWordCountStep.java
/home/ttnd/okapi-priya/okapi/okapi/steps/wordcount/src/main/java/net/sf/okapi/steps/wordcount/categorized/okapi/ExactTextOnlyUniqueIdMatchCharacterCountStep.java
/home/ttnd/okapi-priya/okapi/okapi/steps/wordcount/src/main/java/net/sf/okapi/steps/wordcount/categorized/CategoryHandler.java
/home/ttnd/okapi-priya/okapi/okapi/steps/wordcount/src/main/java/net/sf/okapi/steps/wordcount/common/AltAnnotationBasedCountStep.java
/home/ttnd/okapi-priya/okapi/okapi/steps/wordcount/src/main/java/net/sf/okapi/steps/wordcount/categorized/gmx/GMXFuzzyMatchWordCountStep.java
/home/ttnd/okapi-priya/okapi/okapi/steps/wordcount/src/main/java/net/sf/okapi/steps/wordcount/categorized/gmx/GMXExactMatchedCharacterCountStep.java
/home/ttnd/okapi-priya/okapi/okapi/steps/wordcount/src/main/java/net/sf/okapi/steps/wordcount/common/Parameters.java
/home/ttnd/okapi-priya/okapi/okapi/steps/wordcount/src/main/java/net/sf/okapi/steps/wordcount/CharacterCounter.java
/home/ttnd/okapi-priya/okapi/okapi/steps/wordcount/src/main/java/net/sf/okapi/steps/wordcount/categorized/gmx/GMXMeasurementOnlyTextUnitWordCountStep.java
/home/ttnd/okapi-priya/okapi/okapi/steps/wordcount/src/main/java/net/sf/okapi/steps/wordcount/categorized/okapi/ConcordanceCharacterCountStep.java
/home/ttnd/okapi-priya/okapi/okapi/steps/wordcount/src/main/java/net/sf/okapi/steps/wordcount/categorized/gmx/GMXFuzzyMatchCharacterCountStep.java
/home/ttnd/okapi-priya/okapi/okapi/steps/wordcount/src/main/java/net/sf/okapi/steps/wordcount/categorized/okapi/FuzzyUniqueIdMatchWordCountStep.java
/home/ttnd/okapi-priya/okapi/okapi/steps/wordcount/src/main/java/net/sf/okapi/steps/wordcount/categorized/okapi/ExactTextOnlyWordCountStep.java
/home/ttnd/okapi-priya/okapi/okapi/steps/wordcount/src/main/java/net/sf/okapi/steps/wordcount/common/BaseCountStep.java
/home/ttnd/okapi-priya/okapi/okapi/steps/wordcount/src/main/java/net/sf/okapi/steps/wordcount/categorized/okapi/FuzzyRepairedWordCountStep.java
/home/ttnd/okapi-priya/okapi/okapi/steps/wordcount/src/main/java/net/sf/okapi/steps/wordcount/categorized/okapi/FuzzyUniqueIdMatchCharacterCountStep.java
/home/ttnd/okapi-priya/okapi/okapi/steps/wordcount/src/main/java/net/sf/okapi/steps/wordcount/categorized/okapi/ExactLocalContextMatchCharacterCountStep.java
/home/ttnd/okapi-priya/okapi/okapi/steps/wordcount/src/main/java/net/sf/okapi/steps/wordcount/common/Metrics.java
/home/ttnd/okapi-priya/okapi/okapi/steps/wordcount/src/main/java/net/sf/okapi/steps/wordcount/categorized/okapi/ExactDocumentContextMatchWordCountStep.java
/home/ttnd/okapi-priya/okapi/okapi/steps/wordcount/src/main/java/net/sf/okapi/steps/wordcount/categorized/okapi/PhraseAssembledCharacterCountStep.java
/home/ttnd/okapi-priya/okapi/okapi/steps/wordcount/src/main/java/net/sf/okapi/steps/wordcount/categorized/okapi/ExactUniqueIdMatchWordCountStep.java
/home/ttnd/okapi-priya/okapi/okapi/steps/wordcount/src/main/java/net/sf/okapi/steps/wordcount/categorized/okapi/ExactTextOnlyUniqueIdMatchWordCountStep.java
/home/ttnd/okapi-priya/okapi/okapi/steps/wordcount/src/main/java/net/sf/okapi/steps/wordcount/categorized/gmx/GMXExactMatchedWordCountStep.java
/home/ttnd/okapi-priya/okapi/okapi/steps/wordcount/src/main/java/net/sf/okapi/steps/wordcount/categorized/gmx/GMXRepetitionMatchedWordCountStep.java
/home/ttnd/okapi-priya/okapi/okapi/steps/wordcount/src/main/java/net/sf/okapi/steps/wordcount/categorized/gmx/GMXNumericOnlyTextUnitWordCountStep.java
/home/ttnd/okapi-priya/okapi/okapi/steps/wordcount/src/main/java/net/sf/okapi/steps/wordcount/categorized/okapi/FuzzyMatchCharacterCountStep.java
/home/ttnd/okapi-priya/okapi/okapi/steps/wordcount/src/main/java/net/sf/okapi/steps/wordcount/categorized/okapi/PhraseAssembledWordCountStep.java
/home/ttnd/okapi-priya/okapi/okapi/steps/wordcount/src/main/java/net/sf/okapi/steps/wordcount/common/MetricsAnnotation.java
/home/ttnd/okapi-priya/okapi/okapi/steps/wordcount/src/main/java/net/sf/okapi/steps/wordcount/categorized/gmx/GMXAlphanumericOnlyTextUnitWordCountStep.java
/home/ttnd/okapi-priya/okapi/okapi/steps/wordcount/src/main/java/net/sf/okapi/steps/wordcount/WordCounter.java
/home/ttnd/okapi-priya/okapi/okapi/steps/wordcount/src/main/java/net/sf/okapi/steps/wordcount/categorized/okapi/FuzzyMatchWordCountStep.java
/home/ttnd/okapi-priya/okapi/okapi/steps/wordcount/src/main/java/net/sf/okapi/steps/wordcount/categorized/okapi/FuzzyPreviousVersionMatchWordCountStep.java
/home/ttnd/okapi-priya/okapi/okapi/steps/wordcount/src/main/java/net/sf/okapi/steps/wordcount/common/GMX.java
/home/ttnd/okapi-priya/okapi/okapi/steps/wordcount/src/main/java/net/sf/okapi/steps/wordcount/categorized/CategoryGroup.java
/home/ttnd/okapi-priya/okapi/okapi/steps/wordcount/src/main/java/net/sf/okapi/steps/wordcount/categorized/okapi/FuzzyRepairedCharacterCountStep.java
/home/ttnd/okapi-priya/okapi/okapi/steps/wordcount/src/main/java/net/sf/okapi/steps/wordcount/categorized/okapi/ExactStructuralMatchCharacterCountStep.java
/home/ttnd/okapi-priya/okapi/okapi/steps/wordcount/src/main/java/net/sf/okapi/steps/wordcount/WordCountStep.java
/home/ttnd/okapi-priya/okapi/okapi/steps/wordcount/src/main/java/net/sf/okapi/steps/wordcount/categorized/okapi/ExactPreviousVersionMatchCharacterCountStep.java
/home/ttnd/okapi-priya/okapi/okapi/steps/wordcount/src/main/java/net/sf/okapi/steps/wordcount/common/StructureParameters.java
/home/ttnd/okapi-priya/okapi/okapi/steps/wordcount/src/main/java/net/sf/okapi/steps/wordcount/categorized/okapi/ExactTextOnlyCharacterCountStep.java
/home/ttnd/okapi-priya/okapi/okapi/steps/wordcount/src/main/java/net/sf/okapi/steps/wordcount/categorized/okapi/ExactUniqueIdMatchCharacterCountStep.java
/home/ttnd/okapi-priya/okapi/okapi/steps/wordcount/src/main/java/net/sf/okapi/steps/wordcount/common/TokenCharacterCountStep.java
/home/ttnd/okapi-priya/okapi/okapi/steps/wordcount/src/main/java/net/sf/okapi/steps/wordcount/categorized/okapi/ExactTextOnlyPreviousVersionMatchWordCountStep.java
/home/ttnd/okapi-priya/okapi/okapi/steps/wordcount/src/main/java/net/sf/okapi/steps/wordcount/CharacterCountStep.java
/home/ttnd/okapi-priya/okapi/okapi/steps/wordcount/src/main/java/net/sf/okapi/steps/wordcount/categorized/okapi/ExactRepairedCharacterCountStep.java
