-------------------------------------------------------------------------------
Test set: net.sf.okapi.filters.html.HtmlConfigurationTest
-------------------------------------------------------------------------------
Tests run: 10, Failures: 0, Errors: 0, Skipped: 0, Time elapsed: 0.326 sec - in net.sf.okapi.filters.html.HtmlConfigurationTest
