-------------------------------------------------------------------------------
Test set: net.sf.okapi.filters.html.HtmlEventTest
-------------------------------------------------------------------------------
Tests run: 19, Failures: 0, Errors: 0, Skipped: 0, Time elapsed: 0.417 sec - in net.sf.okapi.filters.html.HtmlEventTest
