<?xml version="1.0" encoding="UTF-8"?>
<testsuite xmlns:xsi="http://www.w3.org/2001/XMLSchema-instance" xsi:schemaLocation="https://maven.apache.org/surefire/maven-surefire-plugin/xsd/surefire-test-report.xsd" name="net.sf.okapi.filters.html.HtmlSnippetsTest" time="1.047" tests="69" errors="0" skipped="0" failures="0">
  <properties>
    <property name="os.detected.version" value="3.19"/>
    <property name="idea.version" value="2016.1.2"/>
    <property name="java.runtime.name" value="Java(TM) SE Runtime Environment"/>
    <property name="sun.boot.library.path" value="/usr/lib/jvm/java-7-oracle/jre/lib/amd64"/>
    <property name="java.vm.version" value="24.80-b11"/>
    <property name="java.vm.vendor" value="Oracle Corporation"/>
    <property name="java.vendor.url" value="http://java.oracle.com/"/>
    <property name="os.detected.version.minor" value="19"/>
    <property name="path.separator" value=":"/>
    <property name="guice.disable.misplaced.annotation.check" value="true"/>
    <property name="java.vm.name" value="Java HotSpot(TM) 64-Bit Server VM"/>
    <property name="file.encoding.pkg" value="sun.io"/>
    <property name="idea.launcher.port" value="7532"/>
    <property name="user.country" value="IN"/>
    <property name="sun.java.launcher" value="SUN_STANDARD"/>
    <property name="sun.os.patch.level" value="unknown"/>
    <property name="java.vm.specification.name" value="Java Virtual Machine Specification"/>
    <property name="user.dir" value="/home/ttnd/okapi-priya/okapi"/>
    <property name="os.detected.release.like.debian" value="true"/>
    <property name="java.runtime.version" value="1.7.0_80-b15"/>
    <property name="java.awt.graphicsenv" value="sun.awt.X11GraphicsEnvironment"/>
    <property name="java.endorsed.dirs" value="/usr/lib/jvm/java-7-oracle/jre/lib/endorsed"/>
    <property name="os.arch" value="amd64"/>
    <property name="java.io.tmpdir" value="/tmp"/>
    <property name="os.detected.release.version" value="14.04"/>
    <property name="line.separator" value="&#10;"/>
    <property name="java.vm.specification.vendor" value="Oracle Corporation"/>
    <property name="os.detected.version.major" value="3"/>
    <property name="os.name" value="Linux"/>
    <property name="os.detected.classifier" value="linux-x86_64"/>
    <property name="classworlds.conf" value="/home/ttnd/Desktop/software/idea-IU-145.972.3/plugins/maven/lib/maven3/bin/m2.conf"/>
    <property name="sun.jnu.encoding" value="UTF-8"/>
    <property name="java.library.path" value="/home/ttnd/Desktop/software/idea-IU-145.972.3/bin::/usr/java/packages/lib/amd64:/usr/lib64:/lib64:/lib:/usr/lib"/>
    <property name="os.detected.arch" value="x86_64"/>
    <property name="java.class.version" value="51.0"/>
    <property name="java.specification.name" value="Java Platform API Specification"/>
    <property name="sun.management.compiler" value="HotSpot 64-Bit Tiered Compilers"/>
    <property name="os.detected.name" value="linux"/>
    <property name="os.version" value="3.19.0-25-generic"/>
    <property name="user.home" value="/home/ttnd"/>
    <property name="user.timezone" value="Asia/Kolkata"/>
    <property name="java.awt.printerjob" value="sun.print.PSPrinterJob"/>
    <property name="java.specification.version" value="1.7"/>
    <property name="idea.launcher.bin.path" value="/home/ttnd/Desktop/software/idea-IU-145.972.3/bin"/>
    <property name="file.encoding" value="UTF-8"/>
    <property name="os.detected.release" value="ubuntu"/>
    <property name="user.name" value="ttnd"/>
    <property name="java.class.path" value="/home/ttnd/Desktop/software/idea-IU-145.972.3/plugins/maven/lib/maven3/boot/plexus-classworlds-2.4.jar:/home/ttnd/Desktop/software/idea-IU-145.972.3/lib/idea_rt.jar"/>
    <property name="skipITs" value="true"/>
    <property name="java.vm.specification.version" value="1.7"/>
    <property name="sun.arch.data.model" value="64"/>
    <property name="java.home" value="/usr/lib/jvm/java-7-oracle/jre"/>
    <property name="sun.java.command" value="com.intellij.rt.execution.application.AppMain org.codehaus.classworlds.Launcher -Didea.version=2016.1.2 install -q -TC8 -DskipITs"/>
    <property name="java.specification.vendor" value="Oracle Corporation"/>
    <property name="user.language" value="en"/>
    <property name="awt.toolkit" value="sun.awt.X11.XToolkit"/>
    <property name="java.vm.info" value="mixed mode"/>
    <property name="os.detected.release.like.ubuntu" value="true"/>
    <property name="java.version" value="1.7.0_80"/>
    <property name="java.ext.dirs" value="/usr/lib/jvm/java-7-oracle/jre/lib/ext:/usr/java/packages/lib/ext"/>
    <property name="securerandom.source" value="file:/dev/./urandom"/>
    <property name="sun.boot.class.path" value="/usr/lib/jvm/java-7-oracle/jre/lib/resources.jar:/usr/lib/jvm/java-7-oracle/jre/lib/rt.jar:/usr/lib/jvm/java-7-oracle/jre/lib/sunrsasign.jar:/usr/lib/jvm/java-7-oracle/jre/lib/jsse.jar:/usr/lib/jvm/java-7-oracle/jre/lib/jce.jar:/usr/lib/jvm/java-7-oracle/jre/lib/charsets.jar:/usr/lib/jvm/java-7-oracle/jre/lib/jfr.jar:/usr/lib/jvm/java-7-oracle/jre/classes"/>
    <property name="java.vendor" value="Oracle Corporation"/>
    <property name="maven.home" value="/home/ttnd/Desktop/software/idea-IU-145.972.3/plugins/maven/lib/maven3"/>
    <property name="file.separator" value="/"/>
    <property name="java.vendor.url.bug" value="http://bugreport.sun.com/bugreport/"/>
    <property name="sun.cpu.endian" value="little"/>
    <property name="sun.io.unicode.encoding" value="UnicodeLittle"/>
    <property name="sun.desktop" value="gnome"/>
    <property name="sun.cpu.isalist" value=""/>
  </properties>
  <testcase name="testCodeFinder" classname="net.sf.okapi.filters.html.HtmlSnippetsTest" time="0.045"/>
  <testcase name="textWithUnquotedAttribtes" classname="net.sf.okapi.filters.html.HtmlSnippetsTest" time="0.057"/>
  <testcase name="twoITextUnitsInARowNonWellformed" classname="net.sf.okapi.filters.html.HtmlSnippetsTest" time="0.025"/>
  <testcase name="testEmptyGroupAtEnd" classname="net.sf.okapi.filters.html.HtmlSnippetsTest" time="0.02"/>
  <testcase name="testNoExtractValueInInput" classname="net.sf.okapi.filters.html.HtmlSnippetsTest" time="0.013"/>
  <testcase name="testEscapes" classname="net.sf.okapi.filters.html.HtmlSnippetsTest" time="0.02"/>
  <testcase name="testAddingMETAinXHTML" classname="net.sf.okapi.filters.html.HtmlSnippetsTest" time="0.012"/>
  <testcase name="testFreeMarker" classname="net.sf.okapi.filters.html.HtmlSnippetsTest" time="0.011"/>
  <testcase name="testLangUpdate" classname="net.sf.okapi.filters.html.HtmlSnippetsTest" time="0.013"/>
  <testcase name="testCollapseWhitespaceWithoutPre" classname="net.sf.okapi.filters.html.HtmlSnippetsTest" time="0.012"/>
  <testcase name="testPWithInlines" classname="net.sf.okapi.filters.html.HtmlSnippetsTest" time="0.01"/>
  <testcase name="testAltInImg" classname="net.sf.okapi.filters.html.HtmlSnippetsTest" time="0.007"/>
  <testcase name="testPWithInlineTextOnly" classname="net.sf.okapi.filters.html.HtmlSnippetsTest" time="0.011"/>
  <testcase name="testCERinOutput" classname="net.sf.okapi.filters.html.HtmlSnippetsTest" time="0.007"/>
  <testcase name="testASPXEmbeddedTag" classname="net.sf.okapi.filters.html.HtmlSnippetsTest" time="0.012"/>
  <testcase name="ITextUnitsInARowWithTwoHeaders" classname="net.sf.okapi.filters.html.HtmlSnippetsTest" time="0.014"/>
  <testcase name="testInput" classname="net.sf.okapi.filters.html.HtmlSnippetsTest" time="0.013"/>
  <testcase name="testTitleInP" classname="net.sf.okapi.filters.html.HtmlSnippetsTest" time="0.007"/>
  <testcase name="textUnbalancedInlineTag" classname="net.sf.okapi.filters.html.HtmlSnippetsTest" time="0.014"/>
  <testcase name="testHref" classname="net.sf.okapi.filters.html.HtmlSnippetsTest" time="0.01"/>
  <testcase name="testLang" classname="net.sf.okapi.filters.html.HtmlSnippetsTest" time="0.012"/>
  <testcase name="ITextUnitsInARow" classname="net.sf.okapi.filters.html.HtmlSnippetsTest" time="0.012"/>
  <testcase name="testQuoteModeDefault" classname="net.sf.okapi.filters.html.HtmlSnippetsTest" time="0.026"/>
  <testcase name="textOverlapInlineTags" classname="net.sf.okapi.filters.html.HtmlSnippetsTest" time="0.008"/>
  <testcase name="testLabelInOption" classname="net.sf.okapi.filters.html.HtmlSnippetsTest" time="0.005"/>
  <testcase name="testQuoteMode" classname="net.sf.okapi.filters.html.HtmlSnippetsTest" time="0.008"/>
  <testcase name="testCollapseWhitespaceWithPre" classname="net.sf.okapi.filters.html.HtmlSnippetsTest" time="0.014"/>
  <testcase name="testTableGroups" classname="net.sf.okapi.filters.html.HtmlSnippetsTest" time="0.016"/>
  <testcase name="testComplexEmptyElement" classname="net.sf.okapi.filters.html.HtmlSnippetsTest" time="0.033"/>
  <testcase name="testPlaceholderOnlySegments" classname="net.sf.okapi.filters.html.HtmlSnippetsTest" time="0.018"/>
  <testcase name="testEscapedCodesInisdePre" classname="net.sf.okapi.filters.html.HtmlSnippetsTest" time="0.014"/>
  <testcase name="testTagLowerCaseFix" classname="net.sf.okapi.filters.html.HtmlSnippetsTest" time="0.019"/>
  <testcase name="ITextUnitName" classname="net.sf.okapi.filters.html.HtmlSnippetsTest" time="0.01"/>
  <testcase name="testGroupInPara" classname="net.sf.okapi.filters.html.HtmlSnippetsTest" time="0.023"/>
  <testcase name="testHtmlNonWellFormedEmptyTag" classname="net.sf.okapi.filters.html.HtmlSnippetsTest" time="0.011"/>
  <testcase name="testTranslateAttribute" classname="net.sf.okapi.filters.html.HtmlSnippetsTest" time="0.013"/>
  <testcase name="testEscapedEntities" classname="net.sf.okapi.filters.html.HtmlSnippetsTest" time="0.006"/>
  <testcase name="testExtractValueInInput" classname="net.sf.okapi.filters.html.HtmlSnippetsTest" time="0.005"/>
  <testcase name="testTextDirectionClarification[0: &lt;!DOCTYPE html&gt;\n&lt;html dir=&quot;rtl&quot;&gt;\n&lt;body&gt;\n&lt;p&gt;بعض الكلمات&lt;/p&gt;\n&lt;/body&gt;\n&lt;/html&gt;\n, ar, &lt;!DOCTYPE html&gt;\n&lt;html dir=&quot;rtl&quot;&gt;\n&lt;body&gt;\n&lt;p&gt;بعض الكلمات&lt;/p&gt;\n&lt;/body&gt;\n&lt;/html&gt;\n]" classname="net.sf.okapi.filters.html.HtmlSnippetsTest" time="0.011"/>
  <testcase name="testTextDirectionClarification[1: &lt;!DOCTYPE html&gt;\n&lt;html dir=&quot;ltr&quot;&gt;\n&lt;body&gt;\n&lt;p&gt;بعض الكلمات&lt;/p&gt;\n&lt;/body&gt;\n&lt;/html&gt;\n, ar, &lt;!DOCTYPE html&gt;\n&lt;html dir=&quot;rtl&quot;&gt;\n&lt;body&gt;\n&lt;p&gt;بعض الكلمات&lt;/p&gt;\n&lt;/body&gt;\n&lt;/html&gt;\n]" classname="net.sf.okapi.filters.html.HtmlSnippetsTest" time="0.01"/>
  <testcase name="testTextDirectionClarification[2: &lt;!DOCTYPE html&gt;\n&lt;html&gt;\n&lt;body&gt;\n&lt;p&gt;بعض الكلمات&lt;/p&gt;\n&lt;/body&gt;\n&lt;/html&gt;\n, ar, &lt;!DOCTYPE html&gt;\n&lt;html dir=&quot;rtl&quot;&gt;\n&lt;body&gt;\n&lt;p&gt;بعض الكلمات&lt;/p&gt;\n&lt;/body&gt;\n&lt;/html&gt;\n]" classname="net.sf.okapi.filters.html.HtmlSnippetsTest" time="0.013"/>
  <testcase name="testTextDirectionClarification[3: &lt;!DOCTYPE html&gt;\n&lt;html dir=&quot;rtl&quot;&gt;\n&lt;body&gt;\n&lt;p&gt;Some text.&lt;/p&gt;\n&lt;/body&gt;\n&lt;/html&gt;\n, en, &lt;!DOCTYPE html&gt;\n&lt;html&gt;\n&lt;body&gt;\n&lt;p&gt;Some text.&lt;/p&gt;\n&lt;/body&gt;\n&lt;/html&gt;\n]" classname="net.sf.okapi.filters.html.HtmlSnippetsTest" time="0.011"/>
  <testcase name="testTextDirectionClarification[4: &lt;!DOCTYPE html&gt;\n&lt;html dir=&quot;ltr&quot;&gt;\n&lt;body&gt;\n&lt;p&gt;Some text.&lt;/p&gt;\n&lt;/body&gt;\n&lt;/html&gt;\n, en, &lt;!DOCTYPE html&gt;\n&lt;html&gt;\n&lt;body&gt;\n&lt;p&gt;Some text.&lt;/p&gt;\n&lt;/body&gt;\n&lt;/html&gt;\n]" classname="net.sf.okapi.filters.html.HtmlSnippetsTest" time="0.011"/>
  <testcase name="testTextDirectionClarification[5: &lt;!DOCTYPE html&gt;\n&lt;html&gt;\n&lt;body&gt;\n&lt;p&gt;Some text.&lt;/p&gt;\n&lt;/body&gt;\n&lt;/html&gt;\n, en, &lt;!DOCTYPE html&gt;\n&lt;html&gt;\n&lt;body&gt;\n&lt;p&gt;Some text.&lt;/p&gt;\n&lt;/body&gt;\n&lt;/html&gt;\n]" classname="net.sf.okapi.filters.html.HtmlSnippetsTest" time="0.013"/>
  <testcase name="testTextDirectionClarification[6: &lt;!DOCTYPE html&gt;\n&lt;html translate=&quot;no&quot;&gt;\n&lt;body&gt;\n&lt;p&gt;بعض الكلمات&lt;/p&gt;\n&lt;/body&gt;\n&lt;/html&gt;\n, ar, &lt;!DOCTYPE html&gt;\n&lt;html dir=&quot;rtl&quot; translate=&quot;no&quot;&gt;\n&lt;body&gt;\n&lt;p&gt;بعض الكلمات&lt;/p&gt;\n&lt;/body&gt;\n&lt;/html&gt;\n]" classname="net.sf.okapi.filters.html.HtmlSnippetsTest" time="0.012"/>
  <testcase name="testCodeFinderInAttributes" classname="net.sf.okapi.filters.html.HtmlSnippetsTest" time="0.029"/>
  <testcase name="table" classname="net.sf.okapi.filters.html.HtmlSnippetsTest" time="0.014"/>
  <testcase name="testNormalizeNewlinesInPre" classname="net.sf.okapi.filters.html.HtmlSnippetsTest" time="0.012"/>
  <testcase name="ITextUnitStartedWithText" classname="net.sf.okapi.filters.html.HtmlSnippetsTest" time="0.011"/>
  <testcase name="testSupplementalSupport" classname="net.sf.okapi.filters.html.HtmlSnippetsTest" time="0.011"/>
  <testcase name="testPAndInlineAnchorAndAmpersand" classname="net.sf.okapi.filters.html.HtmlSnippetsTest" time="0.012"/>
  <testcase name="testASPXComment" classname="net.sf.okapi.filters.html.HtmlSnippetsTest" time="0.013"/>
  <testcase name="testInlineCodesStorage" classname="net.sf.okapi.filters.html.HtmlSnippetsTest" time="0.008"/>
  <testcase name="testComplexTable" classname="net.sf.okapi.filters.html.HtmlSnippetsTest" time="0.016"/>
  <testcase name="testMETATag1" classname="net.sf.okapi.filters.html.HtmlSnippetsTest" time="0.011"/>
  <testcase name="testMETATag2" classname="net.sf.okapi.filters.html.HtmlSnippetsTest" time="0.011"/>
  <testcase name="testAddingMETAinXML" classname="net.sf.okapi.filters.html.HtmlSnippetsTest" time="0.012"/>
  <testcase name="testAddingMETAinHTML" classname="net.sf.okapi.filters.html.HtmlSnippetsTest" time="0.019"/>
  <testcase name="testNewlineDetection" classname="net.sf.okapi.filters.html.HtmlSnippetsTest" time="0.009"/>
  <testcase name="testMultipleMETA" classname="net.sf.okapi.filters.html.HtmlSnippetsTest" time="0.008"/>
  <testcase name="testInlineAnchorAndAmpersand" classname="net.sf.okapi.filters.html.HtmlSnippetsTest" time="0.011"/>
  <testcase name="testDivBlockTranslateAttribute" classname="net.sf.okapi.filters.html.HtmlSnippetsTest" time="0.018"/>
  <testcase name="testCdataSection" classname="net.sf.okapi.filters.html.HtmlSnippetsTest" time="0.024"/>
  <testcase name="testMultilangUpdate" classname="net.sf.okapi.filters.html.HtmlSnippetsTest" time="0.021"/>
  <testcase name="testPWithAttributes" classname="net.sf.okapi.filters.html.HtmlSnippetsTest" time="0.018"/>
  <testcase name="testSimpleSupplementalSupport" classname="net.sf.okapi.filters.html.HtmlSnippetsTest" time="0.011"/>
  <testcase name="testInlineCdata" classname="net.sf.okapi.filters.html.HtmlSnippetsTest" time="0.008"/>
  <testcase name="twoITextUnitsInARowNonWellformedWithNonWellFromedConfig" classname="net.sf.okapi.filters.html.HtmlSnippetsTest" time="0.012"/>
  <testcase name="testPWithInlines2" classname="net.sf.okapi.filters.html.HtmlSnippetsTest" time="0.011"/>
</testsuite>