/home/ttnd/okapi-priya/okapi/okapi/steps/termextraction/src/main/java/net/sf/okapi/steps/termextraction/Parameters.java
/home/ttnd/okapi-priya/okapi/okapi/steps/termextraction/src/main/java/net/sf/okapi/steps/termextraction/SimpleTermExtractor.java
/home/ttnd/okapi-priya/okapi/okapi/steps/termextraction/src/main/java/net/sf/okapi/steps/termextraction/TermExtractionStep.java
