-------------------------------------------------------------------------------
Test set: net.sf.okapi.applications.tikal.TikalTest
-------------------------------------------------------------------------------
Tests run: 30, Failures: 0, Errors: 0, Skipped: 0, Time elapsed: 93.926 sec - in net.sf.okapi.applications.tikal.TikalTest
