<?xml version="1.0" encoding="UTF-8"?>
<testsuite xmlns:xsi="http://www.w3.org/2001/XMLSchema-instance" xsi:schemaLocation="https://maven.apache.org/surefire/maven-surefire-plugin/xsd/surefire-test-report.xsd" name="net.sf.okapi.filters.ttx.TTXFilterTest" time="10.46" tests="53" errors="0" skipped="0" failures="0">
  <properties>
    <property name="os.detected.version" value="3.19"/>
    <property name="idea.version" value="2016.1.2"/>
    <property name="java.runtime.name" value="Java(TM) SE Runtime Environment"/>
    <property name="sun.boot.library.path" value="/usr/lib/jvm/java-7-oracle/jre/lib/amd64"/>
    <property name="java.vm.version" value="24.80-b11"/>
    <property name="java.vm.vendor" value="Oracle Corporation"/>
    <property name="java.vendor.url" value="http://java.oracle.com/"/>
    <property name="os.detected.version.minor" value="19"/>
    <property name="path.separator" value=":"/>
    <property name="guice.disable.misplaced.annotation.check" value="true"/>
    <property name="java.vm.name" value="Java HotSpot(TM) 64-Bit Server VM"/>
    <property name="file.encoding.pkg" value="sun.io"/>
    <property name="idea.launcher.port" value="7532"/>
    <property name="user.country" value="IN"/>
    <property name="sun.java.launcher" value="SUN_STANDARD"/>
    <property name="sun.os.patch.level" value="unknown"/>
    <property name="java.vm.specification.name" value="Java Virtual Machine Specification"/>
    <property name="user.dir" value="/home/ttnd/okapi-priya/okapi"/>
    <property name="os.detected.release.like.debian" value="true"/>
    <property name="java.runtime.version" value="1.7.0_80-b15"/>
    <property name="java.awt.graphicsenv" value="sun.awt.X11GraphicsEnvironment"/>
    <property name="java.endorsed.dirs" value="/usr/lib/jvm/java-7-oracle/jre/lib/endorsed"/>
    <property name="os.arch" value="amd64"/>
    <property name="java.io.tmpdir" value="/tmp"/>
    <property name="os.detected.release.version" value="14.04"/>
    <property name="line.separator" value="&#10;"/>
    <property name="java.vm.specification.vendor" value="Oracle Corporation"/>
    <property name="os.detected.version.major" value="3"/>
    <property name="os.name" value="Linux"/>
    <property name="os.detected.classifier" value="linux-x86_64"/>
    <property name="classworlds.conf" value="/home/ttnd/Desktop/software/idea-IU-145.972.3/plugins/maven/lib/maven3/bin/m2.conf"/>
    <property name="sun.jnu.encoding" value="UTF-8"/>
    <property name="java.library.path" value="/home/ttnd/Desktop/software/idea-IU-145.972.3/bin::/usr/java/packages/lib/amd64:/usr/lib64:/lib64:/lib:/usr/lib"/>
    <property name="os.detected.arch" value="x86_64"/>
    <property name="java.class.version" value="51.0"/>
    <property name="java.specification.name" value="Java Platform API Specification"/>
    <property name="sun.management.compiler" value="HotSpot 64-Bit Tiered Compilers"/>
    <property name="os.detected.name" value="linux"/>
    <property name="os.version" value="3.19.0-25-generic"/>
    <property name="user.home" value="/home/ttnd"/>
    <property name="user.timezone" value="Asia/Kolkata"/>
    <property name="java.awt.printerjob" value="sun.print.PSPrinterJob"/>
    <property name="java.specification.version" value="1.7"/>
    <property name="idea.launcher.bin.path" value="/home/ttnd/Desktop/software/idea-IU-145.972.3/bin"/>
    <property name="file.encoding" value="UTF-8"/>
    <property name="os.detected.release" value="ubuntu"/>
    <property name="user.name" value="ttnd"/>
    <property name="java.class.path" value="/home/ttnd/Desktop/software/idea-IU-145.972.3/plugins/maven/lib/maven3/boot/plexus-classworlds-2.4.jar:/home/ttnd/Desktop/software/idea-IU-145.972.3/lib/idea_rt.jar"/>
    <property name="skipITs" value="true"/>
    <property name="java.vm.specification.version" value="1.7"/>
    <property name="sun.arch.data.model" value="64"/>
    <property name="java.home" value="/usr/lib/jvm/java-7-oracle/jre"/>
    <property name="sun.java.command" value="com.intellij.rt.execution.application.AppMain org.codehaus.classworlds.Launcher -Didea.version=2016.1.2 install -q -TC8 -DskipITs"/>
    <property name="java.specification.vendor" value="Oracle Corporation"/>
    <property name="user.language" value="en"/>
    <property name="awt.toolkit" value="sun.awt.X11.XToolkit"/>
    <property name="java.vm.info" value="mixed mode"/>
    <property name="os.detected.release.like.ubuntu" value="true"/>
    <property name="java.version" value="1.7.0_80"/>
    <property name="java.ext.dirs" value="/usr/lib/jvm/java-7-oracle/jre/lib/ext:/usr/java/packages/lib/ext"/>
    <property name="securerandom.source" value="file:/dev/./urandom"/>
    <property name="sun.boot.class.path" value="/usr/lib/jvm/java-7-oracle/jre/lib/resources.jar:/usr/lib/jvm/java-7-oracle/jre/lib/rt.jar:/usr/lib/jvm/java-7-oracle/jre/lib/sunrsasign.jar:/usr/lib/jvm/java-7-oracle/jre/lib/jsse.jar:/usr/lib/jvm/java-7-oracle/jre/lib/jce.jar:/usr/lib/jvm/java-7-oracle/jre/lib/charsets.jar:/usr/lib/jvm/java-7-oracle/jre/lib/jfr.jar:/usr/lib/jvm/java-7-oracle/jre/classes"/>
    <property name="java.vendor" value="Oracle Corporation"/>
    <property name="maven.home" value="/home/ttnd/Desktop/software/idea-IU-145.972.3/plugins/maven/lib/maven3"/>
    <property name="file.separator" value="/"/>
    <property name="java.vendor.url.bug" value="http://bugreport.sun.com/bugreport/"/>
    <property name="sun.cpu.endian" value="little"/>
    <property name="sun.io.unicode.encoding" value="UnicodeLittle"/>
    <property name="sun.desktop" value="gnome"/>
    <property name="sun.cpu.isalist" value=""/>
  </properties>
  <testcase name="testOutputForExternalDFwithSegmentation" classname="net.sf.okapi.filters.ttx.TTXFilterTest" time="1.834"/>
  <testcase name="testBasicTwoSegInOneTextUnit" classname="net.sf.okapi.filters.ttx.TTXFilterTest" time="0.099"/>
  <testcase name="testPartiallySegmentedEntryNothingTranslatable" classname="net.sf.okapi.filters.ttx.TTXFilterTest" time="0.051"/>
  <testcase name="testNoTUContentWithUT" classname="net.sf.okapi.filters.ttx.TTXFilterTest" time="0.084"/>
  <testcase name="testNotSegmentedWithLeadingWS" classname="net.sf.okapi.filters.ttx.TTXFilterTest" time="0.114"/>
  <testcase name="testOutputForTwoTUsWithSegmentation" classname="net.sf.okapi.filters.ttx.TTXFilterTest" time="0.042"/>
  <testcase name="testNoTUEndsWithUT" classname="net.sf.okapi.filters.ttx.TTXFilterTest" time="0.049"/>
  <testcase name="testOutputWithMixedSegmentation" classname="net.sf.okapi.filters.ttx.TTXFilterTest" time="2.76"/>
  <testcase name="testBasicWithEscapes" classname="net.sf.okapi.filters.ttx.TTXFilterTest" time="0"/>
  <testcase name="testOutputTwoTU" classname="net.sf.okapi.filters.ttx.TTXFilterTest" time="0"/>
  <testcase name="testSegmentedAndNot" classname="net.sf.okapi.filters.ttx.TTXFilterTest" time="0"/>
  <testcase name="testNotSegmentedWithDFAndCodes" classname="net.sf.okapi.filters.ttx.TTXFilterTest" time="0"/>
  <testcase name="testBasicWithUT" classname="net.sf.okapi.filters.ttx.TTXFilterTest" time="0"/>
  <testcase name="testOutputBasicNoTUWithDFWithSegementation" classname="net.sf.okapi.filters.ttx.TTXFilterTest" time="0"/>
  <testcase name="testOutputNotSegmentedWithDF_ForcingOutSeg" classname="net.sf.okapi.filters.ttx.TTXFilterTest" time="0"/>
  <testcase name="testOutputNoTUContentWithUTWithSegmentation" classname="net.sf.okapi.filters.ttx.TTXFilterTest" time="0"/>
  <testcase name="testStartingExtraDF" classname="net.sf.okapi.filters.ttx.TTXFilterTest" time="0"/>
  <testcase name="testOutputBasicNoTUWithSegmentation" classname="net.sf.okapi.filters.ttx.TTXFilterTest" time="0"/>
  <testcase name="testBasicNoTU" classname="net.sf.okapi.filters.ttx.TTXFilterTest" time="0"/>
  <testcase name="testBasicNoUT" classname="net.sf.okapi.filters.ttx.TTXFilterTest" time="0"/>
  <testcase name="testOutputSimpleGTEscaped" classname="net.sf.okapi.filters.ttx.TTXFilterTest" time="0"/>
  <testcase name="testBasicNoTUWithDF" classname="net.sf.okapi.filters.ttx.TTXFilterTest" time="0"/>
  <testcase name="testNotSegmentedWithDF" classname="net.sf.okapi.filters.ttx.TTXFilterTest" time="0"/>
  <testcase name="testSegmentedSurroundedByDF" classname="net.sf.okapi.filters.ttx.TTXFilterTest" time="0"/>
  <testcase name="testDoubleExtraction" classname="net.sf.okapi.filters.ttx.TTXFilterTest" time="2.268"/>
  <testcase name="testPartiallySegmentedEntry" classname="net.sf.okapi.filters.ttx.TTXFilterTest" time="0.068"/>
  <testcase name="testVariousTagsWithSegmentation" classname="net.sf.okapi.filters.ttx.TTXFilterTest" time="0.061"/>
  <testcase name="testOutputBasicTwoSegInOneTextUnit" classname="net.sf.okapi.filters.ttx.TTXFilterTest" time="0.027"/>
  <testcase name="testBasicNoExtractableData" classname="net.sf.okapi.filters.ttx.TTXFilterTest" time="0.131"/>
  <testcase name="testOutputNotSegmentedWithLeadingWS" classname="net.sf.okapi.filters.ttx.TTXFilterTest" time="0"/>
  <testcase name="testOutputBasicWithEscapes" classname="net.sf.okapi.filters.ttx.TTXFilterTest" time="0"/>
  <testcase name="testOutputPartiallySegmentedEntryAfter" classname="net.sf.okapi.filters.ttx.TTXFilterTest" time="0"/>
  <testcase name="testOutputNoExtractableData" classname="net.sf.okapi.filters.ttx.TTXFilterTest" time="0.056"/>
  <testcase name="testOutputStartingExtraDFWithSegmentation" classname="net.sf.okapi.filters.ttx.TTXFilterTest" time="0.033"/>
  <testcase name="testOutputVariousTagsWithSegmentation" classname="net.sf.okapi.filters.ttx.TTXFilterTest" time="0.028"/>
  <testcase name="testForExternalDF" classname="net.sf.okapi.filters.ttx.TTXFilterTest" time="0.024"/>
  <testcase name="testPartiallySegmentedEntryAfter" classname="net.sf.okapi.filters.ttx.TTXFilterTest" time="0.003"/>
  <testcase name="testOutputSimple" classname="net.sf.okapi.filters.ttx.TTXFilterTest" time="0.027"/>
  <testcase name="testOutputTUInfo" classname="net.sf.okapi.filters.ttx.TTXFilterTest" time="0.012"/>
  <testcase name="testSegmentedSurroundedByInternalCodes" classname="net.sf.okapi.filters.ttx.TTXFilterTest" time="0.004"/>
  <testcase name="testWithMixedSegmentation" classname="net.sf.okapi.filters.ttx.TTXFilterTest" time="0.064"/>
  <testcase name="testOutputEscapesInSkeleton" classname="net.sf.okapi.filters.ttx.TTXFilterTest" time="0.023"/>
  <testcase name="testTUInfoXU" classname="net.sf.okapi.filters.ttx.TTXFilterTest" time="0.002"/>
  <testcase name="testWithPINoTU" classname="net.sf.okapi.filters.ttx.TTXFilterTest" time="0.018"/>
  <testcase name="textDoubleExtractionOriginalAllSegmented" classname="net.sf.okapi.filters.ttx.TTXFilterTest" time="1.353"/>
  <testcase name="testOutputSegmentedSurroundedByDF" classname="net.sf.okapi.filters.ttx.TTXFilterTest" time="0.02"/>
  <testcase name="testLargePartiallySegmentedEntry" classname="net.sf.okapi.filters.ttx.TTXFilterTest" time="0.046"/>
  <testcase name="testTUInfo" classname="net.sf.okapi.filters.ttx.TTXFilterTest" time="0.015"/>
  <testcase name="testVariousTags" classname="net.sf.okapi.filters.ttx.TTXFilterTest" time="0.025"/>
  <testcase name="testForTwoTUs" classname="net.sf.okapi.filters.ttx.TTXFilterTest" time="0.023"/>
  <testcase name="testOutputWithOriginalWithoutTraget" classname="net.sf.okapi.filters.ttx.TTXFilterTest" time="0"/>
  <testcase name="testNoTUContentWithSplitStart" classname="net.sf.okapi.filters.ttx.TTXFilterTest" time="0.01"/>
  <testcase name="testOutputWithPINoTUWithSegmentation" classname="net.sf.okapi.filters.ttx.TTXFilterTest" time="0.046"/>
</testsuite>