net/sf/okapi/steps/segmentation/ui/ParametersEditor.class
net/sf/okapi/steps/segmentation/ui/ParametersEditor$4.class
net/sf/okapi/steps/segmentation/ui/ParametersEditor$1.class
net/sf/okapi/steps/segmentation/ui/ParametersEditor$5.class
net/sf/okapi/steps/segmentation/ui/ParametersEditor$6.class
net/sf/okapi/steps/segmentation/ui/ParametersEditor$3.class
net/sf/okapi/steps/segmentation/ui/ParametersEditor$2.class
net/sf/okapi/steps/segmentation/ui/ParametersEditor$7.class
