-------------------------------------------------------------------------------
Test set: net.sf.okapi.common.filterwriter.XLIFFContentTest
-------------------------------------------------------------------------------
Tests run: 11, Failures: 0, Errors: 0, Skipped: 0, Time elapsed: 0.014 sec - in net.sf.okapi.common.filterwriter.XLIFFContentTest
