-------------------------------------------------------------------------------
Test set: net.sf.okapi.common.skeleton.GenericSkeletonWriterTest
-------------------------------------------------------------------------------
Tests run: 10, Failures: 0, Errors: 0, Skipped: 0, Time elapsed: 0.008 sec - in net.sf.okapi.common.skeleton.GenericSkeletonWriterTest
