-------------------------------------------------------------------------------
Test set: net.sf.okapi.common.ParametersTest
-------------------------------------------------------------------------------
Tests run: 12, Failures: 0, Errors: 0, Skipped: 0, Time elapsed: 0.021 sec - in net.sf.okapi.common.ParametersTest
