-------------------------------------------------------------------------------
Test set: net.sf.okapi.common.DefaultFilenameFilterTest
-------------------------------------------------------------------------------
Tests run: 8, Failures: 0, Errors: 0, Skipped: 0, Time elapsed: 0.009 sec - in net.sf.okapi.common.DefaultFilenameFilterTest
