-------------------------------------------------------------------------------
Test set: net.sf.okapi.common.annotation.TermsAnnotationTest
-------------------------------------------------------------------------------
Tests run: 2, Failures: 0, Errors: 0, Skipped: 0, Time elapsed: 0 sec - in net.sf.okapi.common.annotation.TermsAnnotationTest
