-------------------------------------------------------------------------------
Test set: net.sf.okapi.common.LCIDUtilTest
-------------------------------------------------------------------------------
Tests run: 2, Failures: 0, Errors: 0, Skipped: 0, Time elapsed: 0.019 sec - in net.sf.okapi.common.LCIDUtilTest
