-------------------------------------------------------------------------------
Test set: net.sf.okapi.common.encoder.EncodersTest
-------------------------------------------------------------------------------
Tests run: 8, Failures: 0, Errors: 0, Skipped: 0, Time elapsed: 0.008 sec - in net.sf.okapi.common.encoder.EncodersTest
