-------------------------------------------------------------------------------
Test set: net.sf.okapi.common.filters.FilterConfigurationTest
-------------------------------------------------------------------------------
Tests run: 13, Failures: 0, Errors: 0, Skipped: 0, Time elapsed: 0.015 sec - in net.sf.okapi.common.filters.FilterConfigurationTest
