-------------------------------------------------------------------------------
Test set: net.sf.okapi.common.ListUtilTest
-------------------------------------------------------------------------------
Tests run: 7, Failures: 0, Errors: 0, Skipped: 0, Time elapsed: 0.001 sec - in net.sf.okapi.common.ListUtilTest
