-------------------------------------------------------------------------------
Test set: net.sf.okapi.common.query.QueryResultTest
-------------------------------------------------------------------------------
Tests run: 17, Failures: 0, Errors: 0, Skipped: 0, Time elapsed: 0.003 sec - in net.sf.okapi.common.query.QueryResultTest
