-------------------------------------------------------------------------------
Test set: net.sf.okapi.common.LocaleIdTest
-------------------------------------------------------------------------------
Tests run: 41, Failures: 0, Errors: 0, Skipped: 0, Time elapsed: 0.016 sec - in net.sf.okapi.common.LocaleIdTest
