net/sf/okapi/filters/abstractmarkup/ui/Editor$19.class
net/sf/okapi/filters/abstractmarkup/ui/Editor$5.class
net/sf/okapi/filters/abstractmarkup/ui/ConditionsDialog$1.class
net/sf/okapi/filters/abstractmarkup/ui/Editor$11.class
net/sf/okapi/filters/abstractmarkup/ui/ConditionsDialog$3.class
net/sf/okapi/filters/abstractmarkup/ui/Editor$14.class
net/sf/okapi/filters/abstractmarkup/ui/Editor$4.class
net/sf/okapi/filters/abstractmarkup/ui/Editor$17.class
net/sf/okapi/filters/abstractmarkup/ui/ConditionsDialog$6.class
net/sf/okapi/filters/abstractmarkup/ui/Editor$7.class
net/sf/okapi/filters/abstractmarkup/ui/ConditionsDialog$5.class
net/sf/okapi/filters/abstractmarkup/ui/Editor$16.class
net/sf/okapi/filters/abstractmarkup/ui/ConditionsDialog.class
net/sf/okapi/filters/abstractmarkup/ui/Editor.class
net/sf/okapi/filters/abstractmarkup/ui/Editor$10.class
net/sf/okapi/filters/abstractmarkup/ui/Editor$6.class
net/sf/okapi/filters/abstractmarkup/ui/Editor$15.class
net/sf/okapi/filters/abstractmarkup/ui/ConditionsDialog$4.class
net/sf/okapi/filters/abstractmarkup/ui/Condition.class
net/sf/okapi/filters/abstractmarkup/ui/Editor$12.class
net/sf/okapi/filters/abstractmarkup/ui/Attribute.class
net/sf/okapi/filters/abstractmarkup/ui/Editor$18.class
net/sf/okapi/filters/abstractmarkup/ui/Editor$2.class
net/sf/okapi/filters/abstractmarkup/ui/Editor$13.class
net/sf/okapi/filters/abstractmarkup/ui/Editor$1.class
net/sf/okapi/filters/abstractmarkup/ui/Element.class
net/sf/okapi/filters/abstractmarkup/ui/Editor$8.class
net/sf/okapi/filters/abstractmarkup/ui/Editor$9.class
net/sf/okapi/filters/abstractmarkup/ui/Editor$3.class
net/sf/okapi/filters/abstractmarkup/ui/ConditionsDialog$2.class
