net/sf/okapi/filters/xmlstream/XmlStreamEventTest.class
net/sf/okapi/filters/xmlstream/XmlSnippetsTest.class
net/sf/okapi/filters/xmlstream/XmlStreamConfigurationSupportTest.class
net/sf/okapi/filters/xmlstream/XmlStreamSubfilterTest.class
net/sf/okapi/filters/xmlstream/integration/XmlStreamTestUtils$1.class
net/sf/okapi/filters/xmlstream/integration/XmlStreamTestUtils.class
net/sf/okapi/filters/xmlstream/integration/DitaExtractionComparisionTest.class
net/sf/okapi/filters/xmlstream/integration/PropertyXmlExtractionComparisionTest.class
net/sf/okapi/filters/xmlstream/integration/PropertyXmlExtractionComparisionTest$1.class
net/sf/okapi/filters/xmlstream/integration/CdataSubfilterWithRegexTest.class
net/sf/okapi/filters/xmlstream/integration/PIExtractionTest.class
net/sf/okapi/filters/xmlstream/integration/PCdataSubfilterTest.class
net/sf/okapi/filters/xmlstream/XmlStreamConfigurationTest.class
net/sf/okapi/filters/xmlstream/integration/DocTypeExtractionTest.class
net/sf/okapi/filters/xmlstream/integration/DitaExtractionComparisionTest$1.class
net/sf/okapi/filters/xmlstream/integration/XmlStreamTestUtils$2.class
