/home/ttnd/okapi-priya/okapi/okapi/steps/xliffkit/src/main/java/net/sf/okapi/steps/xliffkit/codec/ICodec.java
/home/ttnd/okapi-priya/okapi/okapi/steps/xliffkit/src/main/java/net/sf/okapi/steps/xliffkit/codec/CodecUtil.java
/home/ttnd/okapi-priya/okapi/okapi/steps/xliffkit/src/main/java/net/sf/okapi/steps/xliffkit/writer/XLIFFKitWriterStep.java
/home/ttnd/okapi-priya/okapi/okapi/steps/xliffkit/src/main/java/net/sf/okapi/steps/xliffkit/codec/BaseCodec.java
/home/ttnd/okapi-priya/okapi/okapi/steps/xliffkit/src/main/java/net/sf/okapi/steps/xliffkit/codec/DummyEncoder.java
/home/ttnd/okapi-priya/okapi/okapi/steps/xliffkit/src/main/java/net/sf/okapi/steps/xliffkit/opc/OPCPackageReader.java
/home/ttnd/okapi-priya/okapi/okapi/steps/xliffkit/src/main/java/net/sf/okapi/steps/xliffkit/codec/BasePackageCodec.java
/home/ttnd/okapi-priya/okapi/okapi/steps/xliffkit/src/main/java/net/sf/okapi/steps/xliffkit/reader/Parameters.java
/home/ttnd/okapi-priya/okapi/okapi/steps/xliffkit/src/main/java/net/sf/okapi/steps/xliffkit/opc/TKitRelationshipTypes.java
/home/ttnd/okapi-priya/okapi/okapi/steps/xliffkit/src/main/java/net/sf/okapi/steps/xliffkit/codec/PackageHexCodec.java
/home/ttnd/okapi-priya/okapi/okapi/steps/xliffkit/src/main/java/net/sf/okapi/steps/xliffkit/writer/Parameters.java
/home/ttnd/okapi-priya/okapi/okapi/steps/xliffkit/src/main/java/net/sf/okapi/steps/xliffkit/codec/PackageEscCodec.java
/home/ttnd/okapi-priya/okapi/okapi/steps/xliffkit/src/main/java/net/sf/okapi/steps/xliffkit/reader/XLIFFKitReaderStep.java
/home/ttnd/okapi-priya/okapi/okapi/steps/xliffkit/src/main/java/net/sf/okapi/steps/xliffkit/codec/PackageOfsCodec.java
/home/ttnd/okapi-priya/okapi/okapi/steps/xliffkit/src/main/java/net/sf/okapi/steps/xliffkit/codec/PackageSymCodec.java
/home/ttnd/okapi-priya/okapi/okapi/steps/xliffkit/src/main/java/net/sf/okapi/steps/xliffkit/opc/OPCPackageUtil.java
