net/sf/okapi/lib/beans/v1/StartDocumentBean.class
net/sf/okapi/lib/beans/v2/TextUnitBean.class
net/sf/okapi/lib/beans/v0/JSONPersistenceSession.class
net/sf/okapi/lib/beans/wiki/TestClass.class
net/sf/okapi/lib/beans/v0/SegmentBean.class
net/sf/okapi/lib/beans/v1/TokensAnnotationBean.class
net/sf/okapi/lib/beans/wiki/OkapiBeansVersion1.class
net/sf/okapi/lib/beans/v1/CodeBean.class
net/sf/okapi/lib/beans/v2/GenericSkeletonWriterBean.class
net/sf/okapi/lib/beans/v0/RawDocumentBean.class
net/sf/okapi/lib/beans/v1/AltTranslationBean.class
net/sf/okapi/lib/beans/v0/InlineAnnotationBean.class
net/sf/okapi/lib/beans/v1/ParametersBean.class
net/sf/okapi/lib/beans/v1/InputTokenAnnotationBean.class
net/sf/okapi/lib/beans/v0/BaseNameableBean.class
net/sf/okapi/lib/beans/v0/EventBean.class
net/sf/okapi/lib/beans/v1/ZipFilterWriterBean.class
net/sf/okapi/lib/beans/v1/StartSubDocumentBean.class
net/sf/okapi/lib/beans/v1/ZipFileBean$1.class
net/sf/okapi/lib/beans/v1/EndingBean.class
net/sf/okapi/lib/beans/v0/StartDocumentBean.class
net/sf/okapi/lib/beans/v0/TextUnitBean.class
net/sf/okapi/lib/beans/v1/AltTranslationsAnnotationBean.class
net/sf/okapi/lib/beans/v2/GenericFilterWriterBean.class
net/sf/okapi/lib/beans/v0/IPersistenceBean.class
net/sf/okapi/lib/beans/v1/AnnotationsBean.class
net/sf/okapi/lib/beans/v1/MetricsAnnotationBean.class
net/sf/okapi/lib/beans/v2/ITSProvenanceBean.class
net/sf/okapi/lib/beans/v0/TypeInfoBean.class
net/sf/okapi/lib/beans/sessions/OkapiJsonSession$JSONStringEncoder.class
net/sf/okapi/lib/beans/v2/OkapiBeans2.class
net/sf/okapi/lib/beans/v1/TextFragmentBean.class
net/sf/okapi/lib/beans/sessions/OkapiXmlSession.class
net/sf/okapi/lib/beans/v1/ConditionalParametersBean.class
net/sf/okapi/lib/beans/v0/StartSubDocumentBean.class
net/sf/okapi/lib/beans/v1/DocumentBean.class
net/sf/okapi/lib/beans/wiki/TestBean.class
net/sf/okapi/lib/beans/v0/TestEventBean.class
net/sf/okapi/lib/beans/v2/CharsetBean.class
net/sf/okapi/lib/beans/v0/GenericSkeletonPartBean.class
net/sf/okapi/lib/beans/v0/ZipSkeletonBean.class
net/sf/okapi/lib/beans/v1/DocumentPartBean.class
net/sf/okapi/lib/beans/v1/GenericSkeletonBean.class
net/sf/okapi/lib/beans/v1/LocaleIdBean.class
net/sf/okapi/lib/beans/v1/ZipEntryBean.class
net/sf/okapi/lib/beans/v1/TextUnitBean.class
net/sf/okapi/lib/beans/v2/InlineAnnotationBean.class
net/sf/okapi/lib/beans/v1/StartSubfilterBean.class
net/sf/okapi/lib/beans/v1/StartGroupBean.class
net/sf/okapi/lib/beans/v2/ITSStandoffManagerBean.class
net/sf/okapi/lib/beans/v2/IDMLSkeletonBean$1.class
net/sf/okapi/lib/beans/v2/VariantSourcesBean.class
net/sf/okapi/lib/beans/v1/TokenBean.class
net/sf/okapi/lib/beans/v0/StartGroupBean.class
net/sf/okapi/lib/beans/v1/RangeBean.class
net/sf/okapi/lib/beans/v2/ITSLQIBean.class
net/sf/okapi/lib/beans/v1/RepetitiveSegmentAnnotationBean.class
net/sf/okapi/lib/beans/v2/ITSLQICollectionBean.class
net/sf/okapi/lib/beans/v0/TestEventBean2.class
net/sf/okapi/lib/beans/v1/SegmentInfoBean.class
net/sf/okapi/lib/beans/sessions/OkapiJsonSession.class
net/sf/okapi/lib/beans/v1/GenericFilterWriterBean.class
net/sf/okapi/lib/beans/v1/XLIFFToolBean.class
net/sf/okapi/lib/beans/v2/IDMLSkeletonBean.class
net/sf/okapi/lib/beans/v2/CharsetEncoderBean.class
net/sf/okapi/lib/beans/v1/ZipFileBean.class
net/sf/okapi/lib/beans/v0/JSONObjectConverter.class
net/sf/okapi/lib/beans/v2/ZipFilterWriterBean.class
net/sf/okapi/lib/beans/v2/XLIFFSkeletonWriterBean.class
net/sf/okapi/lib/beans/v0/ParametersBean.class
net/sf/okapi/lib/beans/v1/TextContainerBean.class
net/sf/okapi/lib/beans/v0/PropertyBean.class
net/sf/okapi/lib/beans/v0/TestEvent.class
net/sf/okapi/lib/beans/v1/TMXFilterWriterBean.class
net/sf/okapi/lib/beans/v0/IPersistenceSession.class
net/sf/okapi/lib/beans/v2/AlignedSegmentsBean.class
net/sf/okapi/lib/beans/v1/MultiEventBean.class
net/sf/okapi/lib/beans/v1/RawDocumentBean.class
net/sf/okapi/lib/beans/v0/MultiEventBean.class
net/sf/okapi/lib/beans/v1/AltTransBean.class
net/sf/okapi/lib/beans/v0/TextFragmentBean.class
net/sf/okapi/lib/beans/wiki/XMLPersistenceSession.class
net/sf/okapi/lib/beans/v2/IssueAnnotationBean.class
net/sf/okapi/lib/beans/v2/GenericAnnotationBean.class
net/sf/okapi/lib/beans/v2/IITSDataStoreBean.class
net/sf/okapi/lib/beans/v2/ITSParametersBean.class
net/sf/okapi/lib/beans/v2/ITSContentBean.class
net/sf/okapi/lib/beans/v1/SegmentBean.class
net/sf/okapi/lib/beans/v0/PersistenceMapper.class
net/sf/okapi/lib/beans/v2/TextContainerBean.class
net/sf/okapi/lib/beans/v0/EndingBean.class
net/sf/okapi/lib/beans/v1/TextPartBean.class
net/sf/okapi/lib/beans/v1/ZipSkeletonBean.class
net/sf/okapi/lib/beans/v2/EncoderBean.class
net/sf/okapi/lib/beans/v2/SegmentsBean.class
net/sf/okapi/lib/beans/v2/SubFilterSkeletonWriterBean.class
net/sf/okapi/lib/beans/v1/GenericSkeletonPartBean.class
net/sf/okapi/lib/beans/sessions/OkapiXstreamSession.class
net/sf/okapi/lib/beans/v1/TargetPropertiesAnnotationBean.class
net/sf/okapi/lib/beans/v2/IDMLFilterWriterBean.class
net/sf/okapi/lib/beans/v0/GenericSkeletonBean.class
net/sf/okapi/lib/beans/wiki/TestClassBean.class
net/sf/okapi/lib/beans/v1/LexemBean.class
net/sf/okapi/lib/beans/v0/BaseReferenceableBean.class
net/sf/okapi/lib/beans/v2/NodeReferenceBean.class
net/sf/okapi/lib/beans/v1/InlineAnnotationBean.class
net/sf/okapi/lib/beans/v0/FactoryBean.class
net/sf/okapi/lib/beans/v2/ITSProvenanceCollectionBean.class
net/sf/okapi/lib/beans/v0/CodeBean.class
net/sf/okapi/lib/beans/v0/DocumentPartBean.class
net/sf/okapi/lib/beans/v1/PropertyBean.class
net/sf/okapi/lib/beans/v1/OkapiBeans.class
net/sf/okapi/lib/beans/v0/FilterWriterBean.class
net/sf/okapi/lib/beans/v1/BaseNameableBean.class
net/sf/okapi/lib/beans/v1/EndSubfilterBean.class
net/sf/okapi/lib/beans/v1/BaseReferenceableBean.class
net/sf/okapi/lib/beans/v2/StatelessEncoderBean.class
net/sf/okapi/lib/beans/v0/DocumentBean.class
net/sf/okapi/lib/beans/v2/EncoderManagerBean.class
net/sf/okapi/lib/beans/v2/GenericAnnotationsBean.class
net/sf/okapi/lib/beans/v0/TextContainerBean.class
net/sf/okapi/lib/beans/v1/InputStreamBean.class
net/sf/okapi/lib/beans/v0/TargetPropertiesAnnotationBean.class
net/sf/okapi/lib/beans/v2/IDMLSkeletonBean$CType.class
net/sf/okapi/lib/beans/v2/XLIFFContentBean.class
net/sf/okapi/lib/beans/v1/EventBean.class
