net/sf/okapi/filters/versifiedtxt/VersifiedTextFilter.class
net/sf/okapi/filters/versifiedtxt/VersifiedTextWriter.class
net/sf/okapi/filters/versifiedtxt/VersifiedTextFilter$1.class
net/sf/okapi/filters/versifiedtxt/Parameters.class
net/sf/okapi/filters/versifiedtxt/VersifiedTextWriter$1.class
