-------------------------------------------------------------------------------
Test set: net.sf.okapi.steps.xliffkit.TestJackson
-------------------------------------------------------------------------------
Tests run: 1, Failures: 0, Errors: 0, Skipped: 0, Time elapsed: 0.004 sec - in net.sf.okapi.steps.xliffkit.TestJackson
