net/sf/okapi/steps/rainbowkit/ui/CreationParametersEditor$6.class
net/sf/okapi/steps/rainbowkit/ui/CreationParametersEditor$1.class
net/sf/okapi/steps/rainbowkit/ui/CreationParametersEditor$3.class
net/sf/okapi/steps/rainbowkit/ui/CreationParametersEditor.class
net/sf/okapi/steps/rainbowkit/ui/CreationParametersEditor$5.class
net/sf/okapi/steps/rainbowkit/ui/CreationParametersEditor$4.class
net/sf/okapi/steps/rainbowkit/ui/CreationParametersEditor$2.class
