-------------------------------------------------------------------------------
Test set: net.sf.okapi.steps.wordcount.categorized.gmx.TestGMXCounts
-------------------------------------------------------------------------------
Tests run: 15, Failures: 0, Errors: 0, Skipped: 0, Time elapsed: 1.082 sec - in net.sf.okapi.steps.wordcount.categorized.gmx.TestGMXCounts
