-------------------------------------------------------------------------------
Test set: net.sf.okapi.filters.abstractmarkup.SimplifierRulesTest
-------------------------------------------------------------------------------
Tests run: 57, Failures: 0, Errors: 0, Skipped: 0, Time elapsed: 4.074 sec - in net.sf.okapi.filters.abstractmarkup.SimplifierRulesTest
