net/sf/okapi/filters/yaml/parser/DummyHandler.class
net/sf/okapi/filters/yaml/parser/YamlParserTest.class
net/sf/okapi/filters/yaml/YmlFilterTest.class
net/sf/okapi/filters/yaml/parser/YamlParserTest$1.class
