/home/ttnd/okapi-priya/okapi/okapi/filters/yaml/src/test/java/net/sf/okapi/filters/yaml/parser/DummyHandler.java
/home/ttnd/okapi-priya/okapi/okapi/filters/yaml/src/test/java/net/sf/okapi/filters/yaml/parser/YamlParserTest.java
/home/ttnd/okapi-priya/okapi/okapi/filters/yaml/src/test/java/net/sf/okapi/filters/yaml/YmlFilterTest.java
