/home/ttnd/okapi-priya/okapi/applications/rainbow/src/main/java/net/sf/okapi/applications/rainbow/UtilitiesAccessItem.java
/home/ttnd/okapi-priya/okapi/applications/rainbow/src/main/java/net/sf/okapi/applications/rainbow/utilities/CancelListener.java
/home/ttnd/okapi-priya/okapi/applications/rainbow/src/main/java/net/sf/okapi/applications/rainbow/pipeline/PreDefinedPipelines.java
/home/ttnd/okapi-priya/okapi/applications/rainbow/src/main/java/net/sf/okapi/applications/rainbow/pipeline/TranslationComparisonPipeline.java
/home/ttnd/okapi-priya/okapi/applications/rainbow/src/main/java/net/sf/okapi/applications/rainbow/packages/IReader.java
/home/ttnd/okapi-priya/okapi/applications/rainbow/src/main/java/net/sf/okapi/applications/rainbow/lib/RTFStyle.java
/home/ttnd/okapi-priya/okapi/applications/rainbow/src/main/java/net/sf/okapi/applications/rainbow/lib/LanguageManager.java
/home/ttnd/okapi-priya/okapi/applications/rainbow/src/main/java/net/sf/okapi/applications/rainbow/utilities/OutputData.java
/home/ttnd/okapi-priya/okapi/applications/rainbow/src/main/java/net/sf/okapi/applications/rainbow/PreferencesForm.java
/home/ttnd/okapi-priya/okapi/applications/rainbow/src/main/java/net/sf/okapi/applications/rainbow/utilities/alignment/DbStore.java
/home/ttnd/okapi-priya/okapi/applications/rainbow/src/main/java/net/sf/okapi/applications/rainbow/pipeline/EncodingConversionPipeline.java
/home/ttnd/okapi-priya/okapi/applications/rainbow/src/main/java/net/sf/okapi/applications/rainbow/packages/xliff/Reader.java
/home/ttnd/okapi-priya/okapi/applications/rainbow/src/main/java/net/sf/okapi/applications/rainbow/lib/LogProgressMode.java
/home/ttnd/okapi-priya/okapi/applications/rainbow/src/main/java/net/sf/okapi/applications/rainbow/lib/Utils.java
/home/ttnd/okapi-priya/okapi/applications/rainbow/src/main/java/net/sf/okapi/applications/rainbow/pipeline/SnRWithoutFilterPipeline.java
/home/ttnd/okapi-priya/okapi/applications/rainbow/src/main/java/net/sf/okapi/applications/rainbow/packages/rtf/Writer.java
/home/ttnd/okapi-priya/okapi/applications/rainbow/src/main/java/net/sf/okapi/applications/rainbow/packages/xliff/Writer.java
/home/ttnd/okapi-priya/okapi/applications/rainbow/src/main/java/net/sf/okapi/applications/rainbow/pipeline/EmbeddableEditorButton.java
/home/ttnd/okapi-priya/okapi/applications/rainbow/src/main/java/net/sf/okapi/applications/rainbow/pipeline/LineBreakConversionPipeline.java
/home/ttnd/okapi-priya/okapi/applications/rainbow/src/main/java/net/sf/okapi/applications/rainbow/BatchLog.java
/home/ttnd/okapi-priya/okapi/applications/rainbow/src/main/java/net/sf/okapi/applications/rainbow/utilities/alignment/DbStoreBuilder.java
/home/ttnd/okapi-priya/okapi/applications/rainbow/src/main/java/net/sf/okapi/applications/rainbow/utilities/extraction/Utility.java
/home/ttnd/okapi-priya/okapi/applications/rainbow/src/main/java/net/sf/okapi/applications/rainbow/lib/ILog.java
/home/ttnd/okapi-priya/okapi/applications/rainbow/src/main/java/net/sf/okapi/applications/rainbow/lib/PathBuilder.java
/home/ttnd/okapi-priya/okapi/applications/rainbow/src/main/java/net/sf/okapi/applications/rainbow/pipeline/SnRWithFilterPipeline.java
/home/ttnd/okapi-priya/okapi/applications/rainbow/src/main/java/net/sf/okapi/applications/rainbow/logger/LogHandlerNop.java
/home/ttnd/okapi-priya/okapi/applications/rainbow/src/main/java/net/sf/okapi/applications/rainbow/utilities/merging/Merger.java
/home/ttnd/okapi-priya/okapi/applications/rainbow/src/main/java/net/sf/okapi/applications/rainbow/packages/BaseWriter.java
/home/ttnd/okapi-priya/okapi/applications/rainbow/src/main/java/net/sf/okapi/applications/rainbow/batchconfig/BatchConfiguration.java
/home/ttnd/okapi-priya/okapi/applications/rainbow/src/main/java/net/sf/okapi/applications/rainbow/InputPropertiesForm.java
/home/ttnd/okapi-priya/okapi/applications/rainbow/src/main/java/net/sf/okapi/applications/rainbow/Project.java
/home/ttnd/okapi-priya/okapi/applications/rainbow/src/main/java/net/sf/okapi/applications/rainbow/pipeline/URIConversionPipeline.java
/home/ttnd/okapi-priya/okapi/applications/rainbow/src/main/java/net/sf/okapi/applications/rainbow/utilities/merging/Utility.java
/home/ttnd/okapi-priya/okapi/applications/rainbow/src/main/java/net/sf/okapi/applications/rainbow/Input.java
/home/ttnd/okapi-priya/okapi/applications/rainbow/src/main/java/net/sf/okapi/applications/rainbow/pipeline/ImageModificationPipeline.java
/home/ttnd/okapi-priya/okapi/applications/rainbow/src/main/java/net/sf/okapi/applications/rainbow/packages/ManifestItem.java
/home/ttnd/okapi-priya/okapi/applications/rainbow/src/main/java/net/sf/okapi/applications/rainbow/pipeline/ImportTMPipeline.java
/home/ttnd/okapi-priya/okapi/applications/rainbow/src/main/java/net/sf/okapi/applications/rainbow/lib/FormatManager.java
/home/ttnd/okapi-priya/okapi/applications/rainbow/src/main/java/net/sf/okapi/applications/rainbow/lib/LogForm.java
/home/ttnd/okapi-priya/okapi/applications/rainbow/src/main/java/net/sf/okapi/applications/rainbow/lib/Res.java
/home/ttnd/okapi-priya/okapi/applications/rainbow/src/main/java/net/sf/okapi/applications/rainbow/packages/IWriter.java
/home/ttnd/okapi-priya/okapi/applications/rainbow/src/main/java/net/sf/okapi/applications/rainbow/packages/omegat/Reader.java
/home/ttnd/okapi-priya/okapi/applications/rainbow/src/main/java/net/sf/okapi/applications/rainbow/utilities/alignment/Aligner.java
/home/ttnd/okapi-priya/okapi/applications/rainbow/src/main/java/net/sf/okapi/applications/rainbow/utilities/ISimpleUtility.java
/home/ttnd/okapi-priya/okapi/applications/rainbow/src/main/java/net/sf/okapi/applications/rainbow/MainForm.java
/home/ttnd/okapi-priya/okapi/applications/rainbow/src/main/java/net/sf/okapi/applications/rainbow/logger/LogHandlerFactory.java
/home/ttnd/okapi-priya/okapi/applications/rainbow/src/main/java/net/sf/okapi/applications/rainbow/lib/EncodingManager.java
/home/ttnd/okapi-priya/okapi/applications/rainbow/src/main/java/net/sf/okapi/applications/rainbow/utilities/CancelEvent.java
/home/ttnd/okapi-priya/okapi/applications/rainbow/src/main/java/net/sf/okapi/applications/rainbow/pipeline/StepInfo.java
/home/ttnd/okapi-priya/okapi/applications/rainbow/src/main/java/net/sf/okapi/applications/rainbow/lib/CustomConfigurationFolderPanel.java
/home/ttnd/okapi-priya/okapi/applications/rainbow/src/main/java/net/sf/okapi/applications/rainbow/StatusBar.java
/home/ttnd/okapi-priya/okapi/applications/rainbow/src/main/java/net/sf/okapi/applications/rainbow/lib/IAnalysisReporter.java
/home/ttnd/okapi-priya/okapi/applications/rainbow/src/main/java/net/sf/okapi/applications/rainbow/pipeline/XMLCharactersFixingPipeline.java
/home/ttnd/okapi-priya/okapi/applications/rainbow/src/main/java/net/sf/okapi/applications/rainbow/utilities/alignment/Parameters.java
/home/ttnd/okapi-priya/okapi/applications/rainbow/src/main/java/net/sf/okapi/applications/rainbow/packages/xliff/Options.java
/home/ttnd/okapi-priya/okapi/applications/rainbow/src/main/java/net/sf/okapi/applications/rainbow/pipeline/FormatConversionPipeline.java
/home/ttnd/okapi-priya/okapi/applications/rainbow/src/main/java/net/sf/okapi/applications/rainbow/utilities/merging/ManifestDialog.java
/home/ttnd/okapi-priya/okapi/applications/rainbow/src/main/java/net/sf/okapi/applications/rainbow/pipeline/TermExtractionPipeline.java
/home/ttnd/okapi-priya/okapi/applications/rainbow/src/main/java/net/sf/okapi/applications/rainbow/utilities/IFilterDrivenUtility.java
/home/ttnd/okapi-priya/okapi/applications/rainbow/src/main/java/net/sf/okapi/applications/rainbow/pipeline/XMLAnalysisPipeline.java
/home/ttnd/okapi-priya/okapi/applications/rainbow/src/main/java/net/sf/okapi/applications/rainbow/packages/omegat/Writer.java
/home/ttnd/okapi-priya/okapi/applications/rainbow/src/main/java/net/sf/okapi/applications/rainbow/pipeline/IPredefinedPipeline.java
/home/ttnd/okapi-priya/okapi/applications/rainbow/src/main/java/net/sf/okapi/applications/rainbow/utilities/UtilityStep.java
/home/ttnd/okapi-priya/okapi/applications/rainbow/src/main/java/net/sf/okapi/applications/rainbow/pipeline/PipelineWrapper.java
/home/ttnd/okapi-priya/okapi/applications/rainbow/src/main/java/net/sf/okapi/applications/rainbow/utilities/merging/ManifestTableModel.java
/home/ttnd/okapi-priya/okapi/applications/rainbow/src/main/java/net/sf/okapi/applications/rainbow/utilities/extraction/Editor.java
/home/ttnd/okapi-priya/okapi/applications/rainbow/src/main/java/net/sf/okapi/applications/rainbow/pipeline/PipelineStepUIDescription.java
/home/ttnd/okapi-priya/okapi/applications/rainbow/src/main/java/net/sf/okapi/applications/rainbow/packages/Manifest.java
/home/ttnd/okapi-priya/okapi/applications/rainbow/src/main/java/net/sf/okapi/applications/rainbow/pipeline/PipelineStorage.java
/home/ttnd/okapi-priya/okapi/applications/rainbow/src/main/java/net/sf/okapi/applications/rainbow/utilities/InputData.java
/home/ttnd/okapi-priya/okapi/applications/rainbow/src/main/java/net/sf/okapi/applications/rainbow/logger/ILogHandler.java
/home/ttnd/okapi-priya/okapi/applications/rainbow/src/main/java/net/sf/okapi/applications/rainbow/UtilitiesAccess.java
/home/ttnd/okapi-priya/okapi/applications/rainbow/src/main/java/net/sf/okapi/applications/rainbow/lib/CodeFinderEditor.java
/home/ttnd/okapi-priya/okapi/applications/rainbow/src/main/java/net/sf/okapi/applications/rainbow/utilities/IUtility.java
/home/ttnd/okapi-priya/okapi/applications/rainbow/src/main/java/net/sf/okapi/applications/rainbow/InputTableModel.java
/home/ttnd/okapi-priya/okapi/applications/rainbow/src/main/java/net/sf/okapi/applications/rainbow/pipeline/RTFConversionPipeline.java
/home/ttnd/okapi-priya/okapi/applications/rainbow/src/main/java/net/sf/okapi/applications/rainbow/packages/xliff/OptionsEditor.java
/home/ttnd/okapi-priya/okapi/applications/rainbow/src/main/java/net/sf/okapi/applications/rainbow/pipeline/PredefinedPipeline.java
/home/ttnd/okapi-priya/okapi/applications/rainbow/src/main/java/net/sf/okapi/applications/rainbow/pipeline/PipelineEditor.java
/home/ttnd/okapi-priya/okapi/applications/rainbow/src/main/java/net/sf/okapi/applications/rainbow/UtilityDriver.java
/home/ttnd/okapi-priya/okapi/applications/rainbow/src/main/java/net/sf/okapi/applications/rainbow/lib/FilterConfigInfoEditor.java
/home/ttnd/okapi-priya/okapi/applications/rainbow/src/main/java/net/sf/okapi/applications/rainbow/Main.java
/home/ttnd/okapi-priya/okapi/applications/rainbow/src/main/java/net/sf/okapi/applications/rainbow/lib/FilterConfigSelectionPanel.java
/home/ttnd/okapi-priya/okapi/applications/rainbow/src/main/java/net/sf/okapi/applications/rainbow/pipeline/StepPicker.java
/home/ttnd/okapi-priya/okapi/applications/rainbow/src/main/java/net/sf/okapi/applications/rainbow/utilities/alignment/Editor.java
/home/ttnd/okapi-priya/okapi/applications/rainbow/src/main/java/net/sf/okapi/applications/rainbow/logger/LogHandlerJDK.java
/home/ttnd/okapi-priya/okapi/applications/rainbow/src/main/java/net/sf/okapi/applications/rainbow/lib/FilterSettingsMarkers.java
/home/ttnd/okapi-priya/okapi/applications/rainbow/src/main/java/net/sf/okapi/applications/rainbow/pipeline/BatchTranslationPipeline.java
/home/ttnd/okapi-priya/okapi/applications/rainbow/src/main/java/net/sf/okapi/applications/rainbow/pipeline/QualityCheckPipeline.java
/home/ttnd/okapi-priya/okapi/applications/rainbow/src/main/java/net/sf/okapi/applications/rainbow/pipeline/TranslationKitPostProcessingPipeline.java
/home/ttnd/okapi-priya/okapi/applications/rainbow/src/main/java/net/sf/okapi/applications/rainbow/Res.java
/home/ttnd/okapi-priya/okapi/applications/rainbow/src/main/java/net/sf/okapi/applications/rainbow/CommandLine.java
/home/ttnd/okapi-priya/okapi/applications/rainbow/src/main/java/net/sf/okapi/applications/rainbow/utilities/alignment/Utility.java
/home/ttnd/okapi-priya/okapi/applications/rainbow/src/main/java/net/sf/okapi/applications/rainbow/pipeline/BOMConversionPipeline.java
/home/ttnd/okapi-priya/okapi/applications/rainbow/src/main/java/net/sf/okapi/applications/rainbow/lib/LogType.java
/home/ttnd/okapi-priya/okapi/applications/rainbow/src/main/java/net/sf/okapi/applications/rainbow/pipeline/TranslationKitCreationPipeline.java
/home/ttnd/okapi-priya/okapi/applications/rainbow/src/main/java/net/sf/okapi/applications/rainbow/pipeline/CharListingPipeline.java
/home/ttnd/okapi-priya/okapi/applications/rainbow/src/main/java/net/sf/okapi/applications/rainbow/pipeline/XSLTransformPipeline.java
/home/ttnd/okapi-priya/okapi/applications/rainbow/src/main/java/net/sf/okapi/applications/rainbow/lib/SegmentationPanel.java
/home/ttnd/okapi-priya/okapi/applications/rainbow/src/main/java/net/sf/okapi/applications/rainbow/utilities/BaseUtility.java
/home/ttnd/okapi-priya/okapi/applications/rainbow/src/main/java/net/sf/okapi/applications/rainbow/utilities/BaseFilterDrivenUtility.java
/home/ttnd/okapi-priya/okapi/applications/rainbow/src/main/java/net/sf/okapi/applications/rainbow/utilities/extraction/Parameters.java
/home/ttnd/okapi-priya/okapi/applications/rainbow/src/main/java/net/sf/okapi/applications/rainbow/lib/PathBuilderPanel.java
/home/ttnd/okapi-priya/okapi/applications/rainbow/src/main/java/net/sf/okapi/applications/rainbow/pipeline/XMLValidationPipeline.java
/home/ttnd/okapi-priya/okapi/applications/rainbow/src/main/java/net/sf/okapi/applications/rainbow/utilities/extraction/HTMLReporter.java
/home/ttnd/okapi-priya/okapi/applications/rainbow/src/main/java/net/sf/okapi/applications/rainbow/pipeline/TextRewritingPipeline.java
/home/ttnd/okapi-priya/okapi/applications/rainbow/src/main/java/net/sf/okapi/applications/rainbow/lib/EncodingItem.java
/home/ttnd/okapi-priya/okapi/applications/rainbow/src/main/java/net/sf/okapi/applications/rainbow/lib/LanguageItem.java
