-------------------------------------------------------------------------------
Test set: net.sf.okapi.filters.xliff.XLIFFFilterTest
-------------------------------------------------------------------------------
Tests run: 116, Failures: 0, Errors: 0, Skipped: 0, Time elapsed: 26.059 sec - in net.sf.okapi.filters.xliff.XLIFFFilterTest
