<?xml version="1.0" encoding="UTF-8"?>
<testsuite xmlns:xsi="http://www.w3.org/2001/XMLSchema-instance" xsi:schemaLocation="https://maven.apache.org/surefire/maven-surefire-plugin/xsd/surefire-test-report.xsd" name="net.sf.okapi.filters.xliff.XLIFFFilterTest" time="26.059" tests="116" errors="0" skipped="0" failures="0">
  <properties>
    <property name="os.detected.version" value="3.19"/>
    <property name="idea.version" value="2016.1.2"/>
    <property name="java.runtime.name" value="Java(TM) SE Runtime Environment"/>
    <property name="sun.boot.library.path" value="/usr/lib/jvm/java-7-oracle/jre/lib/amd64"/>
    <property name="java.vm.version" value="24.80-b11"/>
    <property name="java.vm.vendor" value="Oracle Corporation"/>
    <property name="java.vendor.url" value="http://java.oracle.com/"/>
    <property name="os.detected.version.minor" value="19"/>
    <property name="path.separator" value=":"/>
    <property name="guice.disable.misplaced.annotation.check" value="true"/>
    <property name="java.vm.name" value="Java HotSpot(TM) 64-Bit Server VM"/>
    <property name="file.encoding.pkg" value="sun.io"/>
    <property name="idea.launcher.port" value="7532"/>
    <property name="user.country" value="IN"/>
    <property name="sun.java.launcher" value="SUN_STANDARD"/>
    <property name="sun.os.patch.level" value="unknown"/>
    <property name="java.vm.specification.name" value="Java Virtual Machine Specification"/>
    <property name="user.dir" value="/home/ttnd/okapi-priya/okapi"/>
    <property name="os.detected.release.like.debian" value="true"/>
    <property name="java.runtime.version" value="1.7.0_80-b15"/>
    <property name="java.awt.graphicsenv" value="sun.awt.X11GraphicsEnvironment"/>
    <property name="java.endorsed.dirs" value="/usr/lib/jvm/java-7-oracle/jre/lib/endorsed"/>
    <property name="os.arch" value="amd64"/>
    <property name="java.io.tmpdir" value="/tmp"/>
    <property name="os.detected.release.version" value="14.04"/>
    <property name="line.separator" value="&#10;"/>
    <property name="java.vm.specification.vendor" value="Oracle Corporation"/>
    <property name="os.detected.version.major" value="3"/>
    <property name="os.name" value="Linux"/>
    <property name="os.detected.classifier" value="linux-x86_64"/>
    <property name="classworlds.conf" value="/home/ttnd/Desktop/software/idea-IU-145.972.3/plugins/maven/lib/maven3/bin/m2.conf"/>
    <property name="sun.jnu.encoding" value="UTF-8"/>
    <property name="java.library.path" value="/home/ttnd/Desktop/software/idea-IU-145.972.3/bin::/usr/java/packages/lib/amd64:/usr/lib64:/lib64:/lib:/usr/lib"/>
    <property name="os.detected.arch" value="x86_64"/>
    <property name="java.class.version" value="51.0"/>
    <property name="java.specification.name" value="Java Platform API Specification"/>
    <property name="sun.management.compiler" value="HotSpot 64-Bit Tiered Compilers"/>
    <property name="os.detected.name" value="linux"/>
    <property name="os.version" value="3.19.0-25-generic"/>
    <property name="user.home" value="/home/ttnd"/>
    <property name="user.timezone" value="Asia/Kolkata"/>
    <property name="java.awt.printerjob" value="sun.print.PSPrinterJob"/>
    <property name="java.specification.version" value="1.7"/>
    <property name="idea.launcher.bin.path" value="/home/ttnd/Desktop/software/idea-IU-145.972.3/bin"/>
    <property name="file.encoding" value="UTF-8"/>
    <property name="os.detected.release" value="ubuntu"/>
    <property name="user.name" value="ttnd"/>
    <property name="java.class.path" value="/home/ttnd/Desktop/software/idea-IU-145.972.3/plugins/maven/lib/maven3/boot/plexus-classworlds-2.4.jar:/home/ttnd/Desktop/software/idea-IU-145.972.3/lib/idea_rt.jar"/>
    <property name="skipITs" value="true"/>
    <property name="java.vm.specification.version" value="1.7"/>
    <property name="sun.arch.data.model" value="64"/>
    <property name="java.home" value="/usr/lib/jvm/java-7-oracle/jre"/>
    <property name="sun.java.command" value="com.intellij.rt.execution.application.AppMain org.codehaus.classworlds.Launcher -Didea.version=2016.1.2 install -q -TC8 -DskipITs"/>
    <property name="java.specification.vendor" value="Oracle Corporation"/>
    <property name="user.language" value="en"/>
    <property name="awt.toolkit" value="sun.awt.X11.XToolkit"/>
    <property name="java.vm.info" value="mixed mode"/>
    <property name="os.detected.release.like.ubuntu" value="true"/>
    <property name="java.version" value="1.7.0_80"/>
    <property name="java.ext.dirs" value="/usr/lib/jvm/java-7-oracle/jre/lib/ext:/usr/java/packages/lib/ext"/>
    <property name="securerandom.source" value="file:/dev/./urandom"/>
    <property name="sun.boot.class.path" value="/usr/lib/jvm/java-7-oracle/jre/lib/resources.jar:/usr/lib/jvm/java-7-oracle/jre/lib/rt.jar:/usr/lib/jvm/java-7-oracle/jre/lib/sunrsasign.jar:/usr/lib/jvm/java-7-oracle/jre/lib/jsse.jar:/usr/lib/jvm/java-7-oracle/jre/lib/jce.jar:/usr/lib/jvm/java-7-oracle/jre/lib/charsets.jar:/usr/lib/jvm/java-7-oracle/jre/lib/jfr.jar:/usr/lib/jvm/java-7-oracle/jre/classes"/>
    <property name="java.vendor" value="Oracle Corporation"/>
    <property name="maven.home" value="/home/ttnd/Desktop/software/idea-IU-145.972.3/plugins/maven/lib/maven3"/>
    <property name="file.separator" value="/"/>
    <property name="java.vendor.url.bug" value="http://bugreport.sun.com/bugreport/"/>
    <property name="sun.cpu.endian" value="little"/>
    <property name="sun.io.unicode.encoding" value="UnicodeLittle"/>
    <property name="sun.desktop" value="gnome"/>
    <property name="sun.cpu.isalist" value=""/>
  </properties>
  <testcase name="testSegmentationWithEmptyTarget" classname="net.sf.okapi.filters.xliff.XLIFFFilterTest" time="0.408"/>
  <testcase name="testSegmentedAddedBptEptAndPh" classname="net.sf.okapi.filters.xliff.XLIFFFilterTest" time="0.02"/>
  <testcase name="testAllowEmptyTargets" classname="net.sf.okapi.filters.xliff.XLIFFFilterTest" time="0.023"/>
  <testcase name="corruptCodeIdsAfterJoinAll" classname="net.sf.okapi.filters.xliff.XLIFFFilterTest" time="0.022"/>
  <testcase name="testEmptyCodes" classname="net.sf.okapi.filters.xliff.XLIFFFilterTest" time="0.013"/>
  <testcase name="testSegmentedAddedBptEpt" classname="net.sf.okapi.filters.xliff.XLIFFFilterTest" time="0.004"/>
  <testcase name="testTranslateOnTU" classname="net.sf.okapi.filters.xliff.XLIFFFilterTest" time="0.012"/>
  <testcase name="testDoubleExtractionWithCustomElements" classname="net.sf.okapi.filters.xliff.XLIFFFilterTest" time="0.088"/>
  <testcase name="testXLIFFITSProvenanceFile" classname="net.sf.okapi.filters.xliff.XLIFFFilterTest" time="0.016"/>
  <testcase name="testOutputSegmentationWithEmptyTarget" classname="net.sf.okapi.filters.xliff.XLIFFFilterTest" time="0.005"/>
  <testcase name="testCREntityOutput" classname="net.sf.okapi.filters.xliff.XLIFFFilterTest" time="0.007"/>
  <testcase name="testMtConfidence" classname="net.sf.okapi.filters.xliff.XLIFFFilterTest" time="0.012"/>
  <testcase name="testXmlLangModification" classname="net.sf.okapi.filters.xliff.XLIFFFilterTest" time="0.005"/>
  <testcase name="testXLIFFITSProvenance" classname="net.sf.okapi.filters.xliff.XLIFFFilterTest" time="0.011"/>
  <testcase name="testAlwaysUseSegSource" classname="net.sf.okapi.filters.xliff.XLIFFFilterTest" time="0.011"/>
  <testcase name="testSimpleSub" classname="net.sf.okapi.filters.xliff.XLIFFFilterTest" time="0.008"/>
  <testcase name="testOutputMrk" classname="net.sf.okapi.filters.xliff.XLIFFFilterTest" time="0.004"/>
  <testcase name="testSegmentedSource1" classname="net.sf.okapi.filters.xliff.XLIFFFilterTest" time="0.006"/>
  <testcase name="testLQR" classname="net.sf.okapi.filters.xliff.XLIFFFilterTest" time="0.025"/>
  <testcase name="testMrk" classname="net.sf.okapi.filters.xliff.XLIFFFilterTest" time="0.004"/>
  <testcase name="testBilingualTransUnit" classname="net.sf.okapi.filters.xliff.XLIFFFilterTest" time="0.004"/>
  <testcase name="testStartDocument" classname="net.sf.okapi.filters.xliff.XLIFFFilterTest" time="0.008"/>
  <testcase name="testAltTransWithEmptyTarget" classname="net.sf.okapi.filters.xliff.XLIFFFilterTest" time="0.072"/>
  <testcase name="testAlTrans" classname="net.sf.okapi.filters.xliff.XLIFFFilterTest" time="0.015"/>
  <testcase name="testComplexSUB" classname="net.sf.okapi.filters.xliff.XLIFFFilterTest" time="0.011"/>
  <testcase name="testStorageSizeAndAllowedChars" classname="net.sf.okapi.filters.xliff.XLIFFFilterTest" time="0.001"/>
  <testcase name="testNotes" classname="net.sf.okapi.filters.xliff.XLIFFFilterTest" time="0.005"/>
  <testcase name="testOutputAlTrans" classname="net.sf.okapi.filters.xliff.XLIFFFilterTest" time="0.006"/>
  <testcase name="testTool" classname="net.sf.okapi.filters.xliff.XLIFFFilterTest" time="0.025"/>
  <testcase name="testSegmentedWithEmptyTarget" classname="net.sf.okapi.filters.xliff.XLIFFFilterTest" time="0.007"/>
  <testcase name="testDefaultInfo" classname="net.sf.okapi.filters.xliff.XLIFFFilterTest" time="0.002"/>
  <testcase name="testSegmentedAddedItAndPh" classname="net.sf.okapi.filters.xliff.XLIFFFilterTest" time="0.009"/>
  <testcase name="testPreserveSpacesInSegmentedTU" classname="net.sf.okapi.filters.xliff.XLIFFFilterTest" time="0.004"/>
  <testcase name="testSpecialAttributeValues" classname="net.sf.okapi.filters.xliff.XLIFFFilterTest" time="0.018"/>
  <testcase name="testEmptyTargetInAltTrans" classname="net.sf.okapi.filters.xliff.XLIFFFilterTest" time="0.016"/>
  <testcase name="testCREntity" classname="net.sf.okapi.filters.xliff.XLIFFFilterTest" time="0.006"/>
  <testcase name="testApprovedOutput" classname="net.sf.okapi.filters.xliff.XLIFFFilterTest" time="0.016"/>
  <testcase name="testBilingualInlines" classname="net.sf.okapi.filters.xliff.XLIFFFilterTest" time="0.009"/>
  <testcase name="testDoubleExtractionWithMultiAltTrans" classname="net.sf.okapi.filters.xliff.XLIFFFilterTest" time="0.037"/>
  <testcase name="testSimpleTransUnit" classname="net.sf.okapi.filters.xliff.XLIFFFilterTest" time="0.005"/>
  <testcase name="testStartDocumentFromList" classname="net.sf.okapi.filters.xliff.XLIFFFilterTest" time="0.01"/>
  <testcase name="testXLIFFITSLQIMapping" classname="net.sf.okapi.filters.xliff.XLIFFFilterTest" time="0.066"/>
  <testcase name="testSegmentedTarget" classname="net.sf.okapi.filters.xliff.XLIFFFilterTest" time="0.006"/>
  <testcase name="testLocNoteModification" classname="net.sf.okapi.filters.xliff.XLIFFFilterTest" time="0.012"/>
  <testcase name="testSegmentedNoTargetEntryOutput" classname="net.sf.okapi.filters.xliff.XLIFFFilterTest" time="0.017"/>
  <testcase name="testLQIAnnotations" classname="net.sf.okapi.filters.xliff.XLIFFFilterTest" time="0.166"/>
  <testcase name="testXLIFFITSProvenanceGroup" classname="net.sf.okapi.filters.xliff.XLIFFFilterTest" time="0.011"/>
  <testcase name="testDoubleExtractionSdlXliff" classname="net.sf.okapi.filters.xliff.XLIFFFilterTest" time="0.748"/>
  <testcase name="testEmptyTargetCondition" classname="net.sf.okapi.filters.xliff.XLIFFFilterTest" time="0.003"/>
  <testcase name="testStartSubDocumentFromList" classname="net.sf.okapi.filters.xliff.XLIFFFilterTest" time="0.004"/>
  <testcase name="testSegmentedAddedIt" classname="net.sf.okapi.filters.xliff.XLIFFFilterTest" time="0.019"/>
  <testcase name="testSegmentedAddedPh" classname="net.sf.okapi.filters.xliff.XLIFFFilterTest" time="0.002"/>
  <testcase name="testCDATAEntry" classname="net.sf.okapi.filters.xliff.XLIFFFilterTest" time="0.002"/>
  <testcase name="testUnwrapSpacesInSegmentedTU" classname="net.sf.okapi.filters.xliff.XLIFFFilterTest" time="0.002"/>
  <testcase name="testMultiLevelsSub" classname="net.sf.okapi.filters.xliff.XLIFFFilterTest" time="0.002"/>
  <testcase name="testProtectedOnMRK" classname="net.sf.okapi.filters.xliff.XLIFFFilterTest" time="0.011"/>
  <testcase name="testMtConfidenceAltTrans" classname="net.sf.okapi.filters.xliff.XLIFFFilterTest" time="0.011"/>
  <testcase name="testMtConfidenceInline" classname="net.sf.okapi.filters.xliff.XLIFFFilterTest" time="0.004"/>
  <testcase name="testOutputBPTTypeTransUnit" classname="net.sf.okapi.filters.xliff.XLIFFFilterTest" time="0.003"/>
  <testcase name="testLangAndSpaceInline" classname="net.sf.okapi.filters.xliff.XLIFFFilterTest" time="0.005"/>
  <testcase name="testSegmentedSourceWithOuterCodes" classname="net.sf.okapi.filters.xliff.XLIFFFilterTest" time="0.006"/>
  <testcase name="testTargetStateCoordOutput" classname="net.sf.okapi.filters.xliff.XLIFFFilterTest" time="0.003"/>
  <testcase name="testMtConfidenceOutput" classname="net.sf.okapi.filters.xliff.XLIFFFilterTest" time="0.003"/>
  <testcase name="testPreserveSpaceByDefaultOnTransUnit" classname="net.sf.okapi.filters.xliff.XLIFFFilterTest" time="0.003"/>
  <testcase name="testAddedCloneCode" classname="net.sf.okapi.filters.xliff.XLIFFFilterTest" time="0.003"/>
  <testcase name="testBPTAndSUBTypeTransUnit" classname="net.sf.okapi.filters.xliff.XLIFFFilterTest" time="0.003"/>
  <testcase name="testAllowedCharsModification" classname="net.sf.okapi.filters.xliff.XLIFFFilterTest" time="0.004"/>
  <testcase name="testWithNamespaces" classname="net.sf.okapi.filters.xliff.XLIFFFilterTest" time="0.002"/>
  <testcase name="testBilingualTransUnitWithEmptyLocales" classname="net.sf.okapi.filters.xliff.XLIFFFilterTest" time="0.054"/>
  <testcase name="testIgnoredSegmentedTarget" classname="net.sf.okapi.filters.xliff.XLIFFFilterTest" time="0.019"/>
  <testcase name="testLQRInline" classname="net.sf.okapi.filters.xliff.XLIFFFilterTest" time="0.002"/>
  <testcase name="testApprovedTU" classname="net.sf.okapi.filters.xliff.XLIFFFilterTest" time="0.006"/>
  <testcase name="testAlTransData" classname="net.sf.okapi.filters.xliff.XLIFFFilterTest" time="0.003"/>
  <testcase name="testITSAnnotatorsRef" classname="net.sf.okapi.filters.xliff.XLIFFFilterTest" time="0.008"/>
  <testcase name="testUnbalancedIT" classname="net.sf.okapi.filters.xliff.XLIFFFilterTest" time="0.001"/>
  <testcase name="testAddLQIModifications2" classname="net.sf.okapi.filters.xliff.XLIFFFilterTest" time="0.011"/>
  <testcase name="testLQIRemoval" classname="net.sf.okapi.filters.xliff.XLIFFFilterTest" time="0.004"/>
  <testcase name="testSegmentIDs" classname="net.sf.okapi.filters.xliff.XLIFFFilterTest" time="0.002"/>
  <testcase name="testAddAltTrans" classname="net.sf.okapi.filters.xliff.XLIFFFilterTest" time="0.003"/>
  <testcase name="testITSStandoffManager" classname="net.sf.okapi.filters.xliff.XLIFFFilterTest" time="0.017"/>
  <testcase name="testAddXLIFFNote" classname="net.sf.okapi.filters.xliff.XLIFFFilterTest" time="0.004"/>
  <testcase name="testWSBetweenSegments" classname="net.sf.okapi.filters.xliff.XLIFFFilterTest" time="0.032"/>
  <testcase name="testTranslateOnGroup" classname="net.sf.okapi.filters.xliff.XLIFFFilterTest" time="0.013"/>
  <testcase name="testEmptyTarget" classname="net.sf.okapi.filters.xliff.XLIFFFilterTest" time="0.003"/>
  <testcase name="testSdlTagDefsWithSubs" classname="net.sf.okapi.filters.xliff.XLIFFFilterTest" time="3.875"/>
  <testcase name="testBalancedIT" classname="net.sf.okapi.filters.xliff.XLIFFFilterTest" time="0.008"/>
  <testcase name="testSegSourceWithoutMrkOutput" classname="net.sf.okapi.filters.xliff.XLIFFFilterTest" time="0.003"/>
  <testcase name="testPreserveSpaceByDefaultInSdlXliff" classname="net.sf.okapi.filters.xliff.XLIFFFilterTest" time="0.002"/>
  <testcase name="testITSAnnotations" classname="net.sf.okapi.filters.xliff.XLIFFFilterTest" time="0.002"/>
  <testcase name="testDoubleExtractionSdlXliffAll" classname="net.sf.okapi.filters.xliff.XLIFFFilterTest" time="15.502"/>
  <testcase name="testGroupIds" classname="net.sf.okapi.filters.xliff.XLIFFFilterTest" time="0.001"/>
  <testcase name="testNoTarget" classname="net.sf.okapi.filters.xliff.XLIFFFilterTest" time="0.001"/>
  <testcase name="testIssue424" classname="net.sf.okapi.filters.xliff.XLIFFFilterTest" time="0.072"/>
  <testcase name="testLQIAndProvModifications1" classname="net.sf.okapi.filters.xliff.XLIFFFilterTest" time="0.001"/>
  <testcase name="testMixedAlTrans" classname="net.sf.okapi.filters.xliff.XLIFFFilterTest" time="0.002"/>
  <testcase name="testSdlTagDefs" classname="net.sf.okapi.filters.xliff.XLIFFFilterTest" time="0.015"/>
  <testcase name="testStorageSizeModification" classname="net.sf.okapi.filters.xliff.XLIFFFilterTest" time="0.002"/>
  <testcase name="testSegmentedContent" classname="net.sf.okapi.filters.xliff.XLIFFFilterTest" time="0.001"/>
  <testcase name="testDoubleExtractionFromDEDEtoENUS" classname="net.sf.okapi.filters.xliff.XLIFFFilterTest" time="0.178"/>
  <testcase name="testOutputSkipTargetInExtention" classname="net.sf.okapi.filters.xliff.XLIFFFilterTest" time="0.001"/>
  <testcase name="testOutputOfResegmentedContent" classname="net.sf.okapi.filters.xliff.XLIFFFilterTest" time="1.641"/>
  <testcase name="testPreserveSpaces" classname="net.sf.okapi.filters.xliff.XLIFFFilterTest" time="0.001"/>
  <testcase name="testUnwrapSpaces" classname="net.sf.okapi.filters.xliff.XLIFFFilterTest" time="0.001"/>
  <testcase name="testSegmentedEntryWithDifferences" classname="net.sf.okapi.filters.xliff.XLIFFFilterTest" time="0.003"/>
  <testcase name="testSegmentedEntryOutput" classname="net.sf.okapi.filters.xliff.XLIFFFilterTest" time="0.004"/>
  <testcase name="testBPTTypeTransUnit" classname="net.sf.okapi.filters.xliff.XLIFFFilterTest" time="0.003"/>
  <testcase name="testPreserveSpaceByDefaultNoDeclaration" classname="net.sf.okapi.filters.xliff.XLIFFFilterTest" time="0.003"/>
  <testcase name="testOutputOverrideTargetlanguage" classname="net.sf.okapi.filters.xliff.XLIFFFilterTest" time="0.002"/>
  <testcase name="testDoubleExtractionDE" classname="net.sf.okapi.filters.xliff.XLIFFFilterTest" time="0.113"/>
  <testcase name="testDoubleExtractionES" classname="net.sf.okapi.filters.xliff.XLIFFFilterTest" time="1.584"/>
  <testcase name="testDoubleExtractionFR" classname="net.sf.okapi.filters.xliff.XLIFFFilterTest" time="0.499"/>
  <testcase name="testBPTWithSUB" classname="net.sf.okapi.filters.xliff.XLIFFFilterTest" time="0.002"/>
  <testcase name="testSegmentedEntry" classname="net.sf.okapi.filters.xliff.XLIFFFilterTest" time="0.001"/>
  <testcase name="testComplexSUBInTarget" classname="net.sf.okapi.filters.xliff.XLIFFFilterTest" time="0.001"/>
  <testcase name="testElementsInHeader" classname="net.sf.okapi.filters.xliff.XLIFFFilterTest" time="0.001"/>
  <testcase name="testDecimalAltTransValues" classname="net.sf.okapi.filters.xliff.XLIFFFilterTest" time="0.016"/>
</testsuite>