net/sf/okapi/tm/pensieve/seeker/PensieveSeeker.class
net/sf/okapi/tm/pensieve/common/MetadataType$1.class
net/sf/okapi/tm/pensieve/seeker/TmSeekerFactory.class
net/sf/okapi/tm/pensieve/tmx/ITmxExporter.class
net/sf/okapi/tm/pensieve/common/PensieveUtil.class
net/sf/okapi/tm/pensieve/writer/PensieveWriter.class
net/sf/okapi/tm/pensieve/common/MetadataType.class
net/sf/okapi/tm/pensieve/common/TranslationUnit.class
net/sf/okapi/tm/pensieve/writer/TmWriterFactory.class
net/sf/okapi/tm/pensieve/tmx/OkapiTmxImporter.class
net/sf/okapi/tm/pensieve/seeker/PensieveSeeker$TranslationUnitIterator.class
net/sf/okapi/tm/pensieve/common/TranslationUnitVariant.class
net/sf/okapi/tm/pensieve/tmx/OkapiTmxExporter.class
net/sf/okapi/tm/pensieve/writer/ITmWriter.class
net/sf/okapi/tm/pensieve/seeker/ITmSeeker.class
net/sf/okapi/tm/pensieve/common/Metadata.class
net/sf/okapi/tm/pensieve/common/TmHit.class
net/sf/okapi/tm/pensieve/tmx/ITmxImporter.class
net/sf/okapi/tm/pensieve/common/TranslationUnitField.class
